%!PS-Adobe-3.0 EPSF-3.0
%%Title: activereading_3.eps
%%Creator: XCircuit v3.7 rev55
%%CreationDate: Fri Nov 17 06:46:13 2017
%%Pages: 1
%%BoundingBox: 68 68 1006 622
%%DocumentNeededResources: font Helvetica Helvetica-Bold Helvetica-Oblique 
%%+ font Times-Roman 
%%EndComments
%%BeginProlog
%
%  PostScript prolog for output from xcircuit
%  Version: 3.7
%
%  Electrical circuit (and otherwise general) drawing program
%
%  Written by Tim Edwards 8/5/93--11/1/10  (tim.edwards@multigig.com)
%  The Johns Hopkins University (1993-2004)
%  MultiGiG, Inc. (2004-present)
%
%%BeginResource: procset XCIRCproc 3.7 2
%
% supporting definitions --- these are the primary xcircuit types.

/XCIRCsave save def
/topmat matrix currentmatrix def

/fontslant { /slant exch def [1 0 slant 1 0 0] 
    exch findfont exch makefont dup length dict /ndict exch def
    { 1 index /FID ne { ndict 3 1 roll put } { pop pop } ifelse } forall
    ndict definefont pop} def
/ul { dup type /stringtype eq showflag 1 eq and { gsave 
   currentpoint topmat setmatrix 0 0 moveto 2 index stringwidth pop (_)
   false charpath flattenpath pathbbox grestore exch pop 1 index
   sub setlinewidth exch pop currentpoint 3 -1 roll add moveto 0
   rlineto stroke moveto } if } def
/ol { dup type /stringtype eq showflag 1 eq and { gsave gsave
   currentpoint topmat setmatrix 2 index stringwidth pop 3 index
   true charpath flattenpath pathbbox grestore exch pop
   exch pop topmat setmatrix (_) true charpath pathbbox grestore
   exch pop 1 index sub setlinewidth exch pop currentpoint
   exch 4 1 roll exch sub add moveto pop 0 rlineto stroke
   moveto } if } def
/stW { gsave currentpoint newpath moveto true charpath flattenpath
	pathbbox pop exch pop sub grestore } def
/Ts {mark Tabs aload pop counttomark 1 add array astore /Tabs exch def Tabs
	0 currentpoint pop put} def
/Tbn {mark Tabs aload pop counttomark dup 2 add 1 roll cleartomark 1 sub} def
/Tb { 0 1 Tbn {Tabs exch get dup currentpoint pop lt
	{currentpoint exch pop moveto exit} {pop} ifelse } for } def
/Tf { Tbn -1 0 {Tabs exch get dup currentpoint pop gt
	{currentpoint exch pop moveto exit} {pop} ifelse } for } def
/qS { (aa) stW (a a) stW sub 4 div 0 Kn } def
/hS { qS qS } def
/pspc 0 def
/cf0 { scalefont setfont } bind def
/Kn { dup kY add /kY exch def rmoveto } bind def
/ss { /fscale fscale 0.67 mul def currentfont 0.67 cf0 0 fscale0 fscale mul
	0.33 mul neg Kn} def
/Ss { /fscale fscale 0.67 mul def currentfont 0.67 cf0 0 fscale0 fscale mul
	0.67 mul Kn } def
/ns { 0 kY neg Kn /kY 0 def /fscale 1.0 def xfont0 1.0 cf0 } def
/CR { ns 0 /Bline Bline fscale0 neg add def Bline moveto } def
/cf { dup type /realtype ne {1.0} if exch findfont exch kY 0 eq
	{ 40 mul dup /fscale0 exch def cf0 /xfont0 currentfont def}
	{fscale0 mul fscale mul cf0} ifelse } def
/ctmk { counttomark dup 2 add -1 roll pop } bind def
/label { gsave translate 0 0 moveto dup scale neg /rotval exch def
	/just exch def just 384 and 0 gt {/mshow {pop} def} {/mshow {show}
	def} ifelse just 16 and 0 gt {gsave rotval rotate 0 1 dtransform
	gsave pagemat setmatrix idtransform exch grestore 1 0 dtransform
	gsave pagemat setmatrix idtransform exch grestore dup abs 1e-9 lt
	{pop mul 0 gt} {3 1 roll pop pop 0 lt} ifelse grestore {-1 /rotval
	rotval neg def /just just dup 3 and 1 ne {3 xor} if def} {1} ifelse
	exch -1e-9 lt {-1 /rotval rotval neg def /just just dup 12 and
	4 ne {12 xor} if def} {1} ifelse scale } if /showflag 0 def
	/fspc pspc def /Bline 0 def /Tabs 0 array def /fscale 1.0 def
	/kY 0 def gsave dup 1 add copy 0 exch 1 0 dtransform exch atan rotate
	{exch dup type /stringtype eq {true charpath flattenpath} {dup type
	/arraytype eq {exec} {12 string cvs true charpath flattenpath} ifelse}
	ifelse} repeat pop pathbbox grestore 3 -1 roll pop 3 1 roll just
	1 and 0 gt {just 2 and 0 gt {exch pop neg fspc sub} {exch sub 0.5
	mul neg} ifelse} {pop neg fspc add} ifelse exch Bline exch just 4
	and 0 gt {just 8 and 0 gt {exch pop neg fspc sub} {add 0.5 mul neg}
	ifelse} {pop neg fspc add} ifelse rotval rotate Kn currentpoint
	translate /showflag 1 def /Bline 0 def /Tabs 0 array def /fscale
	1.0 def /kY 0 def {dup type /stringtype eq {mshow} {dup type
	/arraytype eq {exec} {12 string cvs mshow} ifelse} ifelse} repeat
	grestore endclip} def
/pinlabel { 4 index 32 and 0 ne hlevel 0 eq or { /pspc 10 def label
	/pspc 0 def } { pop pop pop pop pop {pop} repeat } ifelse } def
/pinglobal { pinlabel } def
/infolabel { pinlabel } def
/graphic { gsave 4 index cvx exec /DataSource get resetfile translate 0 0
	moveto neg rotate dup scale cvx exec image grestore endclip} def

/scb { setrgbcolor } bind def  /sce { defColor aload pop scb } bind def
/cRedef {/defColor currentcolor 3 array astore def} def
/begingate {dup type /dicttype ne {1 dict} if begin	% default params
	dup type /dicttype ne {1 dict} if begin		% instanced params
	/hlevel hlevel 1 add def /defColor currentcolor sce 3 array astore
	def gsave sce translate 0 0 moveto neg rotate dup type /nametype
	eq not { dup abs currentlinewidth exch div setlinewidth } { pop }
	ifelse dup abs scale clipped 1 and 1 eq {/clipped clipped 1 add def}
	if} bind def
/endgate { /hlevel hlevel 1 sub def grestore defColor aload pop cRedef
	scb end end endclip} bind def

/hlevel 0 def
/endclip {clipped 1 and 1 eq {grestore /clipped clipped 1 sub def} if} def
/tmpa [1 0 0 1 0 0] def
/gar {8 8 true tmpa {<c0 c0 00 00 0c 0c 00 00>} imagemask} bind
{8 8 true tmpa {<30 70 60 02 03 07 06 20>} imagemask} bind
{8 8 true tmpa {<0c 1e 1e 0c c0 e1 e1 c0>} imagemask} bind
{8 8 true tmpa {<0f 0f 0f 0f f0 f0 f0 f0>} imagemask} bind
{8 8 true tmpa {<3f f3 e1 e1 f3 3f 1e 1e>} imagemask} bind
{8 8 true tmpa {<df cf 8f 9f fd fc f8 f9>} imagemask} bind
{8 8 true tmpa {<ff 3f 3f ff ff f3 f3 ff>} imagemask} bind 7 array astore def
/ppaint { gsave clip tmpa dup setmatrix pathbbox neg exch neg 4 2 roll
  neg 4 -1 roll 2 copy gt {exch} if 8 div ceiling 8 mul 4 2 roll neg 2 copy
  gt {exch} if 8 div ceiling 8 mul 3 -1 roll -8 5 -1 roll
  { 3 index exch 5 exch put dup -8 3 index { 3 index
  exch 4 exch put 3 index exec } for } for pop pop pop pop grestore } bind def
/setstyles {
  currentlinewidth mul setlinewidth /style exch def style 2048 and 0 gt
  clipped 1 and 0 eq and {clip newpath /clipped clipped 1 add def} {
  style 1 and 0 gt not {closepath} if
  style 1024 and 0 gt {2 setlinecap 0 setlinejoin} if
  style 2 and 0 gt {currentlinewidth 4 mul dup 2 array astore 0 setdash} if
  style 4 and 0 gt {0.5 currentlinewidth 4 mul 2 array astore 0 setdash} if
  gsave style 16 and 0 gt { style 224 and -5 bitshift style 256 and 0 gt {
  7 exch sub 8 div dup 1 exch sub currentrgbcolor 3 array astore
  {3 copy mul add 4 1 roll pop} forall pop pop setrgbcolor eofill}
  {dup 7 lt {gar exch get ppaint} {pop eofill} ifelse} ifelse}
  {style 256 and 0 gt {1 setgray eofill} if} ifelse grestore style 8 and 0 gt 
  style 512 eq or {newpath} {stroke} ifelse grestore endclip} ifelse} def     

/addtoy {exch dup dup 2 mul 3 add 1 roll -1 1 { 4 1 roll dup 4 1 roll add
	4 -1 roll 2 mul 1 add index 2 mul 2 add 2 roll} for pop} def
/addtoy1 {1 exch addtoy pop} def
/addtoy3 {3 exch addtoy pop} def
/addtoy4 {4 exch addtoy pop} def
/addtox {exch dup dup 2 mul 3 add 1 roll -1 1 { 4 1 roll dup 4 1 roll 3 -1 roll
	add exch 4 -1 roll 2 mul 1 add index 2 mul 2 add 2 roll} for pop} def
/addtox1 {1 exch addtox pop} def
/addtox3 {3 exch addtox pop} def
/addtox4 {4 exch addtox pop} def
/polygon { gsave /num exch def moveto num 1 sub {lineto} repeat setstyles } def
/xcarc   { gsave newpath arc setstyles } def
/elb { matrix currentmatrix 7 -1 roll 7 -1 roll translate 5 1 roll 4 -1 roll
	3 index div 1 scale } def
/ele { 0 4 1 roll 0 4 1 roll } bind def
/ellipse { gsave elb newpath ele arc setmatrix setstyles } def
/pellip  { elb ele arc setmatrix } def
/nellip  { elb ele arcn setmatrix } def
/spline  { gsave moveto curveto setstyles } def
/polyc   { {lineto} repeat } bind def
/beginpath { gsave moveto } bind def
/endpath { setstyles } bind def
/bop	 { 1 setlinecap 2 setlinejoin 6 setmiterlimit 0 0 0 scb cRedef
	/clipped 0 def} def
/psinsertion {/PSobj save def /showpage {} def /setpagedevice {pop} def bop
	rotate translate dup scale} def
/end_insert {PSobj restore} def
/setpagemat {/pagemat matrix currentmatrix def} def
/inchscale  {setpagemat 0.375 mul dup scale} def
/cmscale    {setpagemat 0.35433071 mul dup scale} def

%%EndResource
%%EndProlog

% XCircuit output starts here.

%%BeginSetup

/generic::dot {
% trivial
begingate
248 1.000 0 0 6 0.000 360.000 xcarc
1.000 0.000 0.000 scb
(x) {/Times-Roman cf} 2 29 0 1.000 0 0 pinlabel
endgate
} def


%%EndSetup

%%Page: junk_1 1
%%PageOrientation: Portrait
/pgsave save def bop
1.0000 inchscale
2.6000 setlinewidth 304 208 translate

{/Helvetica cf} 1 16 0 1.000 -112 672 label
0 1.000 -16 1440 -16 -16 1168 -16 1168 1440 4 polygon
(CHAPTER IV.) {/Helvetica cf} 2 16 0 1.000 400 1400 label
(THERMOELECTRIC PYROMETER) {/Helvetica cf} 2 16 0 1.000 240 1320 label
(Principle. -- The junction of two metals heated to a given) {/Helvetica cf} 2 
16 0 1.000 56 1240 label
(temperature is the seat of an electromotive force which is) {/Helvetica cf} 2 
16 0 1.000 16 1200 label
(a function of the temperature only, at least under certain) {/Helvetica cf} 2 
16 0 1.000 16 1160 label
(conditions which we shall define further on.  In a circuit in-) 
{/Helvetica cf} 2 16 0 1.000 16 1120 label
(cluding several different junctions at different temperatures,) 
{/Helvetica cf} 2 16 0 1.000 16 1080 label
(the total electromotive force is equal to their algebraic sum.) 
{/Helvetica cf} 2 16 0 1.000 16 1040 label
(In a closed circuit there is produced a current equal to the) {/Helvetica cf} 
2 16 0 1.000 16 1000 label
(quotient of this resultant electromotive force and the total) {/Helvetica cf} 
2 16 0 1.000 16 960 label
(resistance.) {/Helvetica cf} 2 16 0 1.000 16 920 label
(Experiments of Becquerel, Pouillet, and Regnault. -- It was) {/Helvetica cf} 2 
16 0 1.000 56 840 label
(Becquerel who first had the idea to profit from the discovery) {/Helvetica cf} 
2 16 0 1.000 16 800 label
(of Seebeck to measure high temperature \(1830\).  He used a) {/Helvetica cf} 2 
16 0 1.000 16 760 label
(platinum-palladium couple, and estimated the temperature of) {/Helvetica cf} 2 
16 0 1.000 16 720 label
(the temperature of a wire heated in a flame is not that of the) 
{/Helvetica cf} 2 16 0 1.000 16 640 label
(gases in combustion; it is inferior to this.) {/Helvetica cf} 2 16 0 1.000 16 
600 label
(The method was studied and used for the first time in) {/Helvetica cf} 2 16 0 
1.000 56 560 label
(a systematic manner by Pouillet;  he employed an iron-) {/Helvetica cf} 2 16 0 
1.000 16 520 label
(platinum couple which he compared with the air thermom-) {/Helvetica cf} 2 16 
0 1.000 16 480 label
(eter previously described \(page 61\).  In order to protect the) 
{/Helvetica cf} 2 16 0 1.000 16 440 label
(platinum from the action of the furnace gases, he inclosed it) {/Helvetica cf} 
2 16 0 1.000 16 400 label
(in an iron gun barrel which constituted the second metal of) {/Helvetica cf} 2 
16 0 1.000 16 360 label
(the junction.  Pouillet does not seem to have made applica-) {/Helvetica cf} 2 
16 0 1.000 16 320 label
(tions of this method, which must have given him very dis-) {/Helvetica cf} 2 
16 0 1.000 16 280 label
(cordant results.) {/Helvetica cf} 2 16 0 1.000 16 240 label
(Edm. Becquerel resumed the study of his father's couple) {/Helvetica cf} 2 16 
0 1.000 56 200 label
(\(platinum-palladium\).  He was the first to remark the great) {/Helvetica cf} 
2 16 0 1.000 16 160 label
(importance of using in these measurements a galvanometer of) {/Helvetica cf} 2 
16 0 1.000 16 120 label
(high resistance.  It is the electromotive force which is a function) 
{/Helvetica cf} 2 16 0 1.000 16 80 label
(101) {/Helvetica cf} 2 16 0 1.000 512 8 label
(.  In reality) {ns} (o) {Ss} 
(the flame of an alcohol lamp, finding it equal to 135) {/Helvetica cf} 6 16 0 
1.000 16 680 label
0 1.000 1184 1440 1184 -16 2368 -16 2368 1440 4 polygon
1.000 0.000 0.000 scb
(Joining two different metals together and heating that) 
{/Helvetica-Oblique cf} 2 16 0 1.000 1232 1312 label
(The voltages of multiple thermoelectric junctions adds in ) 
{/Helvetica-Oblique cf} 2 16 0 1.000 1232 1120 label
(series, with current = V/R.) {/Helvetica-Oblique cf} 2 16 0 1.000 1232 1072 
label
(Becquerel used a platinum-palladium junction to try) {/Helvetica-Oblique cf} 2 
16 0 1.000 1232 976 label
(to measure a candle flame, but he got a result that was) 
{/Helvetica-Oblique cf} 2 16 0 1.000 1232 928 label
(Pouillet used a platinum-iron junction using a hollow iron) 
{/Helvetica-Oblique cf} 2 16 0 1.000 1232 784 label
(tube as the second conductor.  This tube protected the) 
{/Helvetica-Oblique cf} 2 16 0 1.000 1232 736 label
0.800 0.800 0.800 scb
496 1.000 1408 608 1408 592 1952 592 1952 608 4 polygon
sce
0 1.000 1408 608 1408 592 1952 592 1952 608 4 polygon
0.800 0.800 0.800 scb
496 1.000 1408 560 1408 544 1952 544 1952 560 4 polygon
sce
0 1.000 1408 560 1408 544 1952 544 1952 560 4 polygon
1.000 0 1440 592 generic::dot
1 1.000 1472 576 1840 576 1984 576 1440 592 spline
0.000 0.000 1.000 scb
(Fe) {/Helvetica cf} 2 16 0 0.500 1928 552 label
(Pt) {/Helvetica cf} 2 16 0 0.500 1976 520 label
1.000 0.000 0.000 scb
(junction produces a voltage dependent on temperature.) {/Helvetica-Oblique cf} 
2 16 0 1.000 1232 1264 label
sce
(Gun barrel) {/Helvetica cf} 2 16 0 1.000 1568 616 label
1.000 0.000 0.000 scb
(\(HEAT\)) {/Helvetica-Bold cf} 2 16 0 1.000 1232 560 label
(\(VOLTAGE\)) {/Helvetica cf} 2 16 0 1.000 2016 560 label
(\(From page 101\)) {/Helvetica cf} 2 16 0 1.000 1600 1376 label
(too low.  Why is the wire's temp cooler than the flame?) 
{/Helvetica-Oblique cf} 2 16 0 1.000 1232 880 label
(from -- maybe corrosion?) {/Helvetica-Oblique cf} 2 16 0 1.000 1232 688 label
(Becquerel's son discovered you need to use a meter with a) 
{/Helvetica-Oblique cf} 2 16 0 1.000 1232 464 label
(high resistance.  Why is this??) {/Helvetica-Oblique cf} 2 16 0 1.000 1232 416 
label
(What "certain conditions" affect voltage/temp relationship?) 
{/Helvetica-Oblique cf} 2 16 0 1.000 1232 1216 label
pgsave restore showpage

%%Trailer
XCIRCsave restore
%%EOF
