%!PS-Adobe-3.0 EPSF-3.0
%%Title: calibrate31.eps
%%Creator: XCircuit v3.7 rev55
%%CreationDate: Mon May 11 06:11:17 2015
%%Pages: 1
%%BoundingBox: 68 68 508 305
%%DocumentNeededResources: font Helvetica Helvetica-Bold Helvetica-Oblique 
%%+ font Times-Roman Symbol 
%%EndComments
%%BeginProlog
%
%  PostScript prolog for output from xcircuit
%  Version: 3.7
%
%  Electrical circuit (and otherwise general) drawing program
%
%  Written by Tim Edwards 8/5/93--11/1/10  (tim.edwards@multigig.com)
%  The Johns Hopkins University (1993-2004)
%  MultiGiG, Inc. (2004-present)
%
%%BeginResource: procset XCIRCproc 3.7 2
%
% supporting definitions --- these are the primary xcircuit types.

/XCIRCsave save def
/topmat matrix currentmatrix def

/fontslant { /slant exch def [1 0 slant 1 0 0] 
    exch findfont exch makefont dup length dict /ndict exch def
    { 1 index /FID ne { ndict 3 1 roll put } { pop pop } ifelse } forall
    ndict definefont pop} def
/ul { dup type /stringtype eq showflag 1 eq and { gsave 
   currentpoint topmat setmatrix 0 0 moveto 2 index stringwidth pop (_)
   false charpath flattenpath pathbbox grestore exch pop 1 index
   sub setlinewidth exch pop currentpoint 3 -1 roll add moveto 0
   rlineto stroke moveto } if } def
/ol { dup type /stringtype eq showflag 1 eq and { gsave gsave
   currentpoint topmat setmatrix 2 index stringwidth pop 3 index
   true charpath flattenpath pathbbox grestore exch pop
   exch pop topmat setmatrix (_) true charpath pathbbox grestore
   exch pop 1 index sub setlinewidth exch pop currentpoint
   exch 4 1 roll exch sub add moveto pop 0 rlineto stroke
   moveto } if } def
/stW { gsave currentpoint newpath moveto true charpath flattenpath
	pathbbox pop exch pop sub grestore } def
/Ts {mark Tabs aload pop counttomark 1 add array astore /Tabs exch def Tabs
	0 currentpoint pop put} def
/Tbn {mark Tabs aload pop counttomark dup 2 add 1 roll cleartomark 1 sub} def
/Tb { 0 1 Tbn {Tabs exch get dup currentpoint pop lt
	{currentpoint exch pop moveto exit} {pop} ifelse } for } def
/Tf { Tbn -1 0 {Tabs exch get dup currentpoint pop gt
	{currentpoint exch pop moveto exit} {pop} ifelse } for } def
/qS { (aa) stW (a a) stW sub 4 div 0 Kn } def
/hS { qS qS } def
/pspc 0 def
/cf0 { scalefont setfont } bind def
/Kn { dup kY add /kY exch def rmoveto } bind def
/ss { /fscale fscale 0.67 mul def currentfont 0.67 cf0 0 fscale0 fscale mul
	0.33 mul neg Kn} def
/Ss { /fscale fscale 0.67 mul def currentfont 0.67 cf0 0 fscale0 fscale mul
	0.67 mul Kn } def
/ns { 0 kY neg Kn /kY 0 def /fscale 1.0 def xfont0 1.0 cf0 } def
/CR { ns 0 /Bline Bline fscale0 neg add def Bline moveto } def
/cf { dup type /realtype ne {1.0} if exch findfont exch kY 0 eq
	{ 40 mul dup /fscale0 exch def cf0 /xfont0 currentfont def}
	{fscale0 mul fscale mul cf0} ifelse } def
/ctmk { counttomark dup 2 add -1 roll pop } bind def
/label { gsave translate 0 0 moveto dup scale neg /rotval exch def
	/just exch def just 384 and 0 gt {/mshow {pop} def} {/mshow {show}
	def} ifelse just 16 and 0 gt {gsave rotval rotate 0 1 dtransform
	gsave pagemat setmatrix idtransform exch grestore 1 0 dtransform
	gsave pagemat setmatrix idtransform exch grestore dup abs 1e-9 lt
	{pop mul 0 gt} {3 1 roll pop pop 0 lt} ifelse grestore {-1 /rotval
	rotval neg def /just just dup 3 and 1 ne {3 xor} if def} {1} ifelse
	exch -1e-9 lt {-1 /rotval rotval neg def /just just dup 12 and
	4 ne {12 xor} if def} {1} ifelse scale } if /showflag 0 def
	/fspc pspc def /Bline 0 def /Tabs 0 array def /fscale 1.0 def
	/kY 0 def gsave dup 1 add copy 0 exch 1 0 dtransform exch atan rotate
	{exch dup type /stringtype eq {true charpath flattenpath} {dup type
	/arraytype eq {exec} {12 string cvs true charpath flattenpath} ifelse}
	ifelse} repeat pop pathbbox grestore 3 -1 roll pop 3 1 roll just
	1 and 0 gt {just 2 and 0 gt {exch pop neg fspc sub} {exch sub 0.5
	mul neg} ifelse} {pop neg fspc add} ifelse exch Bline exch just 4
	and 0 gt {just 8 and 0 gt {exch pop neg fspc sub} {add 0.5 mul neg}
	ifelse} {pop neg fspc add} ifelse rotval rotate Kn currentpoint
	translate /showflag 1 def /Bline 0 def /Tabs 0 array def /fscale
	1.0 def /kY 0 def {dup type /stringtype eq {mshow} {dup type
	/arraytype eq {exec} {12 string cvs mshow} ifelse} ifelse} repeat
	grestore endclip} def
/pinlabel { 4 index 32 and 0 ne hlevel 0 eq or { /pspc 10 def label
	/pspc 0 def } { pop pop pop pop pop {pop} repeat } ifelse } def
/pinglobal { pinlabel } def
/infolabel { pinlabel } def
/graphic { gsave 4 index cvx exec /DataSource get resetfile translate 0 0
	moveto neg rotate dup scale cvx exec image grestore endclip} def

/scb { setrgbcolor } bind def  /sce { defColor aload pop scb } bind def
/cRedef {/defColor currentcolor 3 array astore def} def
/begingate {dup type /dicttype ne {1 dict} if begin	% default params
	dup type /dicttype ne {1 dict} if begin		% instanced params
	/hlevel hlevel 1 add def /defColor currentcolor sce 3 array astore
	def gsave sce translate 0 0 moveto neg rotate dup type /nametype
	eq not { dup abs currentlinewidth exch div setlinewidth } { pop }
	ifelse dup abs scale clipped 1 and 1 eq {/clipped clipped 1 add def}
	if} bind def
/endgate { /hlevel hlevel 1 sub def grestore defColor aload pop cRedef
	scb end end endclip} bind def

/hlevel 0 def
/endclip {clipped 1 and 1 eq {grestore /clipped clipped 1 sub def} if} def
/tmpa [1 0 0 1 0 0] def
/gar {8 8 true tmpa {<c0 c0 00 00 0c 0c 00 00>} imagemask} bind
{8 8 true tmpa {<30 70 60 02 03 07 06 20>} imagemask} bind
{8 8 true tmpa {<0c 1e 1e 0c c0 e1 e1 c0>} imagemask} bind
{8 8 true tmpa {<0f 0f 0f 0f f0 f0 f0 f0>} imagemask} bind
{8 8 true tmpa {<3f f3 e1 e1 f3 3f 1e 1e>} imagemask} bind
{8 8 true tmpa {<df cf 8f 9f fd fc f8 f9>} imagemask} bind
{8 8 true tmpa {<ff 3f 3f ff ff f3 f3 ff>} imagemask} bind 7 array astore def
/ppaint { gsave clip tmpa dup setmatrix pathbbox neg exch neg 4 2 roll
  neg 4 -1 roll 2 copy gt {exch} if 8 div ceiling 8 mul 4 2 roll neg 2 copy
  gt {exch} if 8 div ceiling 8 mul 3 -1 roll -8 5 -1 roll
  { 3 index exch 5 exch put dup -8 3 index { 3 index
  exch 4 exch put 3 index exec } for } for pop pop pop pop grestore } bind def
/setstyles {
  currentlinewidth mul setlinewidth /style exch def style 2048 and 0 gt
  clipped 1 and 0 eq and {clip newpath /clipped clipped 1 add def} {
  style 1 and 0 gt not {closepath} if
  style 1024 and 0 gt {2 setlinecap 0 setlinejoin} if
  style 2 and 0 gt {currentlinewidth 4 mul dup 2 array astore 0 setdash} if
  style 4 and 0 gt {0.5 currentlinewidth 4 mul 2 array astore 0 setdash} if
  gsave style 16 and 0 gt { style 224 and -5 bitshift style 256 and 0 gt {
  7 exch sub 8 div dup 1 exch sub currentrgbcolor 3 array astore
  {3 copy mul add 4 1 roll pop} forall pop pop setrgbcolor eofill}
  {dup 7 lt {gar exch get ppaint} {pop eofill} ifelse} ifelse}
  {style 256 and 0 gt {1 setgray eofill} if} ifelse grestore style 8 and 0 gt 
  style 512 eq or {newpath} {stroke} ifelse grestore endclip} ifelse} def     

/addtoy {exch dup dup 2 mul 3 add 1 roll -1 1 { 4 1 roll dup 4 1 roll add
	4 -1 roll 2 mul 1 add index 2 mul 2 add 2 roll} for pop} def
/addtoy1 {1 exch addtoy pop} def
/addtoy3 {3 exch addtoy pop} def
/addtoy4 {4 exch addtoy pop} def
/addtox {exch dup dup 2 mul 3 add 1 roll -1 1 { 4 1 roll dup 4 1 roll 3 -1 roll
	add exch 4 -1 roll 2 mul 1 add index 2 mul 2 add 2 roll} for pop} def
/addtox1 {1 exch addtox pop} def
/addtox3 {3 exch addtox pop} def
/addtox4 {4 exch addtox pop} def
/polygon { gsave /num exch def moveto num 1 sub {lineto} repeat setstyles } def
/xcarc   { gsave newpath arc setstyles } def
/elb { matrix currentmatrix 7 -1 roll 7 -1 roll translate 5 1 roll 4 -1 roll
	3 index div 1 scale } def
/ele { 0 4 1 roll 0 4 1 roll } bind def
/ellipse { gsave elb newpath ele arc setmatrix setstyles } def
/pellip  { elb ele arc setmatrix } def
/nellip  { elb ele arcn setmatrix } def
/spline  { gsave moveto curveto setstyles } def
/polyc   { {lineto} repeat } bind def
/beginpath { gsave moveto } bind def
/endpath { setstyles } bind def
/bop	 { 1 setlinecap 2 setlinejoin 6 setmiterlimit 0 0 0 scb cRedef
	/clipped 0 def} def
/psinsertion {/PSobj save def /showpage {} def /setpagedevice {pop} def bop
	rotate translate dup scale} def
/end_insert {PSobj restore} def
/setpagemat {/pagemat matrix currentmatrix def} def
/inchscale  {setpagemat 0.375 mul dup scale} def
/cmscale    {setpagemat 0.35433071 mul dup scale} def

%%EndResource
%%EndProlog

% XCircuit output starts here.

%%BeginSetup

/generic::dot {
% trivial
begingate
248 1.000 0 0 6 0.000 360.000 xcarc
1.000 0.000 0.000 scb
(x) {/Times-Roman cf} 2 29 0 1.000 0 0 pinlabel
endgate
} def

/junk::gauge {
begingate
0.604 0.604 0.604 scb
241 1.000 0 8 48 0.000 360.000 xcarc
sce
1 1.000 0 44 0 36 2 polygon
1 1.000 10 42 8 34 2 polygon
1 1.000 19 38 15 30 2 polygon
1 1.000 27 31 21 25 2 polygon
1 1.000 33 23 25 18 2 polygon
1 1.000 36 13 27 11 2 polygon
1 1.000 37 4 27 4 2 polygon
1 1.000 35 -5 26 -2 2 polygon
1 1.000 31 -13 23 -8 2 polygon
1 1.000 25 -20 19 -13 2 polygon
1 1.000 17 -25 13 -17 2 polygon
1 1.000 8 -28 7 -19 2 polygon
1 1.000 0 44 0 36 2 polygon
1 1.000 -10 42 -8 34 2 polygon
1 1.000 -19 38 -15 30 2 polygon
1 1.000 -27 31 -21 25 2 polygon
1 1.000 -33 23 -25 18 2 polygon
1 1.000 -36 13 -27 11 2 polygon
1 1.000 -37 4 -27 4 2 polygon
1 1.000 -35 -5 -26 -2 2 polygon
1 1.000 -31 -13 -23 -8 2 polygon
1 1.000 -25 -20 -19 -13 2 polygon
1 1.000 -17 -25 -13 -17 2 polygon
1 1.000 -8 -28 -7 -19 2 polygon
1.000 0 0 8 generic::dot
0.604 0.604 0.604 scb
241 1.000 -8 -40 -8 -56 8 -56 8 -40 -8 -40 5 polygon
sce
1 1.000 0 8 48 0.000 360.000 xcarc
1 1.000 -8 -40 -8 -56 8 -56 8 -40 4 polygon
endgate
} def

/junk::dp_cell {
begingate
0.604 0.604 0.604 scb
241 1.000 -48 -8 -16 -8 -16 -24 -48 -24 spline
241 1.000 -48 -120 -16 -120 -16 -104 -48 -104 spline
0.800 0.800 0.800 scb
240 1.000 0 -24 0 8 16 8 16 -24 4 polygon
0.000 0.000 1.000 scb
241 1.000 8 64 56 0.000 360.000 xcarc
0.604 0.604 0.604 scb
240 1.000 -48 -24 -48 -104 -16 -104 -16 -24 4 polygon
sce
241 1.000 -32 -64 8 0.000 360.000 xcarc
0.604 0.604 0.604 scb
241 1.000 32 -8 64 -8 64 -24 32 -24 spline
241 1.000 32 -120 64 -120 64 -104 32 -104 spline
240 1.000 32 -24 32 -104 64 -104 64 -24 4 polygon
sce
241 1.000 48 -64 8 0.000 360.000 xcarc
0.800 0.800 0.800 scb
240 1.000 -16 -24 -16 -104 32 -104 32 -24 4 polygon
sce
1 1.000 -48 -104 -48 -24 2 polygon
1 1.000 -16 -24 -16 -104 2 polygon
1 1.000 -48 -8 -16 -8 -16 -24 -48 -24 spline
1 1.000 -48 -120 -16 -120 -16 -104 -48 -104 spline
1 1.000 32 -120 64 -120 64 -104 32 -104 spline
1 1.000 32 -8 64 -8 64 -24 32 -24 spline
1 1.000 32 -24 32 -104 2 polygon
1 1.000 64 -24 64 -104 2 polygon
0 1.000 -16 -24 -16 -104 32 -104 32 -24 4 polygon
(H) {/Helvetica cf} 2 16 0 0.500 -40 -40 label
(L) {/Helvetica cf} 2 16 0 0.500 40 -40 label
0 1.000 0 8 0 -24 16 -24 16 8 4 polygon
1 1.000 8 64 56 0.000 360.000 xcarc
endgate
} def

/liec_exp::multimeter {
begingate
0.604 0.604 0.604 scb
1 3.000 -112 -256 112 -256 2 polygon
sce
0 1.000 120 -248 120 -200 12 -200 12 -248 4 polygon
1 1.000 96 -224 16 0.000 360.000 xcarc
(COM) {/Helvetica-Bold cf} 2 16 0 0.500 28 -232 label
0.604 0.604 0.604 scb
1 3.000 128 -256 128 -256 112 -256 128 -240 spline
1 3.000 128 224 128 -240 2 polygon
1.000 0.000 0.000 scb
0 1.000 120 -184 120 -136 12 -136 12 -184 4 polygon
1 1.000 96 -160 16 0.000 360.000 xcarc
1 1.000 52 -164 58 -164 2 polygon
1 1.000 64 -164 70 -164 2 polygon
1 1.000 54 -158 54 -152 62 -152 58 -164 spline
1 1.000 68 -158 68 -152 60 -152 64 -164 spline
1 1.000 30 -152 36 -164 42 -152 3 polygon
(A) {/Helvetica-Bold cf} 2 16 0 0.500 -60 -228 label
1 1.000 -96 -224 16 0.000 360.000 xcarc
0 1.000 -12 -248 -12 -200 -120 -200 -120 -248 4 polygon
0.604 0.604 0.604 scb
1 3.000 -128 224 -128 -240 2 polygon
1 3.000 -128 -256 -128 -256 -112 -256 -128 -240 spline
(V) {/Helvetica cf} 2 16 0 1.000 -96 -96 label
1 1.000 0 -16 80 0.000 360.000 xcarc
1 1.000 0 -16 71 0.000 360.000 xcarc
(V) {/Helvetica cf} 2 16 0 1.000 -96 32 label
240 1.000 -112 224 -112 128 112 128 112 224 4 polygon
1 3.000 -112 240 112 240 2 polygon
1 3.000 -128 240 -128 240 -112 240 -128 224 spline
1 3.000 128 240 128 240 112 240 128 224 spline
1 1.000 4 76 12 76 2 polygon
1 1.000 -12 88 -8 96 0 96 -4 76 spline
1 1.000 12 88 8 96 0 96 4 76 spline
1 1.000 -12 76 -4 76 2 polygon
(A) {/Helvetica cf} 2 16 0 1.000 80 32 label
(A) {/Helvetica cf} 2 16 0 1.000 80 -96 label
1.000 345 0 -16 generic::dot
1 1.000 -120 -80 -92 -80 2 polygon
1 1.000 -104 -88 -100 -88 2 polygon
1 1.000 -96 -88 -92 -88 2 polygon
(OFF) {/Helvetica-Bold cf} 2 16 0 0.500 -20 -120 label
1 1.000 -120 -88 -116 -88 2 polygon
1 1.000 -112 -88 -108 -88 2 polygon
1 1.000 52 -88 56 -88 2 polygon
1 1.000 60 -88 64 -88 2 polygon
1 1.000 68 -88 72 -88 2 polygon
1 1.000 52 -80 80 -80 2 polygon
1 1.000 76 -88 80 -88 2 polygon
1 1.000 64 52 68 52 2 polygon
1 1.000 72 52 76 52 2 polygon
1 1.000 60 76 64 76 68 52 56 52 spline
1 1.000 72 28 76 28 80 52 68 52 spline
1 1.000 80 52 84 52 2 polygon
1 1.000 56 52 60 52 2 polygon
1 1.000 -96 44 -92 44 2 polygon
1 1.000 -104 20 -100 20 -96 44 -108 44 spline
1 1.000 -120 44 -116 44 2 polygon
1 1.000 -112 44 -108 44 2 polygon
1 1.000 -104 44 -100 44 2 polygon
1 1.000 -116 68 -112 68 -108 44 -120 44 spline
endgate
} def

/liec_exp::plug_+_ {
begingate
1.000 0.000 0.000 scb
241 1.000 -16 0 14 0.000 360.000 xcarc
241 1.000 -16 12 44 8 44 -4 -16 -12 4 polygon
endgate
} def

/liec_exp::plug_-_ {
begingate
241 1.000 -16 0 14 0.000 360.000 xcarc
241 1.000 -16 12 44 8 44 -4 -16 -12 4 polygon
241 1.000 -16 -12 -16 12 2 polygon
endgate
} def

/analog::source {
% hidden
begingate
1 1.000 0 0 32 0.000 360.000 xcarc
1 1.000 0 32 0 64 2 polygon
1 1.000 0 -32 0 -64 2 polygon
endgate
} def

/analog::vsource {
begingate
1.000 0 0 0 analog::source
(+) {/Symbol cf} 2 5 0 1.000 0 14 label
(-) {/Symbol cf} 2 5 0 1.000 0 -22 label
1.000 0.000 0.000 scb
(v.p) {/Times-Roman cf} 2 9 0 1.000 0 64 pinlabel
(v.m) {/Times-Roman cf} 2 13 0 1.000 0 -64 pinlabel
endgate
} def

/analog::resistor {
begingate
1 1.000 0 64 0 36 2 polygon
1 1.000 0 -64 0 -36 2 polygon
1 1.000 0 -36 14 -30 -14 -18 14 -6 -14 6 14 18 -14 30 0 36 8 polygon
1.000 0.000 0.000 scb
(r.1) {/Times-Roman cf} 2 9 0 1.000 0 64 pinlabel
(r.2) {/Times-Roman cf} 2 13 0 1.000 0 -64 pinlabel
0.180 0.545 0.341 scb
(spice:R%i %pr.1 %pr.2 1.0K) {/Times-Roman cf} 2 0 0 1.000 -208 -160 infolabel
(sim:r %pr.1 %pr.2) {/Times-Roman cf} 2 0 0 1.000 -208 -208 infolabel
endgate
} def

/junk::tube_tee {
begingate
1 5.000 16 16 -16 16 2 polygon
1 5.000 0 16 0 0 2 polygon
endgate
} def


%%EndSetup

%%Page: i00123x03 1
%%PageOrientation: Portrait
/pgsave save def bop
% 32.00 8.00 gridspace
0.7500 inchscale
2.6000 setlinewidth 1024 -336 translate

0.604 0.604 0.604 scb
496 1.000 -304 1200 -304 1152 -256 1152 -256 1200 4 polygon
497 1.000 -296 1200 -288 1240 -272 1240 -264 1200 -296 1200 5 polygon
sce
0 1.000 -304 1200 -304 1152 -256 1152 -256 1200 4 polygon
1 1.000 -296 1200 -288 1240 -272 1240 -264 1200 -296 1200 5 polygon
1 1.000 -280 1240 -280 1256 2 polygon
1 1.000 -296 1256 -264 1256 2 polygon
1 1.000 -464 1184 -496 1152 -480 1152 -480 1184 spline
(Compressed) {/Helvetica cf} 2 16 0 1.000 -736 1176 label
(air supply) {/Helvetica cf} 2 16 0 1.000 -712 1136 label
(Pressure regulator) {/Helvetica cf} 2 16 0 1.000 -432 1288 label
(In) {/Helvetica cf} 2 16 0 0.500 -328 1176 label
(Out) {/Helvetica cf} 2 16 0 0.500 -248 1176 label
1.000 0 -336 872 junk::gauge
1 2.000 -336 880 -312 912 2 polygon
0.627 0.125 0.941 scb
(Precision) {/Helvetica cf} 2 16 0 1.000 -416 984 label
1.000 0.000 0.000 scb
(\(Alternative: use a hand air pump) {/Helvetica-Oblique cf} 2 16 0 0.500 -424 
1128 label
(to generate low pressures rather) {/Helvetica-Oblique cf} 2 16 0 0.500 -424 
1104 label
(than a precision regulator\)) {/Helvetica-Oblique cf} 2 16 0 0.500 -424 1080 
label
0.627 0.125 0.941 scb
(\(Input standard\)) {/Helvetica-Oblique cf} 2 16 0 0.750 -656 960 label
(\(Output standard\)) {/Helvetica-Oblique cf} 2 16 0 0.750 208 1008 label
sce
1.000 0 48 848 junk::dp_cell
0.500 /sv 0 320 864 liec_exp::multimeter
0.627 0.125 0.941 scb
(Multimeter) {/Helvetica cf} 2 16 0 1.000 224 1048 label
sce
0.500 /sv 90 272 744 liec_exp::plug_+_
0.500 /sv 90 368 744 liec_exp::plug_-_
1.000 0 32 928 generic::dot
1.000 0 80 928 generic::dot
1.000 1.000 1.000 scb
1 1.000 32 912 32 896 2 polygon
1 1.000 24 904 40 904 2 polygon
1 1.000 72 904 88 904 2 polygon
1.000 0.000 0.000 scb
1 1.000 272 728 272 696 224 696 224 928 80 928 5 polygon
sce
1.000 0 512 848 analog::vsource
(DC power) {/Helvetica cf} 2 16 0 1.000 560 856 label
(supply) {/Helvetica cf} 2 16 0 1.000 592 816 label
1.000 90 440 696 analog::resistor
1 1.000 376 696 368 696 368 728 3 polygon
1 1.000 504 696 512 696 512 784 3 polygon
(Loop resistance) {/Helvetica cf} 2 16 0 1.000 304 648 label
(\(necessary for HART communications\)) {/Helvetica-Oblique cf} 2 16 0 0.500 
272 616 label
1 1.000 32 928 32 1120 512 1120 512 912 4 polygon
1 2.000 -480 1168 -304 1168 2 polygon
1 2.000 -256 1168 -64 1168 2 polygon
1 2.000 -64 1168 -64 784 16 784 3 polygon
1.000 180 -64 800 junk::tube_tee
1 2.000 -80 784 -336 784 -336 816 3 polygon
0.627 0.125 0.941 scb
(test gauge) {/Helvetica cf} 2 16 0 1.000 -432 944 label
sce
(Typical calibration setup for an electronic pressure transmitter) 
{/Helvetica-Bold cf} 2 16 0 1.000 -592 1360 label
0.604 0.604 0.604 scb
0 3.000 -768 1408 -768 592 768 592 768 1408 4 polygon
sce
(mA) {/Helvetica cf} 2 16 0 0.500 344 940 label
0 1.000 268 968 268 936 284 936 284 968 4 polygon
1 1.000 268 952 284 952 2 polygon
497 1.000 292 936 2 0.000 360.000 xcarc
0 1.000 300 968 300 936 316 936 316 968 4 polygon
0 1.000 324 968 324 936 340 936 340 968 4 polygon
(4 PSI) {/Helvetica cf} 2 16 0 1.000 -276 872 label
(Pressure) {/Helvetica cf} 2 16 0 1.000 -24 688 label
(transmitter) {/Helvetica cf} 2 16 0 1.000 -40 648 label
pgsave restore showpage

%%Trailer
XCIRCsave restore
%%EOF
