%!PS-Adobe-3.0 EPSF-3.0
%%Title: calibrate32.eps
%%Creator: XCircuit v3.7 rev26
%%CreationDate: Wed May  9 05:12:16 2012
%%Pages: 1
%%BoundingBox: 68 68 508 400
%%DocumentNeededResources: font Helvetica Helvetica-Bold Helvetica-Oblique 
%%+ font Times-Roman Symbol 
%%EndComments
%%BeginProlog
%
%  PostScript prolog for output from xcircuit
%  Version: 3.7
%
%  Electrical circuit (and otherwise general) drawing program
%
%  Written by Tim Edwards 8/5/93--11/1/10  (tim.edwards@multigig.com)
%  The Johns Hopkins University (1993-2004)
%  MultiGiG, Inc. (2004-present)
%
%%BeginResource: procset XCIRCproc 3.7 2
%
% supporting definitions --- these are the primary xcircuit types.

/XCIRCsave save def
/topmat matrix currentmatrix def

/fontslant { /slant exch def [1 0 slant 1 0 0] 
    exch findfont exch makefont dup length dict /ndict exch def
    { 1 index /FID ne { ndict 3 1 roll put } { pop pop } ifelse } forall
    ndict definefont pop} def
/ul { dup type /stringtype eq showflag 1 eq and { gsave 
   currentpoint topmat setmatrix 0 0 moveto 2 index stringwidth pop (_)
   false charpath flattenpath pathbbox grestore exch pop 1 index
   sub setlinewidth exch pop currentpoint 3 -1 roll add moveto 0
   rlineto stroke moveto } if } def
/ol { dup type /stringtype eq showflag 1 eq and { gsave gsave
   currentpoint topmat setmatrix 2 index stringwidth pop 3 index
   true charpath flattenpath pathbbox grestore exch pop
   exch pop topmat setmatrix (_) true charpath pathbbox grestore
   exch pop 1 index sub setlinewidth exch pop currentpoint
   exch 4 1 roll exch sub add moveto pop 0 rlineto stroke
   moveto } if } def
/stW { gsave currentpoint newpath moveto true charpath flattenpath
	pathbbox pop exch pop sub grestore } def
/Ts {mark Tabs aload pop counttomark 1 add array astore /Tabs exch def Tabs
	0 currentpoint pop put} def
/Tbn {mark Tabs aload pop counttomark dup 2 add 1 roll cleartomark 1 sub} def
/Tb { 0 1 Tbn {Tabs exch get dup currentpoint pop lt
	{currentpoint exch pop moveto exit} {pop} ifelse } for } def
/Tf { Tbn -1 0 {Tabs exch get dup currentpoint pop gt
	{currentpoint exch pop moveto exit} {pop} ifelse } for } def
/qS { (aa) stW (a a) stW sub 4 div 0 Kn } def
/hS { qS qS } def
/pspc 0 def
/cf0 { scalefont setfont } bind def
/Kn { dup kY add /kY exch def rmoveto } bind def
/ss { /fscale fscale 0.67 mul def currentfont 0.67 cf0 0 fscale0 fscale mul
	0.33 mul neg Kn} def
/Ss { /fscale fscale 0.67 mul def currentfont 0.67 cf0 0 fscale0 fscale mul
	0.67 mul Kn } def
/ns { 0 kY neg Kn /kY 0 def /fscale 1.0 def xfont0 1.0 cf0 } def
/CR { ns 0 /Bline Bline fscale0 neg add def Bline moveto } def
/cf { dup type /realtype ne {1.0} if exch findfont exch kY 0 eq
	{ 40 mul dup /fscale0 exch def cf0 /xfont0 currentfont def}
	{fscale0 mul fscale mul cf0} ifelse } def
/ctmk { counttomark dup 2 add -1 roll pop } bind def
/label { gsave translate 0 0 moveto dup scale neg /rotval exch def
	/just exch def just 384 and 0 gt {/mshow {pop} def} {/mshow {show}
	def} ifelse just 16 and 0 gt {gsave rotval rotate 0 1 dtransform
	gsave pagemat setmatrix idtransform exch grestore 1 0 dtransform
	gsave pagemat setmatrix idtransform exch grestore dup abs 1e-9 lt
	{pop mul 0 gt} {3 1 roll pop pop 0 lt} ifelse grestore {-1 /rotval
	rotval neg def /just just dup 3 and 1 ne {3 xor} if def} {1} ifelse
	exch -1e-9 lt {-1 /rotval rotval neg def /just just dup 12 and
	4 ne {12 xor} if def} {1} ifelse scale } if /showflag 0 def
	/fspc pspc def /Bline 0 def /Tabs 0 array def /fscale 1.0 def
	/kY 0 def gsave dup 1 add copy 0 exch 1 0 dtransform exch atan rotate
	{exch dup type /stringtype eq {true charpath flattenpath} {dup type
	/arraytype eq {exec} {12 string cvs true charpath flattenpath} ifelse}
	ifelse} repeat pop pathbbox grestore 3 -1 roll pop 3 1 roll just
	1 and 0 gt {just 2 and 0 gt {exch pop neg fspc sub} {exch sub 0.5
	mul neg} ifelse} {pop neg fspc add} ifelse exch Bline exch just 4
	and 0 gt {just 8 and 0 gt {exch pop neg fspc sub} {add 0.5 mul neg}
	ifelse} {pop neg fspc add} ifelse rotval rotate Kn currentpoint
	translate /showflag 1 def /Bline 0 def /Tabs 0 array def /fscale
	1.0 def /kY 0 def {dup type /stringtype eq {mshow} {dup type
	/arraytype eq {exec} {12 string cvs mshow} ifelse} ifelse} repeat
	grestore endclip} def
/pinlabel { 4 index 32 and 0 ne hlevel 0 eq or { /pspc 10 def label
	/pspc 0 def } { pop pop pop pop pop {pop} repeat } ifelse } def
/pinglobal { pinlabel } def
/infolabel { pinlabel } def
/graphic { gsave 4 index cvx exec /DataSource get resetfile translate 0 0
	moveto neg rotate dup scale cvx exec image grestore endclip} def

/scb { setrgbcolor } bind def  /sce { defColor aload pop scb } bind def
/cRedef {/defColor currentcolor 3 array astore def} def
/begingate {dup type /dicttype ne {1 dict} if begin	% default params
	dup type /dicttype ne {1 dict} if begin		% instanced params
	/hlevel hlevel 1 add def /defColor currentcolor sce 3 array astore
	def gsave sce translate 0 0 moveto neg rotate dup type /nametype
	eq not { dup abs currentlinewidth exch div setlinewidth } { pop }
	ifelse dup abs scale clipped 1 and 1 eq {/clipped clipped 1 add def}
	if} bind def
/endgate { /hlevel hlevel 1 sub def grestore defColor aload pop cRedef
	scb end end endclip} bind def

/hlevel 0 def
/endclip {clipped 1 and 1 eq {grestore /clipped clipped 1 sub def} if} def
/tmpa [1 0 0 1 0 0] def
/gar {8 8 true tmpa {<c0 c0 00 00 0c 0c 00 00>} imagemask} bind
{8 8 true tmpa {<30 70 60 02 03 07 06 20>} imagemask} bind
{8 8 true tmpa {<0c 1e 1e 0c c0 e1 e1 c0>} imagemask} bind
{8 8 true tmpa {<0f 0f 0f 0f f0 f0 f0 f0>} imagemask} bind
{8 8 true tmpa {<3f f3 e1 e1 f3 3f 1e 1e>} imagemask} bind
{8 8 true tmpa {<df cf 8f 9f fd fc f8 f9>} imagemask} bind
{8 8 true tmpa {<ff 3f 3f ff ff f3 f3 ff>} imagemask} bind 7 array astore def
/ppaint { gsave clip tmpa dup setmatrix pathbbox neg exch neg 4 2 roll
  neg 4 -1 roll 2 copy gt {exch} if 8 div ceiling 8 mul 4 2 roll neg 2 copy
  gt {exch} if 8 div ceiling 8 mul 3 -1 roll -8 5 -1 roll
  { 3 index exch 5 exch put dup -8 3 index { 3 index
  exch 4 exch put 3 index exec } for } for pop pop pop pop grestore } bind def
/setstyles {
  currentlinewidth mul setlinewidth /style exch def style 2048 and 0 gt
  clipped 1 and 0 eq and {clip newpath /clipped clipped 1 add def} {
  style 1 and 0 gt not {closepath} if
  style 1024 and 0 gt {2 setlinecap} if
  style 2 and 0 gt {currentlinewidth 4 mul dup 2 array astore 0 setdash} if
  style 4 and 0 gt {0.5 currentlinewidth 4 mul 2 array astore 0 setdash} if
  gsave style 16 and 0 gt { style 224 and -5 bitshift style 256 and 0 gt {
  7 exch sub 8 div dup 1 exch sub currentrgbcolor 3 array astore
  {3 copy mul add 4 1 roll pop} forall pop pop setrgbcolor eofill}
  {dup 7 lt {gar exch get ppaint} {pop eofill} ifelse} ifelse}
  {style 256 and 0 gt {1 setgray eofill} if} ifelse grestore style 8 and 0 gt 
  style 512 eq or {newpath} {stroke} ifelse grestore endclip} ifelse} def     

/addtoy {exch dup dup 2 mul 3 add 1 roll -1 1 { 4 1 roll dup 4 1 roll add
	4 -1 roll 2 mul 1 add index 2 mul 2 add 2 roll} for pop} def
/addtoy1 {1 exch addtoy pop} def
/addtoy3 {3 exch addtoy pop} def
/addtoy4 {4 exch addtoy pop} def
/addtox {exch dup dup 2 mul 3 add 1 roll -1 1 { 4 1 roll dup 4 1 roll 3 -1 roll
	add exch 4 -1 roll 2 mul 1 add index 2 mul 2 add 2 roll} for pop} def
/addtox1 {1 exch addtox pop} def
/addtox3 {3 exch addtox pop} def
/addtox4 {4 exch addtox pop} def
/polygon { gsave /num exch def moveto num 1 sub {lineto} repeat setstyles } def
/xcarc   { gsave newpath arc setstyles } def
/elb { matrix currentmatrix 7 -1 roll 7 -1 roll translate 5 1 roll 4 -1 roll
	3 index div 1 scale } def
/ele { 0 4 1 roll 0 4 1 roll } bind def
/ellipse { gsave elb newpath ele arc setmatrix setstyles } def
/pellip  { elb ele arc setmatrix } def
/nellip  { elb ele arcn setmatrix } def
/spline  { gsave moveto curveto setstyles } def
/polyc   { {lineto} repeat } bind def
/beginpath { gsave moveto } bind def
/endpath { setstyles } bind def
/bop	 { 1 setlinecap 0 setlinejoin 6 setmiterlimit 0 0 0 scb cRedef
	/clipped 0 def} def
/psinsertion {/PSobj save def /showpage {} def /setpagedevice {pop} def bop
	rotate translate dup scale} def
/end_insert {PSobj restore} def
/setpagemat {/pagemat matrix currentmatrix def} def
/inchscale  {setpagemat 0.375 mul dup scale} def
/cmscale    {setpagemat 0.35433071 mul dup scale} def

%%EndResource
%%EndProlog

% XCircuit output starts here.

%%BeginSetup

/generic::dot {
% trivial
begingate
248 1.000 0 0 6 0.000 360.000 xcarc
1.000 0.000 0.000 scb
(x) {/Times-Roman cf} 2 29 0 1.000 0 0 pinlabel
endgate
} def

/analog::source {
% hidden
begingate
1 1.000 0 0 32 0.000 360.000 xcarc
1 1.000 0 32 0 64 2 polygon
1 1.000 0 -32 0 -64 2 polygon
endgate
} def

/analog::vsource {
begingate
1.000 0 0 0 analog::source
(+) {/Symbol cf} 2 5 0 1.000 0 14 label
(-) {/Symbol cf} 2 5 0 1.000 0 -22 label
1.000 0.000 0.000 scb
(v.p) {/Times-Roman cf} 2 9 0 1.000 0 64 pinlabel
(v.m) {/Times-Roman cf} 2 13 0 1.000 0 -64 pinlabel
endgate
} def

/analog::resistor {
begingate
1 1.000 0 64 0 36 2 polygon
1 1.000 0 -64 0 -36 2 polygon
1 1.000 0 -36 14 -30 -14 -18 14 -6 -14 6 14 18 -14 30 0 36 8 polygon
1.000 0.000 0.000 scb
(r.1) {/Times-Roman cf} 2 9 0 1.000 0 64 pinlabel
(r.2) {/Times-Roman cf} 2 13 0 1.000 0 -64 pinlabel
0.180 0.545 0.341 scb
(spice:R%i %pr.1 %pr.2 1.0K) {/Times-Roman cf} 2 0 0 1.000 -208 -160 infolabel
(sim:r %pr.1 %pr.2) {/Times-Roman cf} 2 0 0 1.000 -208 -208 infolabel
endgate
} def

/liec_exp::multimeter2 {
begingate
0.604 0.604 0.604 scb
1 3.000 -128 232 -128 -232 2 polygon
1 3.000 128 -232 128 232 2 polygon
1 3.000 -112 248 112 248 2 polygon
1 3.000 -112 -248 112 -248 2 polygon
1 3.000 -128 248 -128 248 -112 248 -128 232 spline
1 3.000 128 248 128 248 112 248 128 232 spline
1 3.000 128 -248 128 -248 112 -248 128 -232 spline
1 3.000 -128 -248 -128 -248 -112 -248 -128 -232 spline
240 1.000 -112 232 -112 136 112 136 112 232 4 polygon
1.000 0 0 -8 generic::dot
1 1.000 0 -8 80 0.000 360.000 xcarc
1 1.000 0 -8 72 0.000 360.000 xcarc
(OFF) {/Helvetica-Bold cf} 2 16 0 0.500 -20 -112 label
1.000 0.000 0.000 scb
0 1.000 12 -128 12 -176 120 -176 120 -128 4 polygon
1 1.000 96 -152 16 0.000 360.000 xcarc
sce
0 1.000 12 -192 12 -240 120 -240 120 -192 4 polygon
1 1.000 96 -216 16 0.000 360.000 xcarc
1.000 0.000 0.000 scb
0 1.000 -12 -192 -12 -240 -120 -240 -120 -192 4 polygon
1 1.000 -96 -216 16 -180.000 180.000 xcarc
sce
(COM) {/Helvetica-Bold cf} 2 16 0 0.500 28 -224 label
1.000 0.000 0.000 scb
(A) {/Helvetica-Bold cf} 2 16 0 0.500 -60 -220 label
1 1.000 30 -136 36 -148 42 -136 3 polygon
1 1.000 52 -148 58 -148 2 polygon
1 1.000 64 -148 70 -148 2 polygon
1 1.000 46 -132 76 -132 64 -148 58 -148 spline
0.604 0.604 0.604 scb
(V) {/Helvetica cf} 2 16 0 1.000 -100 -100 label
(A) {/Helvetica cf} 2 16 0 1.000 72 -98 label
(V) {/Helvetica cf} 2 16 0 1.000 -114 -2 label
(A) {/Helvetica cf} 2 16 0 1.000 86 -2 label
1 1.000 -100 -58 -72 -58 2 polygon
1 1.000 -100 -66 -96 -66 2 polygon
1 1.000 -92 -66 -88 -66 2 polygon
1 1.000 -84 -66 -80 -66 2 polygon
1 1.000 -76 -66 -72 -66 2 polygon
1 1.000 72 -58 100 -58 2 polygon
1 1.000 72 -66 76 -66 2 polygon
1 1.000 80 -66 84 -66 2 polygon
1 1.000 88 -66 92 -66 2 polygon
1 1.000 96 -66 100 -66 2 polygon
1 1.000 -112 44 -108 44 2 polygon
1 1.000 -104 44 -100 44 2 polygon
1 1.000 -96 44 -92 44 2 polygon
1 1.000 -88 44 -84 44 2 polygon
1 1.000 -108 68 -104 68 -100 44 -112 44 spline
1 1.000 -96 20 -92 20 -88 44 -100 44 spline
1 1.000 86 44 90 44 2 polygon
1 1.000 94 44 98 44 2 polygon
1 1.000 102 44 106 44 2 polygon
1 1.000 110 44 114 44 2 polygon
1 1.000 90 68 94 68 98 44 86 44 spline
1 1.000 102 20 106 20 110 44 98 44 spline
1 1.000 -56 80 -48 80 2 polygon
1 1.000 -40 80 -32 80 2 polygon
1 1.000 -66 106 -22 106 -40 80 -48 80 spline
1 1.000 34 88 60 88 2 polygon
241 1.000 42 94 42 82 52 88 42 94 4 polygon
1 1.000 52 94 52 82 2 polygon
1.000 0.000 0.000 scb
1 1.000 38 -160 64 -160 2 polygon
241 1.000 46 -154 46 -166 56 -160 46 -154 4 polygon
1 1.000 56 -154 56 -166 2 polygon
endgate
} def

/liec_exp::plug_+_ {
begingate
1.000 0.000 0.000 scb
241 1.000 -16 0 14 0.000 360.000 xcarc
241 1.000 -16 12 44 8 44 -4 -16 -12 4 polygon
endgate
} def

/liec_exp::plug_-_ {
begingate
241 1.000 -16 0 14 0.000 360.000 xcarc
241 1.000 -16 12 44 8 44 -4 -16 -12 4 polygon
241 1.000 -16 -12 -16 12 2 polygon
endgate
} def


%%EndSetup

%%Page: i00123x03 1
%%PageOrientation: Portrait
/pgsave save def bop
% 32.00 32.00 gridspace
0.7500 inchscale
2.6000 setlinewidth 1024 864 translate

0.824 0.706 0.549 scb
497 1.000 -256 80 192 0.000 360.000 xcarc
sce
1 1.000 -256 80 192 0.000 360.000 xcarc
0.604 0.604 0.604 scb
497 1.000 -352 -24 16 0.000 360.000 xcarc
sce
1 1.000 -352 -24 16 0.000 360.000 xcarc
1 1.000 -344 -12 -366 -30 2 polygon
1 1.000 -338 -18 -360 -36 2 polygon
0.604 0.604 0.604 scb
497 1.000 -288 -24 16 0.000 360.000 xcarc
sce
1 1.000 -288 -24 16 0.000 360.000 xcarc
1 1.000 -280 -12 -302 -30 2 polygon
1 1.000 -274 -18 -296 -36 2 polygon
0.604 0.604 0.604 scb
497 1.000 -224 -24 16 0.000 360.000 xcarc
sce
1 1.000 -224 -24 16 0.000 360.000 xcarc
1 1.000 -216 -12 -238 -30 2 polygon
1 1.000 -210 -18 -232 -36 2 polygon
0.604 0.604 0.604 scb
497 1.000 -160 -24 16 0.000 360.000 xcarc
sce
1 1.000 -160 -24 16 0.000 360.000 xcarc
1 1.000 -152 -12 -174 -30 2 polygon
1 1.000 -146 -18 -168 -36 2 polygon
0.604 0.604 0.604 scb
497 1.000 -288 208 16 0.000 360.000 xcarc
sce
1 1.000 -288 208 16 0.000 360.000 xcarc
1 1.000 -280 220 -302 202 2 polygon
1 1.000 -274 214 -296 196 2 polygon
0.604 0.604 0.604 scb
497 1.000 -224 208 16 0.000 360.000 xcarc
sce
1 1.000 -224 208 16 0.000 360.000 xcarc
1 1.000 -216 220 -238 202 2 polygon
1 1.000 -210 214 -232 196 2 polygon
1 1.000 -224 184 -224 168 2 polygon
1 1.000 -296 176 -280 176 2 polygon
1 1.000 -232 176 -216 176 2 polygon
(Loop power) {/Helvetica cf} 2 16 0 0.700 -328 152 label
0 1.000 -272 32 -272 16 -240 16 -240 32 4 polygon
1 1.000 -272 24 -288 24 -288 8 3 polygon
1 1.000 -288 24 -352 24 -352 8 3 polygon
1 1.000 -240 24 -224 24 -224 8 3 polygon
1 1.000 -224 24 -160 24 -160 8 3 polygon
0 1.000 -272 56 -272 40 -240 40 -240 56 4 polygon
1 1.000 -272 48 -352 48 -352 32 3 polygon
1 1.000 -288 48 -288 32 2 polygon
1 1.000 -240 48 -224 48 -224 32 3 polygon
0 1.000 -272 80 -272 64 -240 64 -240 80 4 polygon
1 1.000 -240 72 -224 72 -224 56 3 polygon
1 1.000 -272 72 -288 72 -288 56 3 polygon
1 1.000 -288 88 -288 104 -256 120 -224 104 -224 88 5 polygon
1.000 0 -256 120 generic::dot
1 1.000 -224 120 -224 112 2 polygon
1 1.000 -228 116 -220 116 2 polygon
1 1.000 -292 116 -284 116 2 polygon
0 1.000 -384 0 -384 -48 -320 -48 -320 0 4 polygon
0 1.000 -320 0 -320 -48 -256 -48 -256 0 4 polygon
0 1.000 -256 0 -256 -48 -192 -48 -192 0 4 polygon
0 1.000 -192 0 -192 -48 -128 -48 -128 0 4 polygon
0 1.000 -320 232 -320 184 -256 184 -256 232 4 polygon
0 1.000 -256 232 -256 184 -192 184 -192 232 4 polygon
(Sensor) {/Helvetica cf} 2 16 0 0.700 -296 -80 label
(Temperature) {/Helvetica cf} 2 16 0 1.000 -656 216 label
(transmitter) {/Helvetica cf} 2 16 0 1.000 -640 176 label
1 1.000 -208 336 -224 336 -224 232 3 polygon
0.604 0.604 0.604 scb
1 3.000 80 -224 304 -224 2 polygon
1 3.000 320 -240 320 -560 2 polygon
1 3.000 304 -576 80 -576 2 polygon
1 3.000 64 -560 64 -240 2 polygon
1 3.000 64 -232 72 -224 80 -224 64 -240 spline
1 3.000 320 -232 312 -224 304 -224 320 -240 spline
1 3.000 320 -568 312 -576 304 -576 320 -560 spline
1 3.000 64 -568 72 -576 80 -576 64 -560 spline
240 1.000 80 -240 80 -336 304 -336 304 -240 4 polygon
sce
0 1.000 80 -384 80 -416 112 -416 112 -384 4 polygon
0 1.000 128 -384 128 -416 160 -416 160 -384 4 polygon
0 1.000 176 -384 176 -416 208 -416 208 -384 4 polygon
0 1.000 80 -432 80 -464 112 -464 112 -432 4 polygon
0 1.000 128 -432 128 -464 160 -464 160 -432 4 polygon
0 1.000 176 -432 176 -464 208 -464 208 -432 4 polygon
0 1.000 80 -480 80 -512 112 -512 112 -480 4 polygon
0 1.000 128 -480 128 -512 160 -512 160 -480 4 polygon
0 1.000 176 -480 176 -512 208 -512 208 -480 4 polygon
0 1.000 80 -528 80 -560 112 -560 112 -528 4 polygon
0 1.000 128 -528 128 -560 208 -560 208 -528 4 polygon
(0) {/Helvetica cf} 2 16 0 0.700 88 -552 label
(1) {/Helvetica cf} 2 16 0 0.700 88 -504 label
(2) {/Helvetica cf} 2 16 0 0.700 136 -504 label
(3) {/Helvetica cf} 2 16 0 0.700 184 -504 label
(4) {/Helvetica cf} 2 16 0 0.700 88 -456 label
(5) {/Helvetica cf} 2 16 0 0.700 136 -456 label
(6) {/Helvetica cf} 2 16 0 0.700 184 -456 label
(7) {/Helvetica cf} 2 16 0 0.700 88 -408 label
(8) {/Helvetica cf} 2 16 0 0.700 136 -408 label
(9) {/Helvetica cf} 2 16 0 0.700 184 -408 label
(Enter) {/Helvetica cf} 2 16 0 0.700 136 -552 label
1.000 0 240 -320 generic::dot
0.800 0.800 0.800 scb
496 1.000 128 -344 128 -376 160 -376 160 -344 4 polygon
sce
0 1.000 176 -344 176 -376 208 -376 208 -344 4 polygon
0 1.000 224 -344 224 -376 256 -376 256 -344 4 polygon
0 1.000 272 -344 272 -376 304 -376 304 -344 4 polygon
(J) {/Helvetica cf} 2 16 0 0.700 88 -368 label
(E) {/Helvetica cf} 2 16 0 0.700 184 -368 label
(T) {/Helvetica cf} 2 16 0 0.700 232 -368 label
(S) {/Helvetica cf} 2 16 0 0.700 280 -368 label
0 1.000 80 -344 80 -376 112 -376 112 -344 4 polygon
0 1.000 248 -432 248 -464 280 -464 280 -432 4 polygon
0.800 0.800 0.800 scb
496 1.000 248 -480 248 -512 280 -512 280 -480 4 polygon
sce
(C) {ns} (o) {Ss} {/Helvetica cf} 5 16 0 0.600 252 -456 label
(mV) {/Helvetica cf} 2 16 0 0.400 276 -404 label
0 1.000 272 -384 272 -416 304 -416 304 -384 4 polygon
(K) {/Helvetica cf} 2 16 0 0.700 136 -368 label
0 1.000 128 -344 128 -376 160 -376 160 -344 4 polygon
1 3.000 96 -256 128 -256 128 -320 96 -320 4 polygon
1 3.000 128 -288 96 -288 2 polygon
0 3.000 144 -256 144 -320 176 -320 176 -256 4 polygon
0 3.000 192 -256 192 -320 224 -320 224 -256 4 polygon
0 3.000 256 -256 256 -320 288 -320 288 -256 4 polygon
(F) {ns} (o) {Ss} {/Helvetica cf} 5 16 0 0.600 252 -504 label
0 1.000 248 -480 248 -512 280 -512 280 -480 4 polygon
1 3.000 -336 -128 -272 -208 -192 -160 -288 -48 spline
1 3.000 -224 -80 -256 -144 -192 -160 -224 -48 spline
1.000 1.000 0.000 scb
1 1.000 -224 -80 -256 -144 -192 -160 -224 -48 spline
1.000 0.000 0.000 scb
1 1.000 -336 -128 -272 -208 -192 -160 -288 -48 spline
sce
1.000 270 48 320 analog::vsource
1.000 90 48 400 analog::resistor
1 1.000 112 400 144 400 144 320 112 320 4 polygon
(24 VDC) {/Helvetica cf} 2 16 0 1.000 -40 264 label
(supply) {/Helvetica cf} 2 16 0 1.000 -24 224 label
(Loop resistance) {/Helvetica cf} 2 16 0 1.000 -88 432 label
0.500 /sv 0 256 224 liec_exp::multimeter2
0.500 /sv 90 208 108 liec_exp::plug_+_
0.500 /sv 90 304 108 liec_exp::plug_-_
1 1.000 256 220 288 196 2 polygon
1 1.000 -96 336 -16 0 96 0 -208 336 spline
1 1.000 272 0 304 32 304 96 96 0 spline
0 1.000 224 -384 224 -416 256 -416 256 -384 4 polygon
(RTD) {/Helvetica cf} 2 16 0 0.300 228 -404 label
1.000 0.000 0.000 scb
(A thermocouple/RTD simulator outputs) {/Helvetica-Oblique cf} 2 16 0 0.750 
-512 -384 label
(appropriate millivoltage/resistance values) {/Helvetica-Oblique cf} 2 16 0 
0.750 -512 -416 label
(to simulate thermocouples and RTDs at) {/Helvetica-Oblique cf} 2 16 0 0.750 
-512 -448 label
(specified temperatures.) {/Helvetica-Oblique cf} 2 16 0 0.750 -512 -480 label
0.627 0.125 0.941 scb
(Multimeter) {/Helvetica cf} 2 16 0 1.000 352 304 label
sce
(mA) {/Helvetica cf} 2 16 0 0.500 280 304 label
0 1.000 204 332 204 300 220 300 220 332 4 polygon
1 1.000 204 316 220 316 2 polygon
497 1.000 228 300 2 0.000 360.000 xcarc
0 1.000 236 332 236 300 252 300 252 332 4 polygon
0 1.000 260 332 260 300 276 300 276 332 4 polygon
0.604 0.604 0.604 scb
0 3.000 -768 544 -768 -608 768 -608 768 544 4 polygon
0.627 0.125 0.941 scb
(\(Input standard\)) {/Helvetica-Oblique cf} 2 16 0 0.750 392 -432 label
(\(Output standard\)) {/Helvetica-Oblique cf} 2 16 0 0.750 336 256 label
(Thermocouple/RTD) {/Helvetica cf} 2 16 0 1.000 344 -352 label
(simulator) {/Helvetica cf} 2 16 0 1.000 424 -384 label
sce
1 10.000 -96 -160 192 -48 192 -176 -192 -160 spline
1.000 1.000 0.000 scb
1 7.000 -96 -160 192 -48 192 -176 -192 -160 spline
240 1.000 160 -220 160 -156 224 -156 224 -220 4 polygon
sce
0 1.000 160 -220 160 -156 224 -156 224 -220 4 polygon
(Typical calibration setup for an electronic temperature transmitter) 
{/Helvetica-Bold cf} 2 16 0 1.000 -592 496 label
1 1.000 -16 400 -288 400 -288 232 3 polygon
1.000 0.000 0.000 scb
1 1.000 -80 320 -56 208 0 160 -16 320 spline
1 1.000 64 96 232 16 208 96 0 160 spline
pgsave restore showpage

%%Trailer
XCIRCsave restore
%%EOF
