%!PS-Adobe-3.0 EPSF-3.0
%%Title: current01.eps
%%Creator: XCircuit v3.4 rev27
%%CreationDate: Thu Jan  3 06:22:09 2008
%%Pages: 1
%%BoundingBox: 68 68 468 474
%%DocumentNeededResources: font Helvetica 
%%EndComments
%%BeginProlog
%
%  PostScript prolog for output from xcircuit
%  Version: 3.3
%
%  Electrical circuit (and otherwise general) drawing program
%
%  Written by Tim Edwards 8/5/93--7/13/05  (tim.edwards@multigig.com)
%  The Johns Hopkins University (1993-2004)
%  MultiGiG, Inc. (2004-present)
%
%%BeginResource: procset XCIRCproc 3.3 0
%
% supporting definitions --- these are the primary xcircuit types.

/XCIRCsave save def
/topmat matrix currentmatrix def

/fontslant { /slant exch def [1 0 slant 1 0 0] 
    exch findfont exch makefont dup length dict /ndict exch def
    { 1 index /FID ne { ndict 3 1 roll put } { pop pop } ifelse } forall
    ndict definefont pop} def
/ul { dup type /stringtype eq showflag 1 eq and { gsave 
   currentpoint topmat setmatrix 0 0 moveto 2 index stringwidth pop (_)
   false charpath flattenpath pathbbox grestore exch pop 1 index
   sub setlinewidth exch pop currentpoint 3 -1 roll add moveto 0
   rlineto stroke moveto } if } def
/ol { dup type /stringtype eq showflag 1 eq and { gsave gsave
   currentpoint topmat setmatrix 2 index stringwidth pop 3 index
   true charpath flattenpath pathbbox grestore exch pop
   exch pop topmat setmatrix (_) true charpath pathbbox grestore
   exch pop 1 index sub setlinewidth exch pop currentpoint
   exch 4 1 roll exch sub add moveto pop 0 rlineto stroke
   moveto } if } def
/stW { gsave currentpoint newpath moveto true charpath flattenpath
	pathbbox pop exch pop sub grestore } def
/Ts {mark Tabs aload pop counttomark 1 add array astore /Tabs exch def Tabs
	0 currentpoint pop put} def
/Tbn {mark Tabs aload pop counttomark dup 2 add 1 roll cleartomark 1 sub} def
/Tb { 0 1 Tbn {Tabs exch get dup currentpoint pop lt
	{currentpoint exch pop moveto exit} {pop} ifelse } for } def
/Tf { Tbn -1 0 {Tabs exch get dup currentpoint pop gt
	{currentpoint exch pop moveto exit} {pop} ifelse } for } def
/qS { (aa) stW (a a) stW sub 4 div 0 Kn } def
/hS { qS qS } def
/pspc 0 def
/cf0 { scalefont setfont } bind def
/Kn { dup kY add /kY exch def rmoveto } bind def
/ss { /fscale fscale 0.67 mul def currentfont 0.67 cf0 0 fscale0 fscale mul
	0.33 mul neg Kn} def
/Ss { /fscale fscale 0.67 mul def currentfont 0.67 cf0 0 fscale0 fscale mul
	0.67 mul Kn } def
/ns { 0 kY neg Kn /kY 0 def /fscale 1.0 def xfont0 1.0 cf0 } def
/CR { ns 0 /Bline Bline fscale0 neg add def Bline moveto } def
/cf { dup type /realtype ne {1.0} if exch findfont exch kY 0 eq
	{ 40 mul dup /fscale0 exch def cf0 /xfont0 currentfont def}
	{fscale0 mul fscale mul cf0} ifelse } def
/ctmk { counttomark dup 2 add -1 roll pop } bind def
/label { gsave translate 0 0 moveto dup scale neg /rotval exch def
	/just exch def just 384 and 0 gt {/mshow {pop} def} {/mshow {show}
	def} ifelse just 16 and 0 gt {gsave rotval rotate 0 1 dtransform
	gsave pagemat setmatrix idtransform exch grestore 1 0 dtransform
	gsave pagemat setmatrix idtransform exch grestore dup abs 1e-9 lt
	{pop mul 0 gt} {3 1 roll pop pop 0 lt} ifelse grestore {-1 /rotval
	rotval neg def /just just dup 3 and 1 ne {3 xor} if def} {1} ifelse
	exch -1e-9 lt {-1 /rotval rotval neg def /just just dup 12 and
	4 ne {12 xor} if def} {1} ifelse scale } if /showflag 0 def
	/fspc pspc def /Bline 0 def /Tabs 0 array def /fscale 1.0 def
	/kY 0 def gsave dup 1 add copy 0 exch 1 0 dtransform exch atan rotate
	{exch dup type /stringtype eq {true charpath flattenpath} {dup type
	/arraytype eq {exec} {12 string cvs true charpath flattenpath} ifelse}
	ifelse} repeat pop pathbbox grestore 3 -1 roll pop 3 1 roll just
	1 and 0 gt {just 2 and 0 gt {exch pop neg fspc sub} {exch sub 0.5
	mul neg} ifelse} {pop neg fspc add} ifelse exch Bline exch just 4
	and 0 gt {just 8 and 0 gt {exch pop neg fspc sub} {add 0.5 mul neg}
	ifelse} {pop neg fspc add} ifelse rotval rotate Kn currentpoint
	translate /showflag 1 def /Bline 0 def /Tabs 0 array def /fscale
	1.0 def /kY 0 def {dup type /stringtype eq {mshow} {dup type
	/arraytype eq {exec} {12 string cvs mshow} ifelse} ifelse} repeat
	grestore } def
/pinlabel { 4 index 32 and 0 ne hlevel 0 eq or { /pspc 10 def label
	/pspc 0 def } { pop pop pop pop pop {pop} repeat } ifelse } def
/pinglobal { pinlabel } def
/infolabel { pinlabel } def
/graphic { gsave 4 index cvx exec /DataSource get resetfile translate
	0 0 moveto neg rotate dup scale cvx exec image grestore } def

/scb { setrgbcolor } bind def  /sce { defColor aload pop scb } bind def
/cRedef {/defColor currentcolor 3 array astore def} def
/begingate {dup type /dicttype ne {1 dict} if begin	% default params
	dup type /dicttype ne {1 dict} if begin		% instanced params
	/hlevel hlevel 1 add def /defColor currentcolor sce 3 array
	astore def gsave sce translate 0 0 moveto neg rotate dup abs scale
	} bind def
/endgate { /hlevel hlevel 1 sub def grestore defColor aload pop cRedef
	scb end end} bind def

/hlevel 0 def
/tmpa [1 0 0 1 0 0] def
/gar {8 8 true tmpa {<c0 c0 00 00 0c 0c 00 00>} imagemask} bind
{8 8 true tmpa {<30 70 60 02 03 07 06 20>} imagemask} bind
{8 8 true tmpa {<0c 1e 1e 0c c0 e1 e1 c0>} imagemask} bind
{8 8 true tmpa {<0f 0f 0f 0f f0 f0 f0 f0>} imagemask} bind
{8 8 true tmpa {<3f f3 e1 e1 f3 3f 1e 1e>} imagemask} bind
{8 8 true tmpa {<df cf 8f 9f fd fc f8 f9>} imagemask} bind
{8 8 true tmpa {<ff 3f 3f ff ff f3 f3 ff>} imagemask} bind 7 array astore def
/ppaint { gsave clip tmpa dup setmatrix pathbbox neg exch neg 4 2 roll
  neg 4 -1 roll 2 copy gt {exch} if 8 div ceiling 8 mul 4 2 roll neg 2 copy
  gt {exch} if 8 div ceiling 8 mul 3 -1 roll -8 5 -1 roll
  { 3 index exch 5 exch put dup -8 3 index { 3 index
  exch 4 exch put 3 index exec } for } for pop pop pop pop grestore } bind def
/setstyles {
  currentlinewidth mul setlinewidth /style exch def
  style 1 and 0 gt not {closepath} if
  style 1024 and 0 gt {2 setlinecap} if
  style 2 and 0 gt {currentlinewidth 4 mul dup 2 array astore 0 setdash} if
  style 4 and 0 gt {0.5 currentlinewidth 4 mul 2 array astore 0 setdash} if
  gsave style 16 and 0 gt { style 224 and -5 bitshift style 256 and 0 gt {
  7 exch sub 8 div dup 1 exch sub currentrgbcolor 3 array astore
  {3 copy mul add 4 1 roll pop} forall pop pop setrgbcolor eofill}
  {dup 7 lt {gar exch get ppaint} {pop eofill} ifelse} ifelse}
  {style 256 and 0 gt {1 setgray eofill} if} ifelse grestore style 8 and 0 gt 
  style 512 eq or {newpath} {stroke} ifelse grestore} def     

/polygon { gsave /num exch def moveto num 1 sub {lineto} repeat setstyles } def
/xcarc   { gsave newpath arc setstyles } def
/elb { matrix currentmatrix 7 -1 roll 7 -1 roll translate 5 1 roll 4 -1 roll
	3 index div 1 scale } def
/ele { 0 4 1 roll 0 4 1 roll } bind def
/ellipse { gsave elb newpath ele arc setmatrix setstyles } def
/pellip  { elb ele arc setmatrix } def
/nellip  { elb ele arcn setmatrix } def
/spline  { gsave moveto curveto setstyles } def
/polyc   { {lineto} repeat } bind def
/beginpath { gsave moveto } bind def
/endpath { setstyles } bind def
/bop	 { 1 setlinecap 0 setlinejoin 6 setmiterlimit 0 0 0 scb cRedef } def
/psinsertion {/PSobj save def /showpage {} def /setpagedevice {pop} def bop
	rotate translate dup scale} def
/end_insert {PSobj restore} def
/setpagemat {/pagemat matrix currentmatrix def} def
/inchscale  {setpagemat 0.375 mul dup scale} def
/cmscale    {setpagemat 0.35433071 mul dup scale} def

%%EndResource
%%EndProlog

% XCircuit output starts here.

%%BeginSetup


%%EndSetup

%%Page: 1 1
%%PageOrientation: Portrait
/pgsave save def bop
% 32.00 8.00 gridspace
0.7500 inchscale
2.6000 setlinewidth 1120 958 translate

0.604 0.604 0.604 scb
1 0.50 -480 704 -480 -576 2 polygon
1 0.50 -448 704 -448 -576 2 polygon
1 0.50 -416 704 -416 -576 2 polygon
1 0.50 -384 704 -384 -576 2 polygon
1 0.50 -352 704 -352 -576 2 polygon
1 0.50 -320 704 -320 -576 2 polygon
1 0.50 -288 704 -288 -576 2 polygon
1 0.50 -256 704 -256 -576 2 polygon
1 0.50 -224 704 -224 -576 2 polygon
1 0.50 -192 704 -192 -576 2 polygon
1 0.50 -160 704 -160 -576 2 polygon
1 0.50 -128 704 -128 -576 2 polygon
1 0.50 -96 704 -96 -576 2 polygon
1 0.50 -64 704 -64 -576 2 polygon
1 0.50 -32 704 -32 -576 2 polygon
1 0.50 0 704 0 -576 2 polygon
1 0.50 32 704 32 -576 2 polygon
1 0.50 64 704 64 -576 2 polygon
1 0.50 96 704 96 -576 2 polygon
1 0.50 128 704 128 -576 2 polygon
1 0.50 160 704 160 -576 2 polygon
1 0.50 192 704 192 -576 2 polygon
1 0.50 224 704 224 -576 2 polygon
1 0.50 256 704 256 -576 2 polygon
1 0.50 288 704 288 -576 2 polygon
1 0.50 320 704 320 -576 2 polygon
1 0.50 352 704 352 -576 2 polygon
1 0.50 384 704 384 -576 2 polygon
1 0.50 416 704 416 -576 2 polygon
1 0.50 448 704 448 -576 2 polygon
1 0.50 480 704 480 -576 2 polygon
1 0.50 -512 672 512 672 2 polygon
1 0.50 -512 640 512 640 2 polygon
1 0.50 -512 608 512 608 2 polygon
1 0.50 -512 576 512 576 2 polygon
1 0.50 -512 544 512 544 2 polygon
1 0.50 -512 512 512 512 2 polygon
1 0.50 -512 480 512 480 2 polygon
1 0.50 -512 448 512 448 2 polygon
1 0.50 -512 416 512 416 2 polygon
1 0.50 -512 384 512 384 2 polygon
1 0.50 -512 352 512 352 2 polygon
1 0.50 -512 320 512 320 2 polygon
1 0.50 -512 288 512 288 2 polygon
1 0.50 -512 256 512 256 2 polygon
1 0.50 -512 224 512 224 2 polygon
1 0.50 -512 192 512 192 2 polygon
1 0.50 -512 160 512 160 2 polygon
1 0.50 -512 128 512 128 2 polygon
1 0.50 -512 96 512 96 2 polygon
1 0.50 -512 64 512 64 2 polygon
1 0.50 -512 32 512 32 2 polygon
1 0.50 -512 0 512 0 2 polygon
1 0.50 -512 -32 512 -32 2 polygon
1 0.50 -512 -64 512 -64 2 polygon
1 0.50 -512 -96 512 -96 2 polygon
1 0.50 -512 -128 512 -128 2 polygon
1 0.50 -512 -160 512 -160 2 polygon
1 0.50 -512 -192 512 -192 2 polygon
1 0.50 -512 -224 512 -224 2 polygon
1 0.50 -512 -256 512 -256 2 polygon
1 0.50 -512 -288 512 -288 2 polygon
1 0.50 -512 -320 512 -320 2 polygon
1 0.50 -512 -352 512 -352 2 polygon
1 0.50 -512 -384 512 -384 2 polygon
1 0.50 -512 -416 512 -416 2 polygon
1 0.50 -512 -448 512 -448 2 polygon
1 0.50 -512 -480 512 -480 2 polygon
1 0.50 -512 -512 512 -512 2 polygon
1 0.50 -512 -544 512 -544 2 polygon
sce
0 1.00 -512 704 -512 -576 512 -576 512 704 4 polygon
0.000 0.000 1.000 scb
1 1.00 -512 -576 512 704 2 polygon
sce
1 1.00 -512 -576 -512 -592 2 polygon
1 1.00 -448 -576 -448 -592 2 polygon
1 1.00 -384 -576 -384 -592 2 polygon
1 1.00 -320 -576 -320 -592 2 polygon
1 1.00 -256 -576 -256 -592 2 polygon
1 1.00 -192 -576 -192 -592 2 polygon
1 1.00 -128 -576 -128 -592 2 polygon
1 1.00 -64 -576 -64 -592 2 polygon
1 1.00 0 -576 0 -592 2 polygon
1 1.00 64 -576 64 -592 2 polygon
1 1.00 128 -576 128 -592 2 polygon
1 1.00 192 -576 192 -592 2 polygon
1 1.00 256 -576 256 -592 2 polygon
1 1.00 320 -576 320 -592 2 polygon
1 1.00 384 -576 384 -592 2 polygon
1 1.00 448 -576 448 -592 2 polygon
1 1.00 512 -576 512 -592 2 polygon
1 1.00 -512 -576 -528 -576 2 polygon
1 1.00 -512 -512 -528 -512 2 polygon
1 1.00 -512 -448 -528 -448 2 polygon
1 1.00 -512 -384 -528 -384 2 polygon
1 1.00 -512 -320 -528 -320 2 polygon
1 1.00 -512 -256 -528 -256 2 polygon
1 1.00 -512 -192 -528 -192 2 polygon
1 1.00 -512 -128 -528 -128 2 polygon
1 1.00 -512 -64 -528 -64 2 polygon
1 1.00 -512 0 -528 0 2 polygon
1 1.00 -512 64 -528 64 2 polygon
1 1.00 -512 128 -528 128 2 polygon
1 1.00 -512 192 -528 192 2 polygon
1 1.00 -512 256 -528 256 2 polygon
1 1.00 -512 320 -528 320 2 polygon
1 1.00 -512 384 -528 384 2 polygon
1 1.00 -512 448 -528 448 2 polygon
1 1.00 -512 512 -528 512 2 polygon
1 1.00 -512 576 -528 576 2 polygon
1 1.00 -512 640 -528 640 2 polygon
1 1.00 -512 704 -528 704 2 polygon
(4) {/Helvetica cf} 2 16 0 1.00 -528 -632 label
(5) {/Helvetica cf} 2 16 0 1.00 -456 -632 label
(6) {/Helvetica cf} 2 16 0 1.00 -392 -632 label
(7) {/Helvetica cf} 2 16 0 1.00 -328 -632 label
(8) {/Helvetica cf} 2 16 0 1.00 -264 -632 label
(9) {/Helvetica cf} 2 16 0 1.00 -200 -632 label
(10) {/Helvetica cf} 2 16 0 1.00 -152 -632 label
(11) {/Helvetica cf} 2 16 0 1.00 -80 -632 label
(12) {/Helvetica cf} 2 16 0 1.00 -16 -632 label
(13) {/Helvetica cf} 2 16 0 1.00 48 -632 label
(14) {/Helvetica cf} 2 16 0 1.00 112 -632 label
(15) {/Helvetica cf} 2 16 0 1.00 176 -632 label
(16) {/Helvetica cf} 2 16 0 1.00 240 -632 label
(17) {/Helvetica cf} 2 16 0 1.00 304 -632 label
(18) {/Helvetica cf} 2 16 0 1.00 360 -632 label
(19) {/Helvetica cf} 2 16 0 1.00 424 -632 label
(20) {/Helvetica cf} 2 16 0 1.00 488 -632 label
(50) {/Helvetica cf} 2 16 0 1.00 -592 -592 label
(60) {/Helvetica cf} 2 16 0 1.00 -592 -528 label
(70) {/Helvetica cf} 2 16 0 1.00 -592 -464 label
(80) {/Helvetica cf} 2 16 0 1.00 -592 -400 label
(90) {/Helvetica cf} 2 16 0 1.00 -592 -336 label
(100) {/Helvetica cf} 2 16 0 1.00 -608 -272 label
(110) {/Helvetica cf} 2 16 0 1.00 -608 -208 label
(120) {/Helvetica cf} 2 16 0 1.00 -608 -144 label
(130) {/Helvetica cf} 2 16 0 1.00 -608 -80 label
(140) {/Helvetica cf} 2 16 0 1.00 -608 -16 label
(150) {/Helvetica cf} 2 16 0 1.00 -608 48 label
(160) {/Helvetica cf} 2 16 0 1.00 -608 112 label
(170) {/Helvetica cf} 2 16 0 1.00 -608 176 label
(180) {/Helvetica cf} 2 16 0 1.00 -608 240 label
(190) {/Helvetica cf} 2 16 0 1.00 -608 304 label
(200) {/Helvetica cf} 2 16 0 1.00 -608 368 label
(210) {/Helvetica cf} 2 16 0 1.00 -608 432 label
(220) {/Helvetica cf} 2 16 0 1.00 -608 496 label
(230) {/Helvetica cf} 2 16 0 1.00 -608 560 label
(240) {/Helvetica cf} 2 16 0 1.00 -608 624 label
(250) {/Helvetica cf} 2 16 0 1.00 -608 688 label
(DC current signal \(mA\)) {/Helvetica cf} 2 16 0 1.00 -240 -696 label
(Measured) {/Helvetica cf} 2 16 0 1.00 -840 96 label
(temperature) {/Helvetica cf} 2 16 0 1.00 -864 56 label
(C\)) {ns} (o) {Ss} (\() {/Helvetica cf} 6 16 0 1.00 -792 8 label
pgsave restore showpage

%%Trailer
XCIRCsave restore
%%EOF
