%!PS-Adobe-3.0 EPSF-3.0
%%Title: current60.eps
%%Creator: XCircuit v3.7 rev26
%%CreationDate: Sat Mar 30 10:10:25 2013
%%Pages: 1
%%BoundingBox: 68 68 469 319
%%DocumentNeededResources: font Helvetica Helvetica-Bold Times-Roman Symbol 
%%EndComments
%%BeginProlog
%
%  PostScript prolog for output from xcircuit
%  Version: 3.7
%
%  Electrical circuit (and otherwise general) drawing program
%
%  Written by Tim Edwards 8/5/93--11/1/10  (tim.edwards@multigig.com)
%  The Johns Hopkins University (1993-2004)
%  MultiGiG, Inc. (2004-present)
%
%%BeginResource: procset XCIRCproc 3.7 2
%
% supporting definitions --- these are the primary xcircuit types.

/XCIRCsave save def
/topmat matrix currentmatrix def

/fontslant { /slant exch def [1 0 slant 1 0 0] 
    exch findfont exch makefont dup length dict /ndict exch def
    { 1 index /FID ne { ndict 3 1 roll put } { pop pop } ifelse } forall
    ndict definefont pop} def
/ul { dup type /stringtype eq showflag 1 eq and { gsave 
   currentpoint topmat setmatrix 0 0 moveto 2 index stringwidth pop (_)
   false charpath flattenpath pathbbox grestore exch pop 1 index
   sub setlinewidth exch pop currentpoint 3 -1 roll add moveto 0
   rlineto stroke moveto } if } def
/ol { dup type /stringtype eq showflag 1 eq and { gsave gsave
   currentpoint topmat setmatrix 2 index stringwidth pop 3 index
   true charpath flattenpath pathbbox grestore exch pop
   exch pop topmat setmatrix (_) true charpath pathbbox grestore
   exch pop 1 index sub setlinewidth exch pop currentpoint
   exch 4 1 roll exch sub add moveto pop 0 rlineto stroke
   moveto } if } def
/stW { gsave currentpoint newpath moveto true charpath flattenpath
	pathbbox pop exch pop sub grestore } def
/Ts {mark Tabs aload pop counttomark 1 add array astore /Tabs exch def Tabs
	0 currentpoint pop put} def
/Tbn {mark Tabs aload pop counttomark dup 2 add 1 roll cleartomark 1 sub} def
/Tb { 0 1 Tbn {Tabs exch get dup currentpoint pop lt
	{currentpoint exch pop moveto exit} {pop} ifelse } for } def
/Tf { Tbn -1 0 {Tabs exch get dup currentpoint pop gt
	{currentpoint exch pop moveto exit} {pop} ifelse } for } def
/qS { (aa) stW (a a) stW sub 4 div 0 Kn } def
/hS { qS qS } def
/pspc 0 def
/cf0 { scalefont setfont } bind def
/Kn { dup kY add /kY exch def rmoveto } bind def
/ss { /fscale fscale 0.67 mul def currentfont 0.67 cf0 0 fscale0 fscale mul
	0.33 mul neg Kn} def
/Ss { /fscale fscale 0.67 mul def currentfont 0.67 cf0 0 fscale0 fscale mul
	0.67 mul Kn } def
/ns { 0 kY neg Kn /kY 0 def /fscale 1.0 def xfont0 1.0 cf0 } def
/CR { ns 0 /Bline Bline fscale0 neg add def Bline moveto } def
/cf { dup type /realtype ne {1.0} if exch findfont exch kY 0 eq
	{ 40 mul dup /fscale0 exch def cf0 /xfont0 currentfont def}
	{fscale0 mul fscale mul cf0} ifelse } def
/ctmk { counttomark dup 2 add -1 roll pop } bind def
/label { gsave translate 0 0 moveto dup scale neg /rotval exch def
	/just exch def just 384 and 0 gt {/mshow {pop} def} {/mshow {show}
	def} ifelse just 16 and 0 gt {gsave rotval rotate 0 1 dtransform
	gsave pagemat setmatrix idtransform exch grestore 1 0 dtransform
	gsave pagemat setmatrix idtransform exch grestore dup abs 1e-9 lt
	{pop mul 0 gt} {3 1 roll pop pop 0 lt} ifelse grestore {-1 /rotval
	rotval neg def /just just dup 3 and 1 ne {3 xor} if def} {1} ifelse
	exch -1e-9 lt {-1 /rotval rotval neg def /just just dup 12 and
	4 ne {12 xor} if def} {1} ifelse scale } if /showflag 0 def
	/fspc pspc def /Bline 0 def /Tabs 0 array def /fscale 1.0 def
	/kY 0 def gsave dup 1 add copy 0 exch 1 0 dtransform exch atan rotate
	{exch dup type /stringtype eq {true charpath flattenpath} {dup type
	/arraytype eq {exec} {12 string cvs true charpath flattenpath} ifelse}
	ifelse} repeat pop pathbbox grestore 3 -1 roll pop 3 1 roll just
	1 and 0 gt {just 2 and 0 gt {exch pop neg fspc sub} {exch sub 0.5
	mul neg} ifelse} {pop neg fspc add} ifelse exch Bline exch just 4
	and 0 gt {just 8 and 0 gt {exch pop neg fspc sub} {add 0.5 mul neg}
	ifelse} {pop neg fspc add} ifelse rotval rotate Kn currentpoint
	translate /showflag 1 def /Bline 0 def /Tabs 0 array def /fscale
	1.0 def /kY 0 def {dup type /stringtype eq {mshow} {dup type
	/arraytype eq {exec} {12 string cvs mshow} ifelse} ifelse} repeat
	grestore endclip} def
/pinlabel { 4 index 32 and 0 ne hlevel 0 eq or { /pspc 10 def label
	/pspc 0 def } { pop pop pop pop pop {pop} repeat } ifelse } def
/pinglobal { pinlabel } def
/infolabel { pinlabel } def
/graphic { gsave 4 index cvx exec /DataSource get resetfile translate 0 0
	moveto neg rotate dup scale cvx exec image grestore endclip} def

/scb { setrgbcolor } bind def  /sce { defColor aload pop scb } bind def
/cRedef {/defColor currentcolor 3 array astore def} def
/begingate {dup type /dicttype ne {1 dict} if begin	% default params
	dup type /dicttype ne {1 dict} if begin		% instanced params
	/hlevel hlevel 1 add def /defColor currentcolor sce 3 array astore
	def gsave sce translate 0 0 moveto neg rotate dup type /nametype
	eq not { dup abs currentlinewidth exch div setlinewidth } { pop }
	ifelse dup abs scale clipped 1 and 1 eq {/clipped clipped 1 add def}
	if} bind def
/endgate { /hlevel hlevel 1 sub def grestore defColor aload pop cRedef
	scb end end endclip} bind def

/hlevel 0 def
/endclip {clipped 1 and 1 eq {grestore /clipped clipped 1 sub def} if} def
/tmpa [1 0 0 1 0 0] def
/gar {8 8 true tmpa {<c0 c0 00 00 0c 0c 00 00>} imagemask} bind
{8 8 true tmpa {<30 70 60 02 03 07 06 20>} imagemask} bind
{8 8 true tmpa {<0c 1e 1e 0c c0 e1 e1 c0>} imagemask} bind
{8 8 true tmpa {<0f 0f 0f 0f f0 f0 f0 f0>} imagemask} bind
{8 8 true tmpa {<3f f3 e1 e1 f3 3f 1e 1e>} imagemask} bind
{8 8 true tmpa {<df cf 8f 9f fd fc f8 f9>} imagemask} bind
{8 8 true tmpa {<ff 3f 3f ff ff f3 f3 ff>} imagemask} bind 7 array astore def
/ppaint { gsave clip tmpa dup setmatrix pathbbox neg exch neg 4 2 roll
  neg 4 -1 roll 2 copy gt {exch} if 8 div ceiling 8 mul 4 2 roll neg 2 copy
  gt {exch} if 8 div ceiling 8 mul 3 -1 roll -8 5 -1 roll
  { 3 index exch 5 exch put dup -8 3 index { 3 index
  exch 4 exch put 3 index exec } for } for pop pop pop pop grestore } bind def
/setstyles {
  currentlinewidth mul setlinewidth /style exch def style 2048 and 0 gt
  clipped 1 and 0 eq and {clip newpath /clipped clipped 1 add def} {
  style 1 and 0 gt not {closepath} if
  style 1024 and 0 gt {2 setlinecap} if
  style 2 and 0 gt {currentlinewidth 4 mul dup 2 array astore 0 setdash} if
  style 4 and 0 gt {0.5 currentlinewidth 4 mul 2 array astore 0 setdash} if
  gsave style 16 and 0 gt { style 224 and -5 bitshift style 256 and 0 gt {
  7 exch sub 8 div dup 1 exch sub currentrgbcolor 3 array astore
  {3 copy mul add 4 1 roll pop} forall pop pop setrgbcolor eofill}
  {dup 7 lt {gar exch get ppaint} {pop eofill} ifelse} ifelse}
  {style 256 and 0 gt {1 setgray eofill} if} ifelse grestore style 8 and 0 gt 
  style 512 eq or {newpath} {stroke} ifelse grestore endclip} ifelse} def     

/addtoy {exch dup dup 2 mul 3 add 1 roll -1 1 { 4 1 roll dup 4 1 roll add
	4 -1 roll 2 mul 1 add index 2 mul 2 add 2 roll} for pop} def
/addtoy1 {1 exch addtoy pop} def
/addtoy3 {3 exch addtoy pop} def
/addtoy4 {4 exch addtoy pop} def
/addtox {exch dup dup 2 mul 3 add 1 roll -1 1 { 4 1 roll dup 4 1 roll 3 -1 roll
	add exch 4 -1 roll 2 mul 1 add index 2 mul 2 add 2 roll} for pop} def
/addtox1 {1 exch addtox pop} def
/addtox3 {3 exch addtox pop} def
/addtox4 {4 exch addtox pop} def
/polygon { gsave /num exch def moveto num 1 sub {lineto} repeat setstyles } def
/xcarc   { gsave newpath arc setstyles } def
/elb { matrix currentmatrix 7 -1 roll 7 -1 roll translate 5 1 roll 4 -1 roll
	3 index div 1 scale } def
/ele { 0 4 1 roll 0 4 1 roll } bind def
/ellipse { gsave elb newpath ele arc setmatrix setstyles } def
/pellip  { elb ele arc setmatrix } def
/nellip  { elb ele arcn setmatrix } def
/spline  { gsave moveto curveto setstyles } def
/polyc   { {lineto} repeat } bind def
/beginpath { gsave moveto } bind def
/endpath { setstyles } bind def
/bop	 { 1 setlinecap 0 setlinejoin 6 setmiterlimit 0 0 0 scb cRedef
	/clipped 0 def} def
/psinsertion {/PSobj save def /showpage {} def /setpagedevice {pop} def bop
	rotate translate dup scale} def
/end_insert {PSobj restore} def
/setpagemat {/pagemat matrix currentmatrix def} def
/inchscale  {setpagemat 0.375 mul dup scale} def
/cmscale    {setpagemat 0.35433071 mul dup scale} def

%%EndResource
%%EndProlog

% XCircuit output starts here.

%%BeginSetup

/generic::dot {
% trivial
begingate
248 1.000 0 0 6 0.000 360.000 xcarc
1.000 0.000 0.000 scb
(x) {/Times-Roman cf} 2 29 0 1.000 0 0 pinlabel
endgate
} def

/generic::arrowhead {
% nonetwork
begingate
8 -28 beginpath
3 -18 3 -15 0 0 curveto
-3 -15 -3 -18 -8 -28 curveto
-2 -26 2 -26 8 -28 curveto
249 
1.000 endpath
endgate
} def

/generic::arrow {
% nonetwork
begingate
1 0.800 0 -40 0 20 2 polygon
1.000 0 0 40 generic::arrowhead
endgate
} def

/analog::source {
% hidden
begingate
1 1.000 0 0 32 0.000 360.000 xcarc
1 1.000 0 32 0 64 2 polygon
1 1.000 0 -32 0 -64 2 polygon
endgate
} def

/analog::vsource {
begingate
1.000 0 0 0 analog::source
(+) {/Symbol cf} 2 5 0 1.000 0 14 label
(-) {/Symbol cf} 2 5 0 1.000 0 -22 label
1.000 0.000 0.000 scb
(v.p) {/Times-Roman cf} 2 9 0 1.000 0 64 pinlabel
(v.m) {/Times-Roman cf} 2 13 0 1.000 0 -64 pinlabel
endgate
} def

/analog::resistor {
begingate
1 1.000 0 64 0 36 2 polygon
1 1.000 0 -64 0 -36 2 polygon
1 1.000 0 -36 14 -30 -14 -18 14 -6 -14 6 14 18 -14 30 0 36 8 polygon
1.000 0.000 0.000 scb
(r.1) {/Times-Roman cf} 2 9 0 1.000 0 64 pinlabel
(r.2) {/Times-Roman cf} 2 13 0 1.000 0 -64 pinlabel
0.180 0.545 0.341 scb
(spice:R%i %pr.1 %pr.2 1.0K) {/Times-Roman cf} 2 0 0 1.000 -208 -160 infolabel
(sim:r %pr.1 %pr.2) {/Times-Roman cf} 2 0 0 1.000 -208 -208 infolabel
endgate
} def


%%EndSetup

%%Page: 1 1
%%PageOrientation: Portrait
/pgsave save def bop
0.6000 inchscale
2.6000 setlinewidth 1327 1215 translate

0.824 0.706 0.549 scb
497 1.000 -480 0 96 0.000 360.000 xcarc
sce
1 1.000 -480 0 96 0.000 360.000 xcarc
(Temperature ) {/Helvetica cf} 2 16 0 1.000 -600 160 label
0.604 0.604 0.604 scb
497 1.000 -432 32 16 0.000 360.000 xcarc
sce
1 1.000 -432 32 16 0.000 360.000 xcarc
1 1.000 -424 44 -444 24 2 polygon
1 1.000 -420 40 -440 20 2 polygon
0.604 0.604 0.604 scb
497 1.000 -432 -32 16 0.000 360.000 xcarc
sce
1 1.000 -432 -32 16 0.000 360.000 xcarc
1 1.000 -424 -20 -444 -40 2 polygon
1 1.000 -420 -24 -440 -44 2 polygon
0.604 0.604 0.604 scb
497 1.000 -528 32 16 0.000 360.000 xcarc
sce
1 1.000 -528 32 16 0.000 360.000 xcarc
1 1.000 -520 44 -540 24 2 polygon
1 1.000 -516 40 -536 20 2 polygon
0.604 0.604 0.604 scb
497 1.000 -528 -32 16 0.000 360.000 xcarc
sce
1 1.000 -528 -32 16 0.000 360.000 xcarc
1 1.000 -520 -20 -540 -40 2 polygon
1 1.000 -516 -24 -536 -44 2 polygon
1 1.000 -544 32 -768 32 2 polygon
1 1.000 -544 -32 -768 -32 2 polygon
1 1.000 -768 -32 -816 0 -768 32 3 polygon
1.000 0 -816 0 generic::dot
(Thermocouple) {/Helvetica cf} 2 16 0 1.000 -968 112 label
(Iron) {/Helvetica cf} 2 16 0 0.500 -752 16 label
(Constantan) {/Helvetica cf} 2 16 0 0.500 -760 -24 label
1.000 165 -832 56 generic::arrow
0.804 0.000 0.000 scb
1 1.000 -416 32 320 32 2 polygon
1 1.000 -416 -32 320 -32 2 polygon
sce
1.000 0 544 -64 analog::vsource
0.804 0.000 0.000 scb
1 1.000 544 0 544 32 320 32 3 polygon
sce
(24 VDC) {/Times-Roman cf} 2 16 0 1.000 592 -80 label
1.000 0 384 -160 analog::resistor
0.804 0.000 0.000 scb
1 1.000 320 -32 384 -32 384 -96 3 polygon
1 1.000 384 -224 384 -288 544 -288 544 -128 4 polygon
0.800 0.800 0.800 scb
496 1.000 256 -352 256 -640 672 -640 672 -352 4 polygon
1.000 1.000 1.000 scb
496 1.000 288 -384 288 -544 640 -544 640 -384 4 polygon
sce
1 1.000 384 -400 544 -400 624 -448 304 -448 spline
1 1.000 432 -544 304 -432 2 polygon
0 1.000 256 -352 256 -640 672 -640 672 -352 4 polygon
0 1.000 288 -384 288 -544 640 -544 640 -384 4 polygon
(Deg C) {/Helvetica cf} 2 16 0 0.750 424 -496 label
1.000 0 384 -96 generic::dot
1.000 0 384 -224 generic::dot
0.800 0.800 0.800 scb
496 1.000 208 -432 208 -480 256 -480 256 -432 4 polygon
sce
0 1.000 208 -432 208 -480 256 -480 256 -432 4 polygon
0.604 0.604 0.604 scb
497 1.000 232 -456 16 0.000 360.000 xcarc
sce
1 1.000 232 -456 16 0.000 360.000 xcarc
1 1.000 240 -444 220 -464 2 polygon
1 1.000 244 -448 224 -468 2 polygon
0.800 0.800 0.800 scb
496 1.000 208 -512 208 -560 256 -560 256 -512 4 polygon
sce
0 1.000 208 -512 208 -560 256 -560 256 -512 4 polygon
0.604 0.604 0.604 scb
497 1.000 232 -536 16 0.000 360.000 xcarc
sce
1 1.000 232 -536 16 0.000 360.000 xcarc
1 1.000 240 -524 220 -544 2 polygon
1 1.000 244 -528 224 -548 2 polygon
0.804 0.000 0.000 scb
1 1.000 208 -456 160 -456 160 -224 384 -224 4 polygon
0.000 0.000 1.000 scb
(Output range = 4 to 20 mA) {/Helvetica cf} 2 16 0 0.750 -384 48 label
sce
(W) {/Symbol cf} (250 ) {/Times-Roman cf} 4 16 0 0.750 416 -176 label
0.000 0.000 1.000 scb
(Input range = 4 to 20 mA) {/Helvetica cf} 2 16 0 0.750 16 -160 label
(C) {ns} (o) {Ss} (Input range = 50 to 250 ) {/Helvetica cf} 6 16 0 0.750 -1008 
-80 label
(Output range = 1 to 5 V) {/Helvetica cf} 2 16 0 0.750 16 -192 label
0.804 0.000 0.000 scb
1 1.000 384 -96 -64 -96 -64 -536 208 -536 4 polygon
sce
(Temperature indicator \(TI\)) {/Helvetica cf} 2 16 0 1.000 224 -688 label
(transmitter \(TT\)) {/Helvetica cf} 2 16 0 1.000 -624 120 label
0.000 0.000 1.000 scb
(Input range = 1 to 5 V) {/Helvetica cf} 2 16 0 0.750 272 -584 label
(C) {ns} (o) {Ss} (Output range = 50 to 250 ) {/Helvetica cf} 6 16 0 0.750 272 
-616 label
1.000 0.000 0.000 scb
(50) {/Helvetica cf} 2 16 0 0.500 296 -424 label
(250) {/Helvetica cf} 2 16 0 0.500 600 -424 label
(150) {/Helvetica cf} 2 16 0 0.500 448 -408 label
(100) {/Helvetica cf} 2 16 0 0.500 360 -412 label
(200) {/Helvetica cf} 2 16 0 0.500 528 -412 label
0.000 0.000 1.000 scb
(Output range = 2.585 to 13.555 mV) {/Helvetica cf} 2 16 0 0.750 -1008 -112 
label
(Input range = 2.585 to 13.555 mV) {/Helvetica cf} 2 16 0 0.750 -384 80 label
sce
(Thermocouple) {/Helvetica cf} 2 16 0 1.000 -928 -688 label
(Device) {/Helvetica-Bold cf} 2 16 0 1.000 -848 -624 label
(Input range) {/Helvetica-Bold cf} 2 16 0 1.000 -544 -624 label
(Output range) {/Helvetica-Bold cf} 2 16 0 1.000 -208 -624 label
0.400 0.400 0.400 scb
1 1.000 -256 -640 -256 -576 2 polygon
1 1.000 -256 -704 -256 -640 2 polygon
1 1.000 -256 -768 -256 -704 2 polygon
1 1.000 -256 -832 -256 -768 2 polygon
sce
(Transmitter) {/Helvetica cf} 2 16 0 1.000 -912 -752 label
(Resistor) {/Helvetica cf} 2 16 0 1.000 -880 -816 label
0.400 0.400 0.400 scb
1 1.000 -256 -896 -256 -832 2 polygon
sce
(Indicator) {/Helvetica cf} 2 16 0 1.000 -880 -880 label
(C) {ns} (o) {Ss} (50 to 250 ) {/Helvetica cf} 6 16 0 1.000 -560 -688 label
(2.585 to 13.555 mV) {/Helvetica cf} 2 16 0 1.000 -240 -688 label
(2.585 to 13.555 mV) {/Helvetica cf} 2 16 0 1.000 -624 -752 label
(4 to 20 mA) {/Helvetica cf} 2 16 0 1.000 -176 -752 label
0.400 0.400 0.400 scb
0 1.000 -960 -576 -960 -896 128 -896 128 -576 4 polygon
1 1.000 128 -832 -960 -832 2 polygon
1 1.000 -960 -768 128 -768 2 polygon
1 1.000 128 -704 -960 -704 2 polygon
1 1.000 -960 -640 128 -640 2 polygon
1 1.000 -640 -576 -640 -896 2 polygon
sce
(4 to 20 mA) {/Helvetica cf} 2 16 0 1.000 -560 -816 label
(1 to 5 V) {/Helvetica cf} 2 16 0 1.000 -144 -816 label
(1 to 5 V) {/Helvetica cf} 2 16 0 1.000 -528 -880 label
(C) {ns} (o) {Ss} (50 to 250 ) {/Helvetica cf} 6 16 0 1.000 -176 -880 label
pgsave restore showpage

%%Trailer
XCIRCsave restore
%%EOF
