%!PS-Adobe-3.0 EPSF-3.0
%%Title: current12.eps
%%Creator: XCircuit v3.6 rev164
%%CreationDate: Wed Apr  6 04:01:06 2011
%%Pages: 1
%%BoundingBox: 68 68 481 294
%%DocumentNeededResources: font Helvetica Times-Roman Symbol 
%%EndComments
%%BeginProlog
%
%  PostScript prolog for output from xcircuit
%  Version: 3.3
%
%  Electrical circuit (and otherwise general) drawing program
%
%  Written by Tim Edwards 8/5/93--7/13/05  (tim.edwards@multigig.com)
%  The Johns Hopkins University (1993-2004)
%  MultiGiG, Inc. (2004-present)
%
%%BeginResource: procset XCIRCproc 3.3 0
%
% supporting definitions --- these are the primary xcircuit types.

/XCIRCsave save def
/topmat matrix currentmatrix def

/fontslant { /slant exch def [1 0 slant 1 0 0] 
    exch findfont exch makefont dup length dict /ndict exch def
    { 1 index /FID ne { ndict 3 1 roll put } { pop pop } ifelse } forall
    ndict definefont pop} def
/ul { dup type /stringtype eq showflag 1 eq and { gsave 
   currentpoint topmat setmatrix 0 0 moveto 2 index stringwidth pop (_)
   false charpath flattenpath pathbbox grestore exch pop 1 index
   sub setlinewidth exch pop currentpoint 3 -1 roll add moveto 0
   rlineto stroke moveto } if } def
/ol { dup type /stringtype eq showflag 1 eq and { gsave gsave
   currentpoint topmat setmatrix 2 index stringwidth pop 3 index
   true charpath flattenpath pathbbox grestore exch pop
   exch pop topmat setmatrix (_) true charpath pathbbox grestore
   exch pop 1 index sub setlinewidth exch pop currentpoint
   exch 4 1 roll exch sub add moveto pop 0 rlineto stroke
   moveto } if } def
/stW { gsave currentpoint newpath moveto true charpath flattenpath
	pathbbox pop exch pop sub grestore } def
/Ts {mark Tabs aload pop counttomark 1 add array astore /Tabs exch def Tabs
	0 currentpoint pop put} def
/Tbn {mark Tabs aload pop counttomark dup 2 add 1 roll cleartomark 1 sub} def
/Tb { 0 1 Tbn {Tabs exch get dup currentpoint pop lt
	{currentpoint exch pop moveto exit} {pop} ifelse } for } def
/Tf { Tbn -1 0 {Tabs exch get dup currentpoint pop gt
	{currentpoint exch pop moveto exit} {pop} ifelse } for } def
/qS { (aa) stW (a a) stW sub 4 div 0 Kn } def
/hS { qS qS } def
/pspc 0 def
/cf0 { scalefont setfont } bind def
/Kn { dup kY add /kY exch def rmoveto } bind def
/ss { /fscale fscale 0.67 mul def currentfont 0.67 cf0 0 fscale0 fscale mul
	0.33 mul neg Kn} def
/Ss { /fscale fscale 0.67 mul def currentfont 0.67 cf0 0 fscale0 fscale mul
	0.67 mul Kn } def
/ns { 0 kY neg Kn /kY 0 def /fscale 1.0 def xfont0 1.0 cf0 } def
/CR { ns 0 /Bline Bline fscale0 neg add def Bline moveto } def
/cf { dup type /realtype ne {1.0} if exch findfont exch kY 0 eq
	{ 40 mul dup /fscale0 exch def cf0 /xfont0 currentfont def}
	{fscale0 mul fscale mul cf0} ifelse } def
/ctmk { counttomark dup 2 add -1 roll pop } bind def
/label { gsave translate 0 0 moveto dup scale neg /rotval exch def
	/just exch def just 384 and 0 gt {/mshow {pop} def} {/mshow {show}
	def} ifelse just 16 and 0 gt {gsave rotval rotate 0 1 dtransform
	gsave pagemat setmatrix idtransform exch grestore 1 0 dtransform
	gsave pagemat setmatrix idtransform exch grestore dup abs 1e-9 lt
	{pop mul 0 gt} {3 1 roll pop pop 0 lt} ifelse grestore {-1 /rotval
	rotval neg def /just just dup 3 and 1 ne {3 xor} if def} {1} ifelse
	exch -1e-9 lt {-1 /rotval rotval neg def /just just dup 12 and
	4 ne {12 xor} if def} {1} ifelse scale } if /showflag 0 def
	/fspc pspc def /Bline 0 def /Tabs 0 array def /fscale 1.0 def
	/kY 0 def gsave dup 1 add copy 0 exch 1 0 dtransform exch atan rotate
	{exch dup type /stringtype eq {true charpath flattenpath} {dup type
	/arraytype eq {exec} {12 string cvs true charpath flattenpath} ifelse}
	ifelse} repeat pop pathbbox grestore 3 -1 roll pop 3 1 roll just
	1 and 0 gt {just 2 and 0 gt {exch pop neg fspc sub} {exch sub 0.5
	mul neg} ifelse} {pop neg fspc add} ifelse exch Bline exch just 4
	and 0 gt {just 8 and 0 gt {exch pop neg fspc sub} {add 0.5 mul neg}
	ifelse} {pop neg fspc add} ifelse rotval rotate Kn currentpoint
	translate /showflag 1 def /Bline 0 def /Tabs 0 array def /fscale
	1.0 def /kY 0 def {dup type /stringtype eq {mshow} {dup type
	/arraytype eq {exec} {12 string cvs mshow} ifelse} ifelse} repeat
	grestore } def
/pinlabel { 4 index 32 and 0 ne hlevel 0 eq or { /pspc 10 def label
	/pspc 0 def } { pop pop pop pop pop {pop} repeat } ifelse } def
/pinglobal { pinlabel } def
/infolabel { pinlabel } def
/graphic { gsave 4 index cvx exec /DataSource get resetfile translate
	0 0 moveto neg rotate dup scale cvx exec image grestore } def

/scb { setrgbcolor } bind def  /sce { defColor aload pop scb } bind def
/cRedef {/defColor currentcolor 3 array astore def} def
/begingate {dup type /dicttype ne {1 dict} if begin	% default params
	dup type /dicttype ne {1 dict} if begin		% instanced params
	/hlevel hlevel 1 add def /defColor currentcolor sce 3 array
	astore def gsave sce translate 0 0 moveto neg rotate dup abs scale
	} bind def
/endgate { /hlevel hlevel 1 sub def grestore defColor aload pop cRedef
	scb end end} bind def

/hlevel 0 def
/tmpa [1 0 0 1 0 0] def
/gar {8 8 true tmpa {<c0 c0 00 00 0c 0c 00 00>} imagemask} bind
{8 8 true tmpa {<30 70 60 02 03 07 06 20>} imagemask} bind
{8 8 true tmpa {<0c 1e 1e 0c c0 e1 e1 c0>} imagemask} bind
{8 8 true tmpa {<0f 0f 0f 0f f0 f0 f0 f0>} imagemask} bind
{8 8 true tmpa {<3f f3 e1 e1 f3 3f 1e 1e>} imagemask} bind
{8 8 true tmpa {<df cf 8f 9f fd fc f8 f9>} imagemask} bind
{8 8 true tmpa {<ff 3f 3f ff ff f3 f3 ff>} imagemask} bind 7 array astore def
/ppaint { gsave clip tmpa dup setmatrix pathbbox neg exch neg 4 2 roll
  neg 4 -1 roll 2 copy gt {exch} if 8 div ceiling 8 mul 4 2 roll neg 2 copy
  gt {exch} if 8 div ceiling 8 mul 3 -1 roll -8 5 -1 roll
  { 3 index exch 5 exch put dup -8 3 index { 3 index
  exch 4 exch put 3 index exec } for } for pop pop pop pop grestore } bind def
/setstyles {
  currentlinewidth mul setlinewidth /style exch def
  style 1 and 0 gt not {closepath} if
  style 1024 and 0 gt {2 setlinecap} if
  style 2 and 0 gt {currentlinewidth 4 mul dup 2 array astore 0 setdash} if
  style 4 and 0 gt {0.5 currentlinewidth 4 mul 2 array astore 0 setdash} if
  gsave style 16 and 0 gt { style 224 and -5 bitshift style 256 and 0 gt {
  7 exch sub 8 div dup 1 exch sub currentrgbcolor 3 array astore
  {3 copy mul add 4 1 roll pop} forall pop pop setrgbcolor eofill}
  {dup 7 lt {gar exch get ppaint} {pop eofill} ifelse} ifelse}
  {style 256 and 0 gt {1 setgray eofill} if} ifelse grestore style 8 and 0 gt 
  style 512 eq or {newpath} {stroke} ifelse grestore} def     

/polygon { gsave /num exch def moveto num 1 sub {lineto} repeat setstyles } def
/xcarc   { gsave newpath arc setstyles } def
/elb { matrix currentmatrix 7 -1 roll 7 -1 roll translate 5 1 roll 4 -1 roll
	3 index div 1 scale } def
/ele { 0 4 1 roll 0 4 1 roll } bind def
/ellipse { gsave elb newpath ele arc setmatrix setstyles } def
/pellip  { elb ele arc setmatrix } def
/nellip  { elb ele arcn setmatrix } def
/spline  { gsave moveto curveto setstyles } def
/polyc   { {lineto} repeat } bind def
/beginpath { gsave moveto } bind def
/endpath { setstyles } bind def
/bop	 { 1 setlinecap 0 setlinejoin 6 setmiterlimit 0 0 0 scb cRedef } def
/psinsertion {/PSobj save def /showpage {} def /setpagedevice {pop} def bop
	rotate translate dup scale} def
/end_insert {PSobj restore} def
/setpagemat {/pagemat matrix currentmatrix def} def
/inchscale  {setpagemat 0.375 mul dup scale} def
/cmscale    {setpagemat 0.35433071 mul dup scale} def

%%EndResource
%%EndProlog

% XCircuit output starts here.

%%BeginSetup

/analog::opamp {
begingate
0 1.000 -80 -80 -80 80 80 0 3 polygon
(-) {/Symbol cf} 2 5 0 1.000 -61 42 label
(+) {/Symbol cf} 2 5 0 1.000 -61 -50 label
1.000 0.000 0.000 scb
(in.m) {/Times-Roman cf} 2 7 0 1.000 -80 48 pinlabel
(in.p) {/Times-Roman cf} 2 7 0 1.000 -80 -48 pinlabel
(out) {/Times-Roman cf} 2 4 0 1.000 80 0 pinlabel
endgate
} def

/generic::arrowhead {
% nonetwork
begingate
8 -28 beginpath
3 -18 3 -15 0 0 curveto
-3 -15 -3 -18 -8 -28 curveto
-2 -26 2 -26 8 -28 curveto
249 
1.000 endpath
endgate
} def

/analog::npn {
begingate
1 1.000 -48 0 -64 0 2 polygon
1 1.000 -48 48 -48 -48 2 polygon
1 1.000 0 48 -48 22 2 polygon
1 1.000 0 48 0 64 2 polygon
1 1.000 0 -48 -48 -22 2 polygon
1 1.000 0 -48 0 -64 2 polygon
1.000 120 0 -48 generic::arrowhead
1.000 0.000 0.000 scb
(C) {/Times-Roman cf} 2 9 0 1.000 0 64 pinlabel
(B) {/Times-Roman cf} 2 7 0 1.000 -64 0 pinlabel
(E) {/Times-Roman cf} 2 13 0 1.000 0 -64 pinlabel
0.180 0.545 0.341 scb
(spice:Q%i %pC %pB %pE npn) {/Times-Roman cf} 2 4 0 1.000 -244 -139 infolabel
(sim:b %pB %pE %pC) {/Times-Roman cf} 2 4 0 1.000 -244 -187 infolabel
endgate
} def

/analog::resistor {
begingate
1 1.000 0 64 0 36 2 polygon
1 1.000 0 -64 0 -36 2 polygon
1 1.000 0 -36 14 -30 -14 -18 14 -6 -14 6 14 18 -14 30 0 36 8 polygon
1.000 0.000 0.000 scb
(r.1) {/Times-Roman cf} 2 9 0 1.000 0 64 pinlabel
(r.2) {/Times-Roman cf} 2 13 0 1.000 0 -64 pinlabel
0.180 0.545 0.341 scb
(spice:R%i %pr.1 %pr.2 1.0K) {/Times-Roman cf} 2 0 0 1.000 -208 -160 infolabel
(sim:r %pr.1 %pr.2) {/Times-Roman cf} 2 0 0 1.000 -208 -208 infolabel
endgate
} def

/generic::dot {
% trivial
begingate
248 1.000 0 0 6 0.000 360.000 xcarc
1.000 0.000 0.000 scb
(x) {/Times-Roman cf} 2 29 0 1.000 0 0 pinlabel
endgate
} def

/generic::jumper {
% trivial
begingate
1 1.000 0 0 10 -90.000 90.000 xcarc
1 1.000 0 10 0 16 2 polygon
1 1.000 0 -10 0 -16 2 polygon
1.000 0.000 0.000 scb
(a) {/Times-Roman cf} 2 1 0 1.000 0 16 pinlabel
(a) {/Times-Roman cf} 2 13 0 1.000 0 -16 pinlabel
endgate
} def


%%EndSetup

%%Page: current12 1
%%PageOrientation: Portrait
/pgsave save def bop
% 32.00 8.00 gridspace
0.7500 inchscale
2.6000 setlinewidth 992 544 translate

1 2.000 672 352 672 320 2 polygon
1 2.000 656 336 688 336 2 polygon
1 2.000 656 -256 688 -256 2 polygon
0.824 0.706 0.549 scb
500 1.000 -576 432 -576 -288 576 -288 576 432 4 polygon
sce
1 3.000 -672 160 32 0.000 360.000 xcarc
(Sensor) {/Helvetica cf} 2 16 0 1.000 -736 208 label
1.000 0.000 0.000 scb
(current) {/Helvetica cf} 2 16 0 0.700 576 64 label
sce
(2-wire transmitter) {/Helvetica cf} 2 16 0 1.000 -192 464 label
-1.000 180 96 64 analog::opamp
1.000 0 464 64 analog::npn
1.000 0 464 240 analog::resistor
1 1.000 464 176 464 128 2 polygon
1.000 0 464 -160 analog::resistor
1 1.000 432 64 64 0.000 360.000 xcarc
1 1.000 464 0 464 -96 2 polygon
1.000 0 464 -64 generic::dot
1 1.000 464 -224 464 -256 608 -256 3 polygon
1 1.000 464 304 464 336 608 336 3 polygon
(sense) {ss} (R) {/Times-Roman cf} 4 16 0 1.000 360 -168 label
(limit) {ss} (R) {/Times-Roman cf} 4 16 0 1.000 368 232 label
1 1.000 16 16 -32 16 -32 -64 3 polygon
1.000 0 -32 -64 generic::dot
(\(ground\)) {/Helvetica cf} 2 16 0 0.700 304 -48 label
1.000 0 464 -256 generic::dot
1.000 0 -96 -64 generic::jumper
1.000 0 -96 32 analog::resistor
1 1.000 16 112 -96 112 -96 96 3 polygon
1 1.000 -96 -32 -96 -48 2 polygon
(Voltage) {/Helvetica cf} 2 16 0 1.000 200 352 label
(regulator) {/Helvetica cf} 2 16 0 1.000 192 304 label
1.000 0 272 64 generic::jumper
1 1.000 272 48 272 -64 2 polygon
1.000 0 272 -64 generic::dot
1 1.000 272 80 272 272 2 polygon
0 1.000 176 400 176 272 368 272 368 400 4 polygon
1 1.000 80 16 80 -64 2 polygon
1.000 0 80 -64 generic::dot
(In) {/Helvetica cf} 2 16 0 0.700 376 352 label
(Out) {/Helvetica cf} 2 16 0 0.700 120 352 label
(Gnd) {/Helvetica cf} 2 16 0 0.700 280 240 label
1.000 0 464 336 generic::dot
1.000 0 80 336 generic::dot
1 1.000 80 336 -432 336 2 polygon
0 1.000 -544 240 -544 64 -320 64 -320 240 4 polygon
1 1.000 -432 240 -432 336 2 polygon
1 1.000 -432 64 -432 -64 2 polygon
1.000 0 -96 224 analog::resistor
1.000 0 -96 112 generic::dot
1.000 0 -96 336 generic::dot
(feedback) {ss} (R) {/Times-Roman cf} 4 16 0 1.000 -240 16 label
(bias) {ss} (R) {/Times-Roman cf} 4 16 0 1.000 -192 208 label
1.000 90 -208 112 analog::resistor
1 1.000 -144 112 -96 112 2 polygon
1 1.000 -272 112 -320 112 2 polygon
(Out) {/Helvetica cf} 2 16 0 0.700 -312 128 label
(Gnd) {/Helvetica cf} 2 16 0 0.700 -424 32 label
(+V) {/Helvetica cf} 2 16 0 0.700 -416 256 label
(Op-amp) {/Helvetica cf} 2 16 0 0.700 32 56 label
1 1.000 -96 288 -96 336 2 polygon
1 1.000 -96 160 -96 112 2 polygon
1 1.000 80 336 80 112 2 polygon
1 1.000 464 -256 -96 -256 -96 -80 3 polygon
1 2.000 -432 -64 464 -64 2 polygon
1 1.000 80 336 176 336 2 polygon
1 1.000 368 336 464 336 2 polygon
(+V) {/Helvetica cf} 2 16 0 0.700 88 120 label
(Gnd) {/Helvetica cf} 2 16 0 0.700 88 -8 label
(and scaling) {/Helvetica cf} 2 16 0 0.900 -528 144 label
(circuitry) {/Helvetica cf} 2 16 0 1.000 -504 104 label
1 1.000 176 64 400 64 2 polygon
(Sensing) {/Helvetica cf} 2 16 0 1.000 -504 184 label
1 1.000 -640 144 -544 144 2 polygon
1 1.000 -640 176 -544 176 2 polygon
1.000 0.000 0.000 scb
1 2.000 48 368 -32 368 2 polygon
1 2.000 -16 384 -32 368 -16 352 3 polygon
(< 4 mA) {/Times-Roman cf} 2 16 0 0.700 -32 400 label
1 2.000 528 112 528 32 2 polygon
1 2.000 512 48 528 32 544 48 3 polygon
(Additional) {/Helvetica cf} 2 16 0 0.700 560 96 label
(\(as needed\)) {/Helvetica cf} 2 16 0 0.700 560 32 label
0.604 0.604 0.604 scb
497 1.000 624 336 16 0.000 360.000 xcarc
sce
1 1.000 624 336 16 0.000 360.000 xcarc
1 1.000 634 348 610 330 2 polygon
1 1.000 638 342 614 324 2 polygon
0.604 0.604 0.604 scb
497 1.000 624 -256 16 0.000 360.000 xcarc
sce
1 1.000 624 -256 16 0.000 360.000 xcarc
1 1.000 634 -244 610 -262 2 polygon
1 1.000 638 -250 614 -268 2 polygon
pgsave restore showpage

%%Trailer
XCIRCsave restore
%%EOF
