%!PS-Adobe-3.0 EPSF-3.0
%%Title: diagrams00.eps
%%Creator: XCircuit v3.6 rev164
%%CreationDate: Mon Mar 21 17:38:08 2011
%%Pages: 1
%%BoundingBox: 68 68 501 374
%%DocumentNeededResources: font Helvetica Helvetica-Oblique Times-Roman 
%%EndComments
%%BeginProlog
%
%  PostScript prolog for output from xcircuit
%  Version: 3.3
%
%  Electrical circuit (and otherwise general) drawing program
%
%  Written by Tim Edwards 8/5/93--7/13/05  (tim.edwards@multigig.com)
%  The Johns Hopkins University (1993-2004)
%  MultiGiG, Inc. (2004-present)
%
%%BeginResource: procset XCIRCproc 3.3 0
%
% supporting definitions --- these are the primary xcircuit types.

/XCIRCsave save def
/topmat matrix currentmatrix def

/fontslant { /slant exch def [1 0 slant 1 0 0] 
    exch findfont exch makefont dup length dict /ndict exch def
    { 1 index /FID ne { ndict 3 1 roll put } { pop pop } ifelse } forall
    ndict definefont pop} def
/ul { dup type /stringtype eq showflag 1 eq and { gsave 
   currentpoint topmat setmatrix 0 0 moveto 2 index stringwidth pop (_)
   false charpath flattenpath pathbbox grestore exch pop 1 index
   sub setlinewidth exch pop currentpoint 3 -1 roll add moveto 0
   rlineto stroke moveto } if } def
/ol { dup type /stringtype eq showflag 1 eq and { gsave gsave
   currentpoint topmat setmatrix 2 index stringwidth pop 3 index
   true charpath flattenpath pathbbox grestore exch pop
   exch pop topmat setmatrix (_) true charpath pathbbox grestore
   exch pop 1 index sub setlinewidth exch pop currentpoint
   exch 4 1 roll exch sub add moveto pop 0 rlineto stroke
   moveto } if } def
/stW { gsave currentpoint newpath moveto true charpath flattenpath
	pathbbox pop exch pop sub grestore } def
/Ts {mark Tabs aload pop counttomark 1 add array astore /Tabs exch def Tabs
	0 currentpoint pop put} def
/Tbn {mark Tabs aload pop counttomark dup 2 add 1 roll cleartomark 1 sub} def
/Tb { 0 1 Tbn {Tabs exch get dup currentpoint pop lt
	{currentpoint exch pop moveto exit} {pop} ifelse } for } def
/Tf { Tbn -1 0 {Tabs exch get dup currentpoint pop gt
	{currentpoint exch pop moveto exit} {pop} ifelse } for } def
/qS { (aa) stW (a a) stW sub 4 div 0 Kn } def
/hS { qS qS } def
/pspc 0 def
/cf0 { scalefont setfont } bind def
/Kn { dup kY add /kY exch def rmoveto } bind def
/ss { /fscale fscale 0.67 mul def currentfont 0.67 cf0 0 fscale0 fscale mul
	0.33 mul neg Kn} def
/Ss { /fscale fscale 0.67 mul def currentfont 0.67 cf0 0 fscale0 fscale mul
	0.67 mul Kn } def
/ns { 0 kY neg Kn /kY 0 def /fscale 1.0 def xfont0 1.0 cf0 } def
/CR { ns 0 /Bline Bline fscale0 neg add def Bline moveto } def
/cf { dup type /realtype ne {1.0} if exch findfont exch kY 0 eq
	{ 40 mul dup /fscale0 exch def cf0 /xfont0 currentfont def}
	{fscale0 mul fscale mul cf0} ifelse } def
/ctmk { counttomark dup 2 add -1 roll pop } bind def
/label { gsave translate 0 0 moveto dup scale neg /rotval exch def
	/just exch def just 384 and 0 gt {/mshow {pop} def} {/mshow {show}
	def} ifelse just 16 and 0 gt {gsave rotval rotate 0 1 dtransform
	gsave pagemat setmatrix idtransform exch grestore 1 0 dtransform
	gsave pagemat setmatrix idtransform exch grestore dup abs 1e-9 lt
	{pop mul 0 gt} {3 1 roll pop pop 0 lt} ifelse grestore {-1 /rotval
	rotval neg def /just just dup 3 and 1 ne {3 xor} if def} {1} ifelse
	exch -1e-9 lt {-1 /rotval rotval neg def /just just dup 12 and
	4 ne {12 xor} if def} {1} ifelse scale } if /showflag 0 def
	/fspc pspc def /Bline 0 def /Tabs 0 array def /fscale 1.0 def
	/kY 0 def gsave dup 1 add copy 0 exch 1 0 dtransform exch atan rotate
	{exch dup type /stringtype eq {true charpath flattenpath} {dup type
	/arraytype eq {exec} {12 string cvs true charpath flattenpath} ifelse}
	ifelse} repeat pop pathbbox grestore 3 -1 roll pop 3 1 roll just
	1 and 0 gt {just 2 and 0 gt {exch pop neg fspc sub} {exch sub 0.5
	mul neg} ifelse} {pop neg fspc add} ifelse exch Bline exch just 4
	and 0 gt {just 8 and 0 gt {exch pop neg fspc sub} {add 0.5 mul neg}
	ifelse} {pop neg fspc add} ifelse rotval rotate Kn currentpoint
	translate /showflag 1 def /Bline 0 def /Tabs 0 array def /fscale
	1.0 def /kY 0 def {dup type /stringtype eq {mshow} {dup type
	/arraytype eq {exec} {12 string cvs mshow} ifelse} ifelse} repeat
	grestore } def
/pinlabel { 4 index 32 and 0 ne hlevel 0 eq or { /pspc 10 def label
	/pspc 0 def } { pop pop pop pop pop {pop} repeat } ifelse } def
/pinglobal { pinlabel } def
/infolabel { pinlabel } def
/graphic { gsave 4 index cvx exec /DataSource get resetfile translate
	0 0 moveto neg rotate dup scale cvx exec image grestore } def

/scb { setrgbcolor } bind def  /sce { defColor aload pop scb } bind def
/cRedef {/defColor currentcolor 3 array astore def} def
/begingate {dup type /dicttype ne {1 dict} if begin	% default params
	dup type /dicttype ne {1 dict} if begin		% instanced params
	/hlevel hlevel 1 add def /defColor currentcolor sce 3 array
	astore def gsave sce translate 0 0 moveto neg rotate dup abs scale
	} bind def
/endgate { /hlevel hlevel 1 sub def grestore defColor aload pop cRedef
	scb end end} bind def

/hlevel 0 def
/tmpa [1 0 0 1 0 0] def
/gar {8 8 true tmpa {<c0 c0 00 00 0c 0c 00 00>} imagemask} bind
{8 8 true tmpa {<30 70 60 02 03 07 06 20>} imagemask} bind
{8 8 true tmpa {<0c 1e 1e 0c c0 e1 e1 c0>} imagemask} bind
{8 8 true tmpa {<0f 0f 0f 0f f0 f0 f0 f0>} imagemask} bind
{8 8 true tmpa {<3f f3 e1 e1 f3 3f 1e 1e>} imagemask} bind
{8 8 true tmpa {<df cf 8f 9f fd fc f8 f9>} imagemask} bind
{8 8 true tmpa {<ff 3f 3f ff ff f3 f3 ff>} imagemask} bind 7 array astore def
/ppaint { gsave clip tmpa dup setmatrix pathbbox neg exch neg 4 2 roll
  neg 4 -1 roll 2 copy gt {exch} if 8 div ceiling 8 mul 4 2 roll neg 2 copy
  gt {exch} if 8 div ceiling 8 mul 3 -1 roll -8 5 -1 roll
  { 3 index exch 5 exch put dup -8 3 index { 3 index
  exch 4 exch put 3 index exec } for } for pop pop pop pop grestore } bind def
/setstyles {
  currentlinewidth mul setlinewidth /style exch def
  style 1 and 0 gt not {closepath} if
  style 1024 and 0 gt {2 setlinecap} if
  style 2 and 0 gt {currentlinewidth 4 mul dup 2 array astore 0 setdash} if
  style 4 and 0 gt {0.5 currentlinewidth 4 mul 2 array astore 0 setdash} if
  gsave style 16 and 0 gt { style 224 and -5 bitshift style 256 and 0 gt {
  7 exch sub 8 div dup 1 exch sub currentrgbcolor 3 array astore
  {3 copy mul add 4 1 roll pop} forall pop pop setrgbcolor eofill}
  {dup 7 lt {gar exch get ppaint} {pop eofill} ifelse} ifelse}
  {style 256 and 0 gt {1 setgray eofill} if} ifelse grestore style 8 and 0 gt 
  style 512 eq or {newpath} {stroke} ifelse grestore} def     

/polygon { gsave /num exch def moveto num 1 sub {lineto} repeat setstyles } def
/xcarc   { gsave newpath arc setstyles } def
/elb { matrix currentmatrix 7 -1 roll 7 -1 roll translate 5 1 roll 4 -1 roll
	3 index div 1 scale } def
/ele { 0 4 1 roll 0 4 1 roll } bind def
/ellipse { gsave elb newpath ele arc setmatrix setstyles } def
/pellip  { elb ele arc setmatrix } def
/nellip  { elb ele arcn setmatrix } def
/spline  { gsave moveto curveto setstyles } def
/polyc   { {lineto} repeat } bind def
/beginpath { gsave moveto } bind def
/endpath { setstyles } bind def
/bop	 { 1 setlinecap 0 setlinejoin 6 setmiterlimit 0 0 0 scb cRedef } def
/psinsertion {/PSobj save def /showpage {} def /setpagedevice {pop} def bop
	rotate translate dup scale} def
/end_insert {PSobj restore} def
/setpagemat {/pagemat matrix currentmatrix def} def
/inchscale  {setpagemat 0.375 mul dup scale} def
/cmscale    {setpagemat 0.35433071 mul dup scale} def

%%EndResource
%%EndProlog

% XCircuit output starts here.

%%BeginSetup

/::signal_air {
begingate
1 1.000 0 16 -16 -16 2 polygon
1 1.000 16 16 0 -16 2 polygon
1 1.000 -64 0 64 0 2 polygon
endgate
} def

/::signal_air_binary {
begingate
1 1.000 -64 0 64 0 2 polygon
1 1.000 16 16 0 -16 2 polygon
1 1.000 0 16 -16 -16 2 polygon
1 1.000 -16 16 16 -16 2 polygon
endgate
} def

/::signal_electric {
begingate
1 1.000 -64 0 64 0 2 polygon
1 1.000 16 16 0 -16 2 polygon
1 1.000 0 16 -16 -16 2 polygon
1 1.000 -16 16 -32 -16 2 polygon
endgate
} def

/::signal_electric_binary {
begingate
1 1.000 -64 0 64 0 2 polygon
1 1.000 16 16 0 -16 2 polygon
1 1.000 0 16 -16 -16 2 polygon
1 1.000 -16 16 -32 -16 2 polygon
1 1.000 -32 16 16 -16 2 polygon
endgate
} def

/::line_capillary {
begingate
1 1.000 -64 0 64 0 2 polygon
1 1.000 -16 16 16 -16 2 polygon
1 1.000 16 16 -16 -16 2 polygon
endgate
} def

/::signal_hydraulic {
begingate
1 1.000 -64 0 64 0 2 polygon
1 1.000 0 16 0 -16 16 -16 3 polygon
endgate
} def

/::link_dcs {
begingate
1 1.000 0 0 8 0.000 360.000 xcarc
1 1.000 -16 0 -64 0 2 polygon
1 1.000 64 0 16 0 2 polygon
endgate
} def

/::link_fieldbus {
begingate
241 1.000 0 0 8 0.000 360.000 xcarc
1 1.000 -16 0 -64 0 2 polygon
1 1.000 16 0 64 0 2 polygon
endgate
} def

/::signal_waveguide {
begingate
1 1.000 -64 0 64 0 2 polygon
1 1.000 0 32 0 -32 32 0 -32 0 spline
endgate
} def

/::signal_undefined {
begingate
1 1.000 -64 0 64 0 2 polygon
1 1.000 16 16 0 -16 2 polygon
endgate
} def

/generic::dot {
% trivial
begingate
248 1.000 0 0 6 0.000 360.000 xcarc
1.000 0.000 0.000 scb
(x) {/Times-Roman cf} 2 29 0 1.000 0 0 pinlabel
endgate
} def

/::link_field_bus {
begingate
1 1.000 -64 0 -16 0 2 polygon
1 1.000 16 0 64 0 2 polygon
1 1.000 0 8 -8 0 0 -8 8 0 0 8 5 polygon
endgate
} def

/::link_smart {
begingate
3 1.000 -64 0 -16 0 2 polygon
3 1.000 64 0 16 0 2 polygon
1 1.000 0 0 8 0.000 360.000 xcarc
endgate
} def


%%EndSetup

%%Page: diagrams00 1
%%PageOrientation: Portrait
/pgsave save def bop
0.7000 inchscale
2.6000 setlinewidth 562 731 translate

1.000 0 -192 320 ::signal_air
(Pneumatic signal) {/Helvetica cf} 2 16 0 1.000 -280 392 label
1.000 0 240 320 ::signal_air_binary
(\(continuous\)) {/Helvetica cf} 2 16 0 1.000 -240 352 label
(\(discrete -- on/off\)) {/Helvetica cf} 2 16 0 1.000 144 352 label
(Pneumatic signal) {/Helvetica cf} 2 16 0 1.000 152 392 label
(\(continuous\)) {/Helvetica cf} 2 16 0 1.000 -240 144 label
0.604 0.604 0.604 scb
(\(discrete -- on/off\)) {/Helvetica cf} 2 16 0 1.000 144 144 label
sce
(Electric signal) {/Helvetica cf} 2 16 0 1.000 -256 184 label
0.604 0.604 0.604 scb
(Electric signal) {/Helvetica cf} 2 16 0 1.000 176 184 label
1 1.000 224 128 256 96 2 polygon
(\(or\)) {/Helvetica-Oblique cf} 2 16 0 1.000 -160 48 label
(\(or\)) {/Helvetica-Oblique cf} 2 16 0 1.000 272 48 label
1.000 0 -192 0 ::signal_electric
1.000 0 240 0 ::signal_electric_binary
sce
1.000 0 672 320 ::line_capillary
(Capillary tube) {/Helvetica cf} 2 16 0 1.000 608 352 label
1.000 0 1104 320 ::signal_hydraulic
(Hydraulic signal) {/Helvetica cf} 2 16 0 1.000 1024 352 label
1.000 0 240 -224 ::link_dcs
1.000 0 672 -224 ::link_fieldbus
1 1.000 176 544 304 544 2 polygon
(Instrument supply) {/Helvetica cf} 2 16 0 1.000 144 656 label
(or process connection) {/Helvetica cf} 2 16 0 1.000 112 616 label
1 3.000 -256 544 -128 544 2 polygon
(Process flow line) {/Helvetica cf} 2 16 0 1.000 -288 576 label
1.000 0 -64 320 ::signal_air
1.000 0 368 320 ::signal_air_binary
1.000 0 800 320 ::line_capillary
1.000 0 1232 320 ::signal_hydraulic
3 1.000 0 112 -256 112 2 polygon
0.604 0.604 0.604 scb
1.000 0 -64 0 ::signal_electric
1.000 0 368 0 ::signal_electric_binary
1 1.000 352 128 384 96 2 polygon
3 1.000 176 112 432 112 2 polygon
sce
1.000 0 368 -224 ::link_dcs
1.000 0 800 -224 ::link_fieldbus
1 3.000 -128 544 0 544 2 polygon
1 1.000 304 544 432 544 2 polygon
1.000 0 672 544 ::signal_waveguide
1.000 0 800 544 ::signal_waveguide
(Waveguide) {/Helvetica cf} 2 16 0 1.000 640 576 label
1.000 0 1104 544 ::signal_undefined
1.000 0 1232 544 ::signal_undefined
(Undefined) {/Helvetica cf} 2 16 0 1.000 1072 576 label
(\(impulse line\)) {/Helvetica cf} 2 16 0 1.000 184 576 label
1.000 0 -192 -224 generic::dot
1 1.000 -192 -224 12 0.000 360.000 xcarc
1 1.000 -204 -224 -256 -224 2 polygon
1.000 0 -64 -224 generic::dot
1 1.000 -64 -224 12 0.000 360.000 xcarc
1 1.000 -180 -224 -76 -224 2 polygon
1 1.000 0 -224 -52 -224 2 polygon
(Mechanical link) {/Helvetica cf} 2 16 0 1.000 -272 -176 label
(Data link) {/Helvetica cf} 2 16 0 1.000 224 -152 label
(Data link) {/Helvetica cf} 2 16 0 1.000 656 -152 label
(\(independent systems\)) {/Helvetica cf} 2 16 0 1.000 544 -192 label
(\(common system\)) {/Helvetica cf} 2 16 0 1.000 144 -192 label
1 1.000 1088 -240 1120 -208 1112 -240 1144 -208 4 polygon
1 1.000 1200 -240 1232 -208 1224 -240 1256 -208 4 polygon
(Radio link) {/Helvetica cf} 2 16 0 1.000 1088 -176 label
1 1.000 432 -416 432 -480 464 -448 400 -448 spline
1 1.000 560 -416 560 -480 592 -448 528 -448 spline
(Sonic or other wave) {/Helvetica cf} 2 16 0 1.000 320 -400 label
1.000 0 672 64 ::link_field_bus
1.000 0 800 64 ::link_field_bus
(Fieldbus network) {/Helvetica cf} 2 16 0 1.000 592 96 label
1.000 0 1104 64 ::link_smart
1.000 0 1232 64 ::link_smart
(Data link) {/Helvetica cf} 2 16 0 1.000 1088 136 label
(\(smart instrument\)) {/Helvetica cf} 2 16 0 1.000 1000 96 label
pgsave restore showpage

%%Trailer
XCIRCsave restore
%%EOF
