%!PS-Adobe-3.0 EPSF-3.0
%%Title: fieldbus_31.eps
%%Creator: XCircuit v3.6 rev164
%%CreationDate: Sat May 14 05:31:43 2011
%%Pages: 1
%%BoundingBox: 68 68 494 369
%%DocumentNeededResources: font Helvetica Helvetica-Bold Helvetica-Oblique 
%%EndComments
%%BeginProlog
%
%  PostScript prolog for output from xcircuit
%  Version: 3.3
%
%  Electrical circuit (and otherwise general) drawing program
%
%  Written by Tim Edwards 8/5/93--7/13/05  (tim.edwards@multigig.com)
%  The Johns Hopkins University (1993-2004)
%  MultiGiG, Inc. (2004-present)
%
%%BeginResource: procset XCIRCproc 3.3 0
%
% supporting definitions --- these are the primary xcircuit types.

/XCIRCsave save def
/topmat matrix currentmatrix def

/fontslant { /slant exch def [1 0 slant 1 0 0] 
    exch findfont exch makefont dup length dict /ndict exch def
    { 1 index /FID ne { ndict 3 1 roll put } { pop pop } ifelse } forall
    ndict definefont pop} def
/ul { dup type /stringtype eq showflag 1 eq and { gsave 
   currentpoint topmat setmatrix 0 0 moveto 2 index stringwidth pop (_)
   false charpath flattenpath pathbbox grestore exch pop 1 index
   sub setlinewidth exch pop currentpoint 3 -1 roll add moveto 0
   rlineto stroke moveto } if } def
/ol { dup type /stringtype eq showflag 1 eq and { gsave gsave
   currentpoint topmat setmatrix 2 index stringwidth pop 3 index
   true charpath flattenpath pathbbox grestore exch pop
   exch pop topmat setmatrix (_) true charpath pathbbox grestore
   exch pop 1 index sub setlinewidth exch pop currentpoint
   exch 4 1 roll exch sub add moveto pop 0 rlineto stroke
   moveto } if } def
/stW { gsave currentpoint newpath moveto true charpath flattenpath
	pathbbox pop exch pop sub grestore } def
/Ts {mark Tabs aload pop counttomark 1 add array astore /Tabs exch def Tabs
	0 currentpoint pop put} def
/Tbn {mark Tabs aload pop counttomark dup 2 add 1 roll cleartomark 1 sub} def
/Tb { 0 1 Tbn {Tabs exch get dup currentpoint pop lt
	{currentpoint exch pop moveto exit} {pop} ifelse } for } def
/Tf { Tbn -1 0 {Tabs exch get dup currentpoint pop gt
	{currentpoint exch pop moveto exit} {pop} ifelse } for } def
/qS { (aa) stW (a a) stW sub 4 div 0 Kn } def
/hS { qS qS } def
/pspc 0 def
/cf0 { scalefont setfont } bind def
/Kn { dup kY add /kY exch def rmoveto } bind def
/ss { /fscale fscale 0.67 mul def currentfont 0.67 cf0 0 fscale0 fscale mul
	0.33 mul neg Kn} def
/Ss { /fscale fscale 0.67 mul def currentfont 0.67 cf0 0 fscale0 fscale mul
	0.67 mul Kn } def
/ns { 0 kY neg Kn /kY 0 def /fscale 1.0 def xfont0 1.0 cf0 } def
/CR { ns 0 /Bline Bline fscale0 neg add def Bline moveto } def
/cf { dup type /realtype ne {1.0} if exch findfont exch kY 0 eq
	{ 40 mul dup /fscale0 exch def cf0 /xfont0 currentfont def}
	{fscale0 mul fscale mul cf0} ifelse } def
/ctmk { counttomark dup 2 add -1 roll pop } bind def
/label { gsave translate 0 0 moveto dup scale neg /rotval exch def
	/just exch def just 384 and 0 gt {/mshow {pop} def} {/mshow {show}
	def} ifelse just 16 and 0 gt {gsave rotval rotate 0 1 dtransform
	gsave pagemat setmatrix idtransform exch grestore 1 0 dtransform
	gsave pagemat setmatrix idtransform exch grestore dup abs 1e-9 lt
	{pop mul 0 gt} {3 1 roll pop pop 0 lt} ifelse grestore {-1 /rotval
	rotval neg def /just just dup 3 and 1 ne {3 xor} if def} {1} ifelse
	exch -1e-9 lt {-1 /rotval rotval neg def /just just dup 12 and
	4 ne {12 xor} if def} {1} ifelse scale } if /showflag 0 def
	/fspc pspc def /Bline 0 def /Tabs 0 array def /fscale 1.0 def
	/kY 0 def gsave dup 1 add copy 0 exch 1 0 dtransform exch atan rotate
	{exch dup type /stringtype eq {true charpath flattenpath} {dup type
	/arraytype eq {exec} {12 string cvs true charpath flattenpath} ifelse}
	ifelse} repeat pop pathbbox grestore 3 -1 roll pop 3 1 roll just
	1 and 0 gt {just 2 and 0 gt {exch pop neg fspc sub} {exch sub 0.5
	mul neg} ifelse} {pop neg fspc add} ifelse exch Bline exch just 4
	and 0 gt {just 8 and 0 gt {exch pop neg fspc sub} {add 0.5 mul neg}
	ifelse} {pop neg fspc add} ifelse rotval rotate Kn currentpoint
	translate /showflag 1 def /Bline 0 def /Tabs 0 array def /fscale
	1.0 def /kY 0 def {dup type /stringtype eq {mshow} {dup type
	/arraytype eq {exec} {12 string cvs mshow} ifelse} ifelse} repeat
	grestore } def
/pinlabel { 4 index 32 and 0 ne hlevel 0 eq or { /pspc 10 def label
	/pspc 0 def } { pop pop pop pop pop {pop} repeat } ifelse } def
/pinglobal { pinlabel } def
/infolabel { pinlabel } def
/graphic { gsave 4 index cvx exec /DataSource get resetfile translate
	0 0 moveto neg rotate dup scale cvx exec image grestore } def

/scb { setrgbcolor } bind def  /sce { defColor aload pop scb } bind def
/cRedef {/defColor currentcolor 3 array astore def} def
/begingate {dup type /dicttype ne {1 dict} if begin	% default params
	dup type /dicttype ne {1 dict} if begin		% instanced params
	/hlevel hlevel 1 add def /defColor currentcolor sce 3 array
	astore def gsave sce translate 0 0 moveto neg rotate dup abs scale
	} bind def
/endgate { /hlevel hlevel 1 sub def grestore defColor aload pop cRedef
	scb end end} bind def

/hlevel 0 def
/tmpa [1 0 0 1 0 0] def
/gar {8 8 true tmpa {<c0 c0 00 00 0c 0c 00 00>} imagemask} bind
{8 8 true tmpa {<30 70 60 02 03 07 06 20>} imagemask} bind
{8 8 true tmpa {<0c 1e 1e 0c c0 e1 e1 c0>} imagemask} bind
{8 8 true tmpa {<0f 0f 0f 0f f0 f0 f0 f0>} imagemask} bind
{8 8 true tmpa {<3f f3 e1 e1 f3 3f 1e 1e>} imagemask} bind
{8 8 true tmpa {<df cf 8f 9f fd fc f8 f9>} imagemask} bind
{8 8 true tmpa {<ff 3f 3f ff ff f3 f3 ff>} imagemask} bind 7 array astore def
/ppaint { gsave clip tmpa dup setmatrix pathbbox neg exch neg 4 2 roll
  neg 4 -1 roll 2 copy gt {exch} if 8 div ceiling 8 mul 4 2 roll neg 2 copy
  gt {exch} if 8 div ceiling 8 mul 3 -1 roll -8 5 -1 roll
  { 3 index exch 5 exch put dup -8 3 index { 3 index
  exch 4 exch put 3 index exec } for } for pop pop pop pop grestore } bind def
/setstyles {
  currentlinewidth mul setlinewidth /style exch def
  style 1 and 0 gt not {closepath} if
  style 1024 and 0 gt {2 setlinecap} if
  style 2 and 0 gt {currentlinewidth 4 mul dup 2 array astore 0 setdash} if
  style 4 and 0 gt {0.5 currentlinewidth 4 mul 2 array astore 0 setdash} if
  gsave style 16 and 0 gt { style 224 and -5 bitshift style 256 and 0 gt {
  7 exch sub 8 div dup 1 exch sub currentrgbcolor 3 array astore
  {3 copy mul add 4 1 roll pop} forall pop pop setrgbcolor eofill}
  {dup 7 lt {gar exch get ppaint} {pop eofill} ifelse} ifelse}
  {style 256 and 0 gt {1 setgray eofill} if} ifelse grestore style 8 and 0 gt 
  style 512 eq or {newpath} {stroke} ifelse grestore} def     

/polygon { gsave /num exch def moveto num 1 sub {lineto} repeat setstyles } def
/xcarc   { gsave newpath arc setstyles } def
/elb { matrix currentmatrix 7 -1 roll 7 -1 roll translate 5 1 roll 4 -1 roll
	3 index div 1 scale } def
/ele { 0 4 1 roll 0 4 1 roll } bind def
/ellipse { gsave elb newpath ele arc setmatrix setstyles } def
/pellip  { elb ele arc setmatrix } def
/nellip  { elb ele arcn setmatrix } def
/spline  { gsave moveto curveto setstyles } def
/polyc   { {lineto} repeat } bind def
/beginpath { gsave moveto } bind def
/endpath { setstyles } bind def
/bop	 { 1 setlinecap 0 setlinejoin 6 setmiterlimit 0 0 0 scb cRedef } def
/psinsertion {/PSobj save def /showpage {} def /setpagedevice {pop} def bop
	rotate translate dup scale} def
/end_insert {PSobj restore} def
/setpagemat {/pagemat matrix currentmatrix def} def
/inchscale  {setpagemat 0.375 mul dup scale} def
/cmscale    {setpagemat 0.35433071 mul dup scale} def

%%EndResource
%%EndProlog

% XCircuit output starts here.

%%BeginSetup

/::analog_input {
begingate
0 1.000 -224 128 -224 -128 64 -128 64 128 4 polygon
0 1.000 32 96 32 64 64 64 64 96 4 polygon
(OUT_D) {/Helvetica cf} 2 16 0 1.000 80 96 label
0 1.000 32 -32 32 -64 64 -64 64 -32 4 polygon
(OUT) {/Helvetica cf} 2 16 0 1.000 80 -32 label
(AI) {/Helvetica-Bold cf} 2 16 0 1.500 -112 -16 label
endgate
} def

/generic::arrowhead {
% nonetwork
begingate
8 -28 beginpath
3 -18 3 -15 0 0 curveto
-3 -15 -3 -18 -8 -28 curveto
-2 -26 2 -26 8 -28 curveto
249 
1.000 endpath
endgate
} def

/generic::arrow {
% nonetwork
begingate
1 0.800 0 -40 0 20 2 polygon
1.000 0 0 40 generic::arrowhead
endgate
} def


%%EndSetup

%%Page: calibrate03.eps 1
%%PageOrientation: Portrait
/pgsave save def bop
<</@v1 5.52512e-34 /@v2 5.52436e-34 /@v3 7.56701e-44 /@v4 0 /@v5 3.03129e+32 /@v6 
7.56701e-44 /@v7 3.03129e+32 /@v8 3.50325e-44 /@v9 4.70198e-38 /@v10 
3.03129e+32 /@v11 3.03129e+32 /@v12 3.64338e-44 /@v13 1.4013e-45 /@v14 
3.03129e+32 /@v15 3.03129e+32 /@v16 3.78351e-44 /@v17 8.54792e-44 /@v18 
3.03129e+32 /@v19 8.82818e-44 /@v20 3.92364e-44 /@v21 9.10844e-44 /@v22 0 /@v23 
9.3887e-44 /@v24 4.06377e-44 /@v25 9.66896e-44 /@v26 3.03129e+32 /@v27 
9.94922e-44 /@v28 4.2039e-44 /@v29 1.02295e-43 /@v30 3.03129e+32 /@v31 
1.05097e-43 /@v32 4.34403e-44 /@v33 1.079e-43 /@v34 8.54792e-44 /@v35 
1.10703e-43 /@v36 4.48416e-44 /@v37 1.13505e-43 /@v38 8.82818e-44 /@v39 
1.16308e-43 /@v40 4.62428e-44 /@v41 1.1911e-43 /@v42 9.10844e-44 /@v43 
1.21913e-43 /@v44 4.90454e-44 /@v45 1.24716e-43 /@v46 4.54358e+30 /@v47 
1.27518e-43 /@v48 5.1848e-44 /@v49 1.30321e-43 /@v50 9.66896e-44 /@v51 
1.33123e-43 /@v52 5.04467e-44 /@v53 1.35926e-43 /@v54 9.94922e-44 /@v55 
1.38729e-43 /@v56 5.46506e-44 /@v57 1.41531e-43 /@v58 1.02295e-43 /@v59 
1.44334e-43 /@v60 5.74532e-44 /@v61 1.47136e-43 /@v62 1.05097e-43 /@v63 
1.49939e-43 /@v64 6.02558e-44 /@v65 1.52742e-43 /@v66 1.079e-43 /@v67 
1.55544e-43 /@v68 0 /@v69 1.58347e-43 /@v70 1.10703e-43 /@v71 1.61149e-43 /@v72 
0 /@v73 1.63952e-43 /@v74 1.13505e-43 /@v75 1.66755e-43 /@v76 6.30584e-44 /@v77 
1.69557e-43 /@v78 1.16308e-43 /@v79 1.7236e-43 /@v80 6.5861e-44 /@v81 
1.75162e-43 /@v82 1.1911e-43 /@v83 1.77965e-43 /@v84 6.86636e-44 /@v85 
1.80768e-43 /@v86 1.21913e-43 /@v87 1.8357e-43 /@v88 7.14662e-44 /@v89 
1.86373e-43 /@v90 1.24716e-43 /@v91 1.89175e-43 /@v92 7.42688e-44 /@v93 
1.91978e-43 /@v94 1.27518e-43 /@v95 1.9478e-43 /@v96 7.70714e-44 /@v97 
1.97583e-43 /@v98 0 /@v99 2.00386e-43 /@v100 1.98561e+29 /@v101 4.93329e-15 /@v102 
1.33123e-43 /@v103 0 /@v104 5.40702e-34 /@v105 1.04938e-38 /@v106 
1.35926e-43 /@v107 0 /@v108 8.26766e-44 /@v109 5.20164e-34 /@v110 1.38729e-43 /@v111 
5.54667e-34 /@v112 8.54792e-44 /@v113 5.54667e-34 /@v114 1.41531e-43 /@v115 
5.54688e-34 /@v116 0 /@v117 1.04938e-38 /@v118 1.44334e-43 /@v119 
1.04938e-38 /@v120 8.82818e-44 /@v121 5.52493e-34 /@v122 1.47136e-43 /@v123 
1.04938e-38 /@v124 9.10844e-44 /@v125 5.54501e-34 /@v126 1.49939e-43 /@v127 
5.2143e-34 /@v128 9.3887e-44 /@v129 5.54724e-34 /@v130 1.52742e-43 /@v131 
2.38221e-43 /@v132 0 /@v133 5.53797e-34 /@v134 1.55544e-43 /@v135 2.42425e-43 /@v136 
0 /@v137 5.54323e-34 /@v138 1.58347e-43 /@v139 2.46629e-43 /@v140 
9.94922e-44 /@v141 5.53799e-34 /@v142 1.61149e-43 /@v143 2.50832e-43 /@v144 
1.00893e-43 /@v145 5.54629e-34 /@v146 1.63952e-43 /@v147 2.55036e-43 /@v148 
5.43034e-34 /@v149 5.53897e-34 /@v150 1.66755e-43 /@v151 2.5924e-43 /@v152 
1.03696e-43 /@v153 4.67166e-34 /@v154 1.69557e-43 /@v155 2.63444e-43 /@v156 
5.43495e-34 /@v157 5.30254e-34 /@v158 1.7236e-43 /@v159 2.67648e-43 /@v160 
1.079e-43 /@v161 5.54768e-34 /@v162 1.75162e-43 /@v163 2.71852e-43 /@v164 
1.06499e-43 /@v165 4.93329e-15 /@v166 1.77965e-43 /@v167 4.93329e-15 /@v168 
1.10703e-43 /@v169 5.4234e-34 /@v170 1.80768e-43 /@v171 2.8026e-43 /@v172 0 /@v173 
5.54893e-34 /@v174 1.8357e-43 /@v175 2.84464e-43 /@v176 0 /@v177 
5.54892e-34 /@v178 1.86373e-43 /@v179 2.88667e-43 /@v180 0 /@v181 5.55042e-34 /@v182 
1.89175e-43 /@v183 6.86636e-44 /@v184 0 /@v185 5.53929e-34 /@v186 
1.91978e-43 /@v187 2.97075e-43 /@v188 1.82169e-44 /@v189 5.54734e-34 /@v190 
1.9478e-43 /@v191 3.01279e-43 /@v192 1.82169e-44 /@v193 0 /@v194 1.97583e-43 /@v195 
3.05483e-43 /@v196 2.93882e-38 /@v197 5.5505e-34 /@v198 2.00386e-43 /@v199 
0 /@v200 2.93882e-38 /@v201 3.03129e+32 /@v202 2.03188e-43 /@v203 
4.93329e-15 /@v204 1.13505e-43 /@v205 5.55137e-34 /@v206 2.05991e-43 /@v207 
3.18095e-43 /@v208 1.16308e-43 /@v209 4.67115e-34 /@v210 2.08793e-43 /@v211 
3.22299e-43 /@v212 0 /@v213 5.55095e-34 /@v214 2.11596e-43 /@v215 3.26503e-43 /@v216 
5.43495e-34 /@v217 5.55114e-34 /@v218 2.14399e-43 /@v219 3.32108e-43 /@v220 
3.03129e+32 /@v221 5.54937e-34 /@v222 2.17201e-43 /@v223 5.55245e-34 /@v224 
1.98561e+29 /@v225 5.55244e-34 /@v226 5.5457e-34 /@v227 3.39114e-43 /@v228 
1.21913e-43 /@v229 5.55281e-34 /@v230 2.21405e-43 /@v231 3.43318e-43 /@v232 
0 /@v233 5.54978e-34 /@v234 5.54488e-34 /@v235 3.47522e-43 /@v236 0 /@v237 
5.54562e-34 /@v238 2.25609e-43 /@v239 3.51726e-43 /@v240 0 /@v241 
5.55291e-34 /@v242 5.54625e-34 /@v243 3.5593e-43 /@v244 0 /@v245 5.55249e-34 /@v246 
2.29813e-43 /@v247 3.60134e-43 /@v248 1.23314e-43 /@v249 5.53935e-34 /@v250 
5.54558e-34 /@v251 5.55363e-34 /@v252 1.24716e-43 /@v253 3.65739e-43 /@v254 
2.34017e-43 /@v255 5.42221e-34 /@v256 5.4356e-34 /@v257 3.69943e-43 /@v258 
5.54681e-34 /@v259 3.71344e-43 /@v260 0 /@v261 5.55441e-34 /@v262 
2.38221e-43 /@v263 3.75548e-43 /@v264 1.33123e-43 /@v265 3.03127e+32 /@v266 
5.54614e-34 /@v267 5.55514e-34 /@v268 1.31722e-43 /@v269 5.55515e-34 /@v270 
2.42425e-43 /@v271 3.82554e-43 /@v272 1.98561e+29 /@v273 5.55544e-34 /@v274 
5.54741e-34 /@v275 3.86758e-43 /@v276 1.34525e-43 /@v277 3.8816e-43 /@v278 
2.46629e-43 /@v279 5.55448e-34 /@v280 1.37327e-43 /@v281 5.29734e-34 /@v282 
5.54771e-34 /@v283 3.93765e-43 /@v284 1.38729e-43 /@v285 5.55572e-34 /@v286 
2.50832e-43 /@v287 5.55348e-34 /@v288 1.41531e-43 /@v289 4.00771e-43 /@v290 
5.54795e-34 /@v291 5.55675e-34 /@v292 1.42932e-43 /@v293 5.55589e-34 /@v294 
2.55036e-43 /@v295 4.04975e-43 /@v296 0 /@v297 5.55657e-34 /@v298 5.54826e-34 /@v299 
5.55634e-34 /@v300 1.45735e-43 /@v301 4.1058e-43 /@v302 2.5924e-43 /@v303 
5.55602e-34 /@v304 0 /@v305 5.55726e-34 /@v306 5.5485e-34 /@v307 
4.16186e-43 /@v308 0 /@v309 5.55726e-34 /@v310 2.63444e-43 /@v311 4.2039e-43 /@v312 
1.48538e-43 /@v313 4.21791e-43 /@v314 5.54881e-34 /@v315 5.55243e-34 /@v316 
1.49939e-43 /@v317 5.55761e-34 /@v318 2.67648e-43 /@v319 4.28797e-43 /@v320 
1.52742e-43 /@v321 5.55862e-34 /@v322 5.54906e-34 /@v323 5.55841e-34 /@v324 
0 /@v325 4.33001e-43 /@v326 2.71852e-43 /@v327 5.55396e-34 /@v328 
1.54143e-43 /@v329 5.55871e-34 /@v330 5.54825e-34 /@v331 4.40008e-43 /@v332 0 /@v333 
4.41409e-43 /@v334 2.76056e-43 /@v335 4.4281e-43 /@v336 0 /@v337 
4.44212e-43 /@v338 5.54961e-34 /@v339 5.55672e-34 /@v340 1.78267e-15 /@v341 
5.55943e-34 /@v342 2.8026e-43 /@v343 4.49817e-43 /@v344 0 /@v345 5.55956e-34 /@v346 
5.54894e-34 /@v347 5.55805e-34 /@v348 3.50325e-44 /@v349 4.55422e-43 /@v350 
2.84464e-43 /@v351 5.55989e-34 /@v352 1 /@v353 0 /@v354 5.5499e-34 /@v355 
4.61027e-43 /@v356 4 /@v357 5.56071e-34 /@v358 2.88667e-43 /@v359 
5.55915e-34 /@v360 2.17372e-18 /@v361 4.66632e-43 /@v362 5.5502e-34 /@v363 
5.56084e-34 /@v364 2.24208e-44 /@v365 5.55959e-34 /@v366 2.92871e-43 /@v367 
4.72238e-43 /@v368 1.58347e-43 /@v369 5.55376e-34 /@v370 5.55024e-34 /@v371 
5.21598e-34 /@v372 3.64338e-44 /@v373 3.86555e-34 /@v374 2.97075e-43 /@v375 
5.56072e-34 /@v376 3.78351e-44 /@v377 5.55946e-34 /@v378 5.55053e-34 /@v379 
4.84849e-43 /@v380 3.92364e-44 /@v381 5.56237e-34 /@v382 3.01279e-43 /@v383 
5.56183e-34 /@v384 4.06377e-44 /@v385 1.78267e-15 /@v386 5.55057e-34 /@v387 
4.90454e-43 /@v388 4.2039e-44 /@v389 1.04938e-38 /@v390 3.05483e-43 /@v391 
4.66943e-34 /@v392 4.34403e-44 /@v393 5.21403e-34 /@v394 5.55075e-34 /@v395 
4.97461e-43 /@v396 4.48416e-44 /@v397 5.42233e-34 /@v398 3.11088e-43 /@v399 
5.56206e-34 /@v400 4.62428e-44 /@v401 5.56282e-34 /@v402 5.55096e-34 /@v403 
5.04467e-43 /@v404 4.90454e-44 /@v405 5.56318e-34 /@v406 3.13891e-43 /@v407 
5.5631e-34 /@v408 5.1848e-44 /@v409 5.54229e-34 /@v410 5.55154e-34 /@v411 
5.12875e-43 /@v412 5.04467e-44 /@v413 5.20164e-34 /@v414 3.18095e-43 /@v415 
5.56371e-34 /@v416 5.46506e-44 /@v417 5.56371e-34 /@v418 5.55178e-34 /@v419 
5.1848e-43 /@v420 5.74532e-44 /@v421 5.54136e-34 /@v422 3.22299e-43 /@v423 
4.17769e-41 /@v424 6.02558e-44 /@v425 5.56491e-34 /@v426 5.55209e-34 /@v427 
5.25487e-43 /@v428 0 /@v429 5.5111e-34 /@v430 3.27904e-43 /@v431 5.29691e-43 /@v432 
0 /@v433 3.03129e+32 /@v434 5.55226e-34 /@v435 4.93329e-15 /@v436 
6.30584e-44 /@v437 1.04938e-38 /@v438 3.32108e-43 /@v439 5.5646e-34 /@v440 
6.5861e-44 /@v441 5.56591e-34 /@v442 5.55261e-34 /@v443 5.395e-43 /@v444 
6.86636e-44 /@v445 0 /@v446 3.36312e-43 /@v447 4.93329e-15 /@v448 7.14662e-44 /@v449 
4.70215e-38 /@v450 5.55295e-34 /@v451 1.04938e-38 /@v452 7.42688e-44 /@v453 
5.5664e-34 /@v454 3.41917e-43 /@v455 5.56525e-34 /@v456 7.70714e-44 /@v457 
5.54216e-34 /@v458 5.5533e-34 /@v459 5.53513e-43 /@v460 1.98561e+29 /@v461 
5.56611e-34 /@v462 3.46121e-43 /@v463 5.57717e-43 /@v464 5.40702e-34 /@v465 
5.56466e-34 /@v466 5.55365e-34 /@v467 5.61921e-43 /@v468 8.26766e-44 /@v469 
5.56678e-34 /@v470 3.50325e-43 /@v471 5.56427e-34 /@v472 8.54792e-44 /@v473 
5.56763e-34 /@v474 0 /@v475 5.68927e-43 /@v476 0 /@v477 4.67268e-34 /@v478 
3.5593e-43 /@v479 5.56749e-34 /@v480 8.82818e-44 /@v481 5.56788e-34 /@v482 
1.04938e-38 /@v483 5.74532e-43 /@v484 9.10844e-44 /@v485 1.78267e-15 /@v486 
5.55147e-34 /@v487 5.56765e-34 /@v488 9.3887e-44 /@v489 5.56835e-34 /@v490 
5.55401e-34 /@v491 5.81539e-43 /@v492 0 /@v493 5.56551e-34 /@v494 
4.17769e-41 /@v495 5.56552e-34 /@v496 0 /@v497 5.5685e-34 /@v498 5.55425e-34 /@v499 
5.88545e-43 /@v500 9.94922e-44 /@v501 5.56906e-34 /@v502 5.55358e-34 /@v503 
4.17769e-41 /@v504 1.00893e-43 /@v505 0 /@v506 5.55427e-34 /@v507 
5.95552e-43 /@v508 5.43034e-34 /@v509 5.56892e-34 /@v510 1.4013e-45 /@v511 
5.56957e-34 /@v512 1.03696e-43 /@v513 5.5684e-34 /@v514 0 /@v515 6.02558e-43 /@v516 
5.43495e-34 /@v517 -2.4893e-05 /@v518 4.93329e-15 /@v519 5.56936e-34 /@v520 
1.079e-43 /@v521 5.56951e-34 /@v522 5.53797e-34 /@v523 5.56888e-34 /@v524 
1.06499e-43 /@v525 6.10966e-43 /@v526 5.55498e-34 /@v527 -2.4893e-05 /@v528 
1.10703e-43 /@v529 3.03129e+32 /@v530 5.55509e-34 /@v531 2.76847e+20 /@v532 
0 /@v533 5.52137e-34 /@v534 5.55519e-34 /@v535 6.19374e-43 /@v536 0 /@v537 
5.56261e-34 /@v538 5.5553e-34 /@v539 5.5717e-34 /@v540 0 /@v541 
5.57065e-34 /@v542 4.93329e-15 /@v543 5.56732e-34 /@v544 0 /@v545 4.17769e-41 /@v546 
0 /@v547 5.57206e-34 /@v548 1.82169e-44 /@v549 5.56209e-34 /@v550 
4.93329e-15 /@v551 5.56208e-34 /@v552 1.82169e-44 /@v553 5.36254e-34 /@v554 0 /@v555 
6.3619e-43 /@v556 2.93882e-38 /@v557 5.57223e-34 /@v558 5.55587e-34 /@v559 
5.53966e-34 /@v560 2.93882e-38 /@v561 5.57226e-34 /@v562 0 /@v563 
5.57216e-34 /@v564 1.13505e-43 /@v565 6.44597e-43 /@v566 3.03129e+32 /@v567 
5.5735e-34 /@v568 1.16308e-43 /@v569 1.23314e-43 /@v570 5.55202e-34 /@v571 
5.57133e-34 /@v572 0 /@v573 4.93329e-15 /@v574 3.03129e+32 /@v575 6.53005e-43 /@v576 
5.43495e-34 /@v577 5.40164e-34 /@v578 0 /@v579 6.57209e-43 /@v580 
3.03129e+32 /@v581 6.60012e-43 /@v582 3.03129e+32 /@v583 0 /@v584 1.98561e+29 /@v585 
6.62814e-43 /@v586 0 /@v587 5.57399e-34 /@v588 1.21913e-43 /@v589 
6.67018e-43 /@v590 4.13383e-43 /@v591 -2.4893e-05 /@v592 0 /@v593 5.57441e-34 /@v594 
0 /@v595 6.71222e-43 /@v596 0 /@v597 5.57509e-34 /@v598 3.03129e+32 /@v599 
6.75426e-43 /@v600 0 /@v601 6.76827e-43 /@v602 0 /@v603 5.57558e-34 /@v604 
0 /@v605 6.7963e-43 /@v606 3.03129e+32 /@v607 6.82432e-43 /@v608 
1.23314e-43 /@v609 0 /@v610 5.54481e-34 /@v611 6.86636e-43 /@v612 1.24716e-43 /@v613 
6.88038e-43 /@v614 4.24593e-43 /@v615 6.89439e-43 /@v616 5.4356e-34 /@v617 
5.57323e-34 /@v618 0 /@v619 5.57673e-34 /@v620 0 /@v621 5.57681e-34 /@v622 
3.03129e+32 /@v623 5.57714e-34 /@v624 1.33123e-43 /@v625 6.97847e-43 /@v626 
0 /@v627 5.57755e-34 /@v628 1.31722e-43 /@v629 5.57754e-34 /@v630 
5.5444e-34 /@v631 5.57643e-34 /@v632 1.98561e+29 /@v633 5.57793e-34 /@v634 
5.20131e-34 /@v635 7.07656e-43 /@v636 1.34525e-43 /@v637 5.57826e-34 /@v638 
4.34403e-43 /@v639 5.57841e-34 /@v640 1.37327e-43 /@v641 5.5785e-34 /@v642 
5.53776e-34 /@v643 5.57864e-34 /@v644 1.38729e-43 /@v645 7.16064e-43 /@v646 
5.55288e-34 /@v647 0 /@v648 1.41531e-43 /@v649 5.57909e-34 /@v650 4.40008e-43 /@v651 
5.57924e-34 /@v652 1.42932e-43 /@v653 5.57938e-34 /@v654 5.53601e-34 /@v655 
5.57952e-34 /@v656 0 /@v657 7.25873e-43 /@v658 5.53603e-34 /@v659 
5.57976e-34 /@v660 1.45735e-43 /@v661 5.57995e-34 /@v662 4.45613e-43 /@v663 
5.5801e-34 /@v664 0 /@v665 5.58019e-34 /@v666 0 /@v667 5.58033e-34 /@v668 0 /@v669 
7.35682e-43 /@v670 5.21463e-34 /@v671 5.58062e-34 /@v672 1.48538e-43 /@v673 
5.58081e-34 /@v674 5.21436e-34 /@v675 5.58091e-34 /@v676 1.49939e-43 /@v677 
5.58105e-34 /@v678 5.5516e-34 /@v679 5.58119e-34 /@v680 1.52742e-43 /@v681 
7.46892e-43 /@v682 4.55422e-43 /@v683 5.58143e-34 /@v684 0 /@v685 
5.58157e-34 /@v686 3.03127e+32 /@v687 5.58177e-34 /@v688 1.54143e-43 /@v689 
5.58191e-34 /@v690 3.03129e+32 /@v691 5.58205e-34 /@v692 0 /@v693 7.58102e-43 /@v694 
5.55812e-34 /@v695 5.58229e-34 /@v696 0 /@v697 5.58243e-34 /@v698 
4.6383e-43 /@v699 5.58262e-34 /@v700 1.78267e-15 /@v701 5.58277e-34 /@v702 
5.55928e-34 /@v703 5.58286e-34 /@v704 2.71852e-43 /@v705 7.69313e-43 /@v706 
5.54355e-34 /@v707 5.58315e-34 /@v708 5.45456e-34 /@v709 5.58329e-34 /@v710 
1.04938e-38 /@v711 5.58338e-34 /@v712 2.76056e-43 /@v713 5.58358e-34 /@v714 
5.5497e-34 /@v715 5.58372e-34 /@v716 0 /@v717 7.80523e-43 /@v718 5.69389e-39 /@v719 
5.58395e-34 /@v720 2.77457e-43 /@v721 5.5841e-34 /@v722 4.73639e-43 /@v723 
5.58424e-34 /@v724 2.8026e-43 /@v725 5.58438e-34 /@v726 5.55965e-34 /@v727 
5.58453e-34 /@v728 2.81661e-43 /@v729 7.90332e-43 /@v730 3.03129e+32 /@v731 
5.58476e-34 /@v732 2.84464e-43 /@v733 5.58491e-34 /@v734 0 /@v735 
5.58505e-34 /@v736 6.7428e+22 /@v737 5.58514e-34 /@v738 0 /@v739 5.58528e-34 /@v740 
2.87266e-43 /@v741 8.00141e-43 /@v742 0 /@v743 5.58557e-34 /@v744 
2.88667e-43 /@v745 5.58571e-34 /@v746 4.84849e-43 /@v747 5.58586e-34 /@v748 
4.80115e+30 /@v749 5.58595e-34 /@v750 4.87652e-43 /@v751 5.58609e-34 /@v752 
5.45222e-34 /@v753 8.09951e-43 /@v754 5.55902e-34 /@v755 5.58638e-34 /@v756 
2.92871e-43 /@v757 5.58647e-34 /@v758 4.91856e-43 /@v759 5.58661e-34 /@v760 
2.94273e-43 /@v761 5.58676e-34 /@v762 5.5601e-34 /@v763 5.5869e-34 /@v764 0 /@v765 
8.1976e-43 /@v766 5.55551e-34 /@v767 5.58714e-34 /@v768 5.44858e-34 /@v769 
5.58728e-34 /@v770 5.21436e-34 /@v771 5.58742e-34 /@v772 2.98477e-43 /@v773 
5.58757e-34 /@v774 0 /@v775 5.58766e-34 /@v776 3.01279e-43 /@v777 
8.29569e-43 /@v778 5.5385e-34 /@v779 5.58794e-34 /@v780 3.0268e-43 /@v781 
5.58809e-34 /@v782 5.56186e-34 /@v783 5.58818e-34 /@v784 3.04082e-43 /@v785 
5.58832e-34 /@v786 5.56203e-34 /@v787 5.58847e-34 /@v788 3.05483e-43 /@v789 
5.58861e-34 /@v790 5.0727e-43 /@v791 8.40779e-43 /@v792 3.08286e-43 /@v793 
5.58884e-34 /@v794 5.56216e-34 /@v795 5.58899e-34 /@v796 0 /@v797 5.58913e-34 /@v798 
5.10073e-43 /@v799 5.58927e-34 /@v800 3.09687e-43 /@v801 5.58942e-34 /@v802 
5.11474e-43 /@v803 5.58951e-34 /@v804 3.1249e-43 /@v805 8.51989e-43 /@v806 
5.14277e-43 /@v807 5.5898e-34 /@v808 3.15292e-43 /@v809 5.58994e-34 /@v810 
5.56169e-34 /@v811 5.59003e-34 /@v812 0 /@v813 5.59017e-34 /@v814 
5.56215e-34 /@v815 5.59032e-34 /@v816 0 /@v817 5.59046e-34 /@v818 5.56307e-34 /@v819 
8.632e-43 /@v820 3.16693e-43 /@v821 5.5907e-34 /@v822 5.21283e-43 /@v823 
5.59084e-34 /@v824 3.18095e-43 /@v825 5.59098e-34 /@v826 5.56274e-34 /@v827 
5.59113e-34 /@v828 3.19496e-43 /@v829 5.59127e-34 /@v830 5.24086e-43 /@v831 
5.59141e-34 /@v832 3.20897e-43 /@v833 8.7441e-43 /@v834 5.32936e-34 /@v835 
5.59165e-34 /@v836 1.98561e+29 /@v837 5.59179e-34 /@v838 5.2829e-43 /@v839 
5.59193e-34 /@v840 3.25101e-43 /@v841 5.59208e-34 /@v842 5.5403e-34 /@v843 
5.59217e-34 /@v844 3.237e-43 /@v845 5.59231e-34 /@v846 5.5403e-34 /@v847 
8.85621e-43 /@v848 3.26503e-43 /@v849 5.5926e-34 /@v850 5.56338e-34 /@v851 
5.59269e-34 /@v852 0 /@v853 5.59283e-34 /@v854 5.35296e-43 /@v855 5.59298e-34 /@v856 
3.27904e-43 /@v857 5.59312e-34 /@v858 5.56349e-34 /@v859 5.59321e-34 /@v860 
3.29305e-43 /@v861 8.96831e-43 /@v862 5.56339e-34 /@v863 5.5935e-34 /@v864 
0 /@v865 5.59364e-34 /@v866 5.56342e-34 /@v867 5.59378e-34 /@v868 
3.08541e+32 /@v869 5.59388e-34 /@v870 5.43704e-43 /@v871 5.59402e-34 /@v872 0 /@v873 
5.59416e-34 /@v874 5.55391e-34 /@v875 9.08041e-43 /@v876 3.32108e-43 /@v877 
5.5944e-34 /@v878 5.47908e-43 /@v879 5.59454e-34 /@v880 0 /@v881 
5.59468e-34 /@v882 5.49309e-43 /@v883 5.59483e-34 /@v884 5.45759e-34 /@v885 
5.59492e-34 /@v886 0 /@v887 5.59506e-34 /@v888 3.37713e-43 /@v889 9.19252e-43 /@v890 
5.56399e-34 /@v891 5.59535e-34 /@v892 3.36312e-43 /@v893 5.59544e-34 /@v894 
5.56534e-34 /@v895 5.59558e-34 /@v896 1.98561e+29 /@v897 5.59573e-34 /@v898 
3.86555e-34 /@v899 5.59587e-34 /@v900 0 /@v901 5.59596e-34 /@v902 
5.59118e-43 /@v903 9.30462e-43 /@v904 3.39114e-43 /@v905 5.59625e-34 /@v906 
5.56559e-34 /@v907 5.59639e-34 /@v908 5.42968e-34 /@v909 5.59654e-34 /@v910 
5.56619e-34 /@v911 5.59663e-34 /@v912 0 /@v913 5.59677e-34 /@v914 5.56604e-34 /@v915 
5.59691e-34 /@v916 3.40516e-43 /@v917 9.41673e-43 /@v918 5.68927e-43 /@v919 
5.59715e-34 /@v920 0 /@v921 5.59729e-34 /@v922 5.70328e-43 /@v923 
5.59744e-34 /@v924 3.41917e-43 /@v925 5.59758e-34 /@v926 5.5662e-34 /@v927 
5.59767e-34 /@v928 3.44719e-43 /@v929 5.59781e-34 /@v930 5.56679e-34 /@v931 
5.59796e-34 /@v932 3.46121e-43 /@v933 9.54284e-43 /@v934 5.75934e-43 /@v935 
5.59819e-34 /@v936 3.47522e-43 /@v937 5.59834e-34 /@v938 5.56381e-34 /@v939 
5.59848e-34 /@v940 1.98561e+29 /@v941 5.59862e-34 /@v942 1.78267e-15 /@v943 
5.59871e-34 /@v944 0 /@v945 5.59886e-34 /@v946 5.56614e-34 /@v947 5.599e-34 /@v948 
5.45964e-34 /@v949 9.66896e-43 /@v950 5.81539e-43 /@v951 5.59924e-34 /@v952 
0 /@v953 5.59938e-34 /@v954 5.567e-34 /@v955 5.59952e-34 /@v956 
3.53127e-43 /@v957 5.59967e-34 /@v958 5.56699e-34 /@v959 5.59976e-34 /@v960 0 /@v961 
5.5999e-34 /@v962 5.87144e-43 /@v963 5.60004e-34 /@v964 5.45615e-34 /@v965 
9.79508e-43 /@v966 5.89947e-43 /@v967 5.60028e-34 /@v968 6.7428e+22 /@v969 
5.60042e-34 /@v970 5.56637e-34 /@v971 5.60057e-34 /@v972 3.5593e-43 /@v973 
5.60071e-34 /@v974 5.5618e-34 /@v975 5.60085e-34 /@v976 5.46254e-34 /@v977 
5.60094e-34 /@v978 6.7428e+22 /@v979 5.60109e-34 /@v980 
(OM@0[BX@9CNF94J:MEVSWf;PE99A1]9lKE0HB1ir=S^J_6jP!<7Q~> !<;TU"KZSo1Geql"$8qE9Dgjn6Ua.$4%24u4@Dh01IYAUBj44t91hfd@qp@;L5LtPrgWqL"IP\(' H@,R9$$\(fe`O9P  D=&XeOV%f,JKSPDOUQ]IT.m$*c96->aL[kCqm"+N#li@'9~> !<;TR"K65h2\)Y:l"%5XY9Dh0k6Us-s6q9X44$uY.1e1h[D-T_-r`&o5#\(\(rRMO^-2ri#jm"JqWQ Mh:kb$%.c!a2Vp`?!Dp [ UD0\)PJrZ\(lXI*fl1dk#2<.\(!tNpm"!l%/\)rklCa6~> !<;TA!L[Kt/,V+\(3BB`!rAjmF*BGo03BB/f4%iO?1HJB9@p;;l8Q/Q'COqM+PG,,UY6:JkOH>M# O9olYPK:p_3Dj"2rgsRiMh $G AT:MQh6SUt-8Hj'sPCqlpJ_5P+VUtnKJ,~> !<;TU!N^;<,l]7n1HkUs&48NJ76<q<93Y%W91\(3X1Gf#'$<LG56UOFTH[C'rr/go8.Y`7qF\)uYR F\)u&"CRV_h8m@.kc*Oaq[\\b1JWl:3 4"E *U6VDH`R''LJa@sSVX+<_J,~> !<;TR!N9r6,QB7p2*\(P%*^`=c7mojA<*W'`91\(Nd2\)Is*<*`a79MAH'JqAoNr1s=^.ZoXIJUr`; I=5s;Co#\(8<*Y[.fsS6.`hSQQN16;R6o6bk9N6 D/Un dDYJa%aMVWe*J,~> !<;TA!L[Ko,69;Lq`4[Ds#M&Y3_;nI<\(g1X0dA2\)91_]P>>[s`>BZ$eOJ2TUrh1g2OH>H]OH>!C
) >> 
begin
0.7000 inchscale
2.6000 setlinewidth 978 818 translate

0.824 0.706 0.549 scb
496 1.000 -352 96 -352 -64 -128 -64 -128 96 4 polygon
sce
0 1.000 -352 96 -352 -64 -128 -64 -128 96 4 polygon
(Analog-to-) {/Helvetica cf} 2 16 0 1.000 -336 56 label
(Digital) {/Helvetica cf} 2 16 0 1.000 -304 8 label
(Converter) {/Helvetica cf} 2 16 0 1.000 -336 -40 label
497 1.000 -80 0 -80 32 -48 16 -80 0 4 polygon
497 1.000 224 0 224 32 256 16 224 0 4 polygon
0.604 0.604 0.604 scb
497 1.000 592 64 16 0.000 360.000 xcarc
sce
1 1.000 592 64 16 0.000 360.000 xcarc
1 1.000 602 74 578 58 2 polygon
1 1.000 606 70 582 54 2 polygon
0.604 0.604 0.604 scb
497 1.000 592 -32 16 0.000 360.000 xcarc
sce
1 1.000 592 -32 16 0.000 360.000 xcarc
1 1.000 602 -22 578 -38 2 polygon
1 1.000 606 -26 582 -42 2 polygon
0.800 0.800 0.800 scb
496 1.000 -496 96 -496 -64 -432 -64 -432 96 4 polygon
sce
0 1.000 -496 96 -496 -64 -432 -64 -432 96 4 polygon
(Sensor) {/Helvetica cf} 2 16 90 1.000 -476 76 label
497 1.000 -384 0 -384 32 -352 16 -384 0 4 polygon
5 1.000 80 16 560 0.000 360.000 xcarc
0.400 0.400 0.400 scb
496 1.000 -544 32 -544 0 -496 0 -496 32 4 polygon
sce
0 1.000 -544 32 -544 0 -496 0 -496 32 4 polygon
1 1.000 -536 24 -536 8 2 polygon
1 1.000 -528 24 -528 8 2 polygon
1 1.000 -520 24 -520 8 2 polygon
1 1.000 -512 24 -512 8 2 polygon
1 1.000 -504 24 -504 8 2 polygon
1 1.000 608 64 752 64 2 polygon
1 1.000 608 -32 752 -32 2 polygon
(Trim adjustments) {/Helvetica-Bold cf} 2 16 0 1.000 -96 384 label
497 1.000 -16 112 -32 144 0 144 -16 112 4 polygon
497 1.000 144 112 128 144 160 144 144 112 4 polygon
(\(ADC\)) {/Helvetica cf} 2 16 0 1.000 -304 -112 label
(Range adjustments) {/Helvetica-Bold cf} 2 16 0 1.000 184 256 label
0.180 0.545 0.341 scb
497 1.000 -608 32 -608 48 -560 16 -608 -16 -608 0 -656 0 -656 32 -608 32 
8 polygon
(Apply pressure) {/Helvetica-Oblique cf} 2 16 0 0.700 -704 96 label
(here) {/Helvetica-Oblique cf} 2 16 0 0.700 -640 64 label
sce
497 1.000 64 112 48 144 80 144 64 112 4 polygon
1 1.000 64 128 64 160 2 polygon
(Damping) {/Helvetica cf} 2 16 0 0.700 8 176 label
(FF pressure transmitter) {/Helvetica-Bold cf} 2 16 0 1.000 -144 480 label
0.000 0.000 1.000 scb
1 1.000 656 0 656 32 672 32 672 0 688 0 688 32 704 32 704 0 720 0 720 32 
10 polygon
sce
(FF data) {/Helvetica-Oblique cf} 2 16 0 1.000 752 0 label
0.750 0 424 16 ::analog_input
(Cal_Point_Lo) {/Helvetica cf} 2 16 0 0.700 -128 336 label
(Cal_Point_Hi) {/Helvetica cf} 2 16 0 0.700 80 336 label
0 1.000 -48 112 -48 -80 176 -80 176 112 4 polygon
1 1.000 -432 16 -384 16 2 polygon
1 1.000 -128 16 -80 16 2 polygon
1 1.000 176 16 224 16 2 polygon
497 1.000 64 -80 48 -112 80 -112 64 -80 4 polygon
1 1.000 64 -112 64 -176 -16 -176 3 polygon
(Cal_Unit) {/Helvetica cf} 2 16 0 0.700 -144 -184 label
1 1.000 64 -176 64 -224 -16 -224 3 polygon
1 1.000 64 -224 64 -272 -16 -272 3 polygon
1 1.000 64 -272 64 -320 -16 -320 3 polygon
(Sensor_Cal_Date) {/Helvetica cf} 2 16 0 0.700 -256 -280 label
(Sensor_Cal_Who) {/Helvetica cf} 2 16 0 0.700 -248 -328 label
(Sensor_Range) {/Helvetica cf} 2 16 0 0.700 -216 -232 label
0.000 0.000 1.000 scb
(Primary_Value) {/Helvetica-Oblique cf} 2 16 0 0.700 120 -120 label
1.000 0 208 -48 generic::arrow
sce
1 1.000 64 -320 64 -368 -16 -368 3 polygon
(etc.) {/Helvetica-Oblique cf} 2 16 0 0.700 -80 -376 label
497 1.000 288 112 272 144 304 144 288 112 4 polygon
1 1.000 288 128 288 160 2 polygon
497 1.000 432 112 416 144 448 144 432 112 4 polygon
1 1.000 432 128 432 160 2 polygon
(XD_Scale) {/Helvetica cf} 2 16 0 0.700 208 208 label
(OUT_Scale) {/Helvetica cf} 2 16 0 0.700 384 208 label
(L_Type) {/Helvetica cf} 2 16 0 0.700 184 -232 label
(\(0% to 100%\)) {/Helvetica cf} 2 16 0 0.700 192 176 label
(\(0% to 100%\)) {/Helvetica cf} 2 16 0 0.700 376 176 label
497 1.000 368 -80 352 -112 384 -112 368 -80 4 polygon
1 1.000 368 -112 368 -176 288 -176 3 polygon
1 1.000 368 -176 368 -224 288 -224 3 polygon
1 1.000 368 -224 368 -272 288 -272 3 polygon
1 1.000 368 -272 368 -320 288 -320 3 polygon
1 1.000 368 -320 368 -368 288 -368 3 polygon
1 1.000 144 144 144 320 2 polygon
1 1.000 -16 144 -16 320 2 polygon
(PV_Ftime) {/Helvetica cf} 2 16 0 0.700 152 -280 label
(Lo_Alm) {/Helvetica cf} 2 16 0 0.700 176 -328 label
(Hi_Alm) {/Helvetica cf} 2 16 0 0.700 176 -376 label
(etc.) {/Helvetica-Oblique cf} 2 16 0 0.700 224 -424 label
(XD) {/Helvetica-Bold cf} 2 16 0 1.200 32 4 label
1 1.000 368 -368 368 -416 288 -416 3 polygon
(Channel) {/Helvetica cf} 2 16 0 0.700 176 -184 label
end pgsave restore showpage

%%Trailer
XCIRCsave restore
%%EOF
