%!PS-Adobe-3.0 EPSF-3.0
%%Title: flow09.eps
%%Creator: XCircuit v3.7 rev26
%%CreationDate: Sun Nov  6 13:51:38 2011
%%Pages: 1
%%BoundingBox: 68 68 362 454
%%DocumentNeededResources: font Helvetica Helvetica-Bold 
%%EndComments
%%BeginProlog
%
%  PostScript prolog for output from xcircuit
%  Version: 3.7
%
%  Electrical circuit (and otherwise general) drawing program
%
%  Written by Tim Edwards 8/5/93--11/1/10  (tim.edwards@multigig.com)
%  The Johns Hopkins University (1993-2004)
%  MultiGiG, Inc. (2004-present)
%
%%BeginResource: procset XCIRCproc 3.7 2
%
% supporting definitions --- these are the primary xcircuit types.

/XCIRCsave save def
/topmat matrix currentmatrix def

/fontslant { /slant exch def [1 0 slant 1 0 0] 
    exch findfont exch makefont dup length dict /ndict exch def
    { 1 index /FID ne { ndict 3 1 roll put } { pop pop } ifelse } forall
    ndict definefont pop} def
/ul { dup type /stringtype eq showflag 1 eq and { gsave 
   currentpoint topmat setmatrix 0 0 moveto 2 index stringwidth pop (_)
   false charpath flattenpath pathbbox grestore exch pop 1 index
   sub setlinewidth exch pop currentpoint 3 -1 roll add moveto 0
   rlineto stroke moveto } if } def
/ol { dup type /stringtype eq showflag 1 eq and { gsave gsave
   currentpoint topmat setmatrix 2 index stringwidth pop 3 index
   true charpath flattenpath pathbbox grestore exch pop
   exch pop topmat setmatrix (_) true charpath pathbbox grestore
   exch pop 1 index sub setlinewidth exch pop currentpoint
   exch 4 1 roll exch sub add moveto pop 0 rlineto stroke
   moveto } if } def
/stW { gsave currentpoint newpath moveto true charpath flattenpath
	pathbbox pop exch pop sub grestore } def
/Ts {mark Tabs aload pop counttomark 1 add array astore /Tabs exch def Tabs
	0 currentpoint pop put} def
/Tbn {mark Tabs aload pop counttomark dup 2 add 1 roll cleartomark 1 sub} def
/Tb { 0 1 Tbn {Tabs exch get dup currentpoint pop lt
	{currentpoint exch pop moveto exit} {pop} ifelse } for } def
/Tf { Tbn -1 0 {Tabs exch get dup currentpoint pop gt
	{currentpoint exch pop moveto exit} {pop} ifelse } for } def
/qS { (aa) stW (a a) stW sub 4 div 0 Kn } def
/hS { qS qS } def
/pspc 0 def
/cf0 { scalefont setfont } bind def
/Kn { dup kY add /kY exch def rmoveto } bind def
/ss { /fscale fscale 0.67 mul def currentfont 0.67 cf0 0 fscale0 fscale mul
	0.33 mul neg Kn} def
/Ss { /fscale fscale 0.67 mul def currentfont 0.67 cf0 0 fscale0 fscale mul
	0.67 mul Kn } def
/ns { 0 kY neg Kn /kY 0 def /fscale 1.0 def xfont0 1.0 cf0 } def
/CR { ns 0 /Bline Bline fscale0 neg add def Bline moveto } def
/cf { dup type /realtype ne {1.0} if exch findfont exch kY 0 eq
	{ 40 mul dup /fscale0 exch def cf0 /xfont0 currentfont def}
	{fscale0 mul fscale mul cf0} ifelse } def
/ctmk { counttomark dup 2 add -1 roll pop } bind def
/label { gsave translate 0 0 moveto dup scale neg /rotval exch def
	/just exch def just 384 and 0 gt {/mshow {pop} def} {/mshow {show}
	def} ifelse just 16 and 0 gt {gsave rotval rotate 0 1 dtransform
	gsave pagemat setmatrix idtransform exch grestore 1 0 dtransform
	gsave pagemat setmatrix idtransform exch grestore dup abs 1e-9 lt
	{pop mul 0 gt} {3 1 roll pop pop 0 lt} ifelse grestore {-1 /rotval
	rotval neg def /just just dup 3 and 1 ne {3 xor} if def} {1} ifelse
	exch -1e-9 lt {-1 /rotval rotval neg def /just just dup 12 and
	4 ne {12 xor} if def} {1} ifelse scale } if /showflag 0 def
	/fspc pspc def /Bline 0 def /Tabs 0 array def /fscale 1.0 def
	/kY 0 def gsave dup 1 add copy 0 exch 1 0 dtransform exch atan rotate
	{exch dup type /stringtype eq {true charpath flattenpath} {dup type
	/arraytype eq {exec} {12 string cvs true charpath flattenpath} ifelse}
	ifelse} repeat pop pathbbox grestore 3 -1 roll pop 3 1 roll just
	1 and 0 gt {just 2 and 0 gt {exch pop neg fspc sub} {exch sub 0.5
	mul neg} ifelse} {pop neg fspc add} ifelse exch Bline exch just 4
	and 0 gt {just 8 and 0 gt {exch pop neg fspc sub} {add 0.5 mul neg}
	ifelse} {pop neg fspc add} ifelse rotval rotate Kn currentpoint
	translate /showflag 1 def /Bline 0 def /Tabs 0 array def /fscale
	1.0 def /kY 0 def {dup type /stringtype eq {mshow} {dup type
	/arraytype eq {exec} {12 string cvs mshow} ifelse} ifelse} repeat
	grestore endclip} def
/pinlabel { 4 index 32 and 0 ne hlevel 0 eq or { /pspc 10 def label
	/pspc 0 def } { pop pop pop pop pop {pop} repeat } ifelse } def
/pinglobal { pinlabel } def
/infolabel { pinlabel } def
/graphic { gsave 4 index cvx exec /DataSource get resetfile translate 0 0
	moveto neg rotate dup scale cvx exec image grestore endclip} def

/scb { setrgbcolor } bind def  /sce { defColor aload pop scb } bind def
/cRedef {/defColor currentcolor 3 array astore def} def
/begingate {dup type /dicttype ne {1 dict} if begin	% default params
	dup type /dicttype ne {1 dict} if begin		% instanced params
	/hlevel hlevel 1 add def /defColor currentcolor sce 3 array astore
	def gsave sce translate 0 0 moveto neg rotate dup type /nametype
	eq not { dup abs currentlinewidth exch div setlinewidth } { pop }
	ifelse dup abs scale clipped 1 and 1 eq {/clipped clipped 1 add def}
	if} bind def
/endgate { /hlevel hlevel 1 sub def grestore defColor aload pop cRedef
	scb end end endclip} bind def

/hlevel 0 def
/endclip {clipped 1 and 1 eq {grestore /clipped clipped 1 sub def} if} def
/tmpa [1 0 0 1 0 0] def
/gar {8 8 true tmpa {<c0 c0 00 00 0c 0c 00 00>} imagemask} bind
{8 8 true tmpa {<30 70 60 02 03 07 06 20>} imagemask} bind
{8 8 true tmpa {<0c 1e 1e 0c c0 e1 e1 c0>} imagemask} bind
{8 8 true tmpa {<0f 0f 0f 0f f0 f0 f0 f0>} imagemask} bind
{8 8 true tmpa {<3f f3 e1 e1 f3 3f 1e 1e>} imagemask} bind
{8 8 true tmpa {<df cf 8f 9f fd fc f8 f9>} imagemask} bind
{8 8 true tmpa {<ff 3f 3f ff ff f3 f3 ff>} imagemask} bind 7 array astore def
/ppaint { gsave clip tmpa dup setmatrix pathbbox neg exch neg 4 2 roll
  neg 4 -1 roll 2 copy gt {exch} if 8 div ceiling 8 mul 4 2 roll neg 2 copy
  gt {exch} if 8 div ceiling 8 mul 3 -1 roll -8 5 -1 roll
  { 3 index exch 5 exch put dup -8 3 index { 3 index
  exch 4 exch put 3 index exec } for } for pop pop pop pop grestore } bind def
/setstyles {
  currentlinewidth mul setlinewidth /style exch def style 2048 and 0 gt
  clipped 1 and 0 eq and {clip newpath /clipped clipped 1 add def} {
  style 1 and 0 gt not {closepath} if
  style 1024 and 0 gt {2 setlinecap} if
  style 2 and 0 gt {currentlinewidth 4 mul dup 2 array astore 0 setdash} if
  style 4 and 0 gt {0.5 currentlinewidth 4 mul 2 array astore 0 setdash} if
  gsave style 16 and 0 gt { style 224 and -5 bitshift style 256 and 0 gt {
  7 exch sub 8 div dup 1 exch sub currentrgbcolor 3 array astore
  {3 copy mul add 4 1 roll pop} forall pop pop setrgbcolor eofill}
  {dup 7 lt {gar exch get ppaint} {pop eofill} ifelse} ifelse}
  {style 256 and 0 gt {1 setgray eofill} if} ifelse grestore style 8 and 0 gt 
  style 512 eq or {newpath} {stroke} ifelse grestore endclip} ifelse} def     

/addtoy {exch dup dup 2 mul 3 add 1 roll -1 1 { 4 1 roll dup 4 1 roll add
	4 -1 roll 2 mul 1 add index 2 mul 2 add 2 roll} for pop} def
/addtoy1 {1 exch addtoy pop} def
/addtoy3 {3 exch addtoy pop} def
/addtoy4 {4 exch addtoy pop} def
/addtox {exch dup dup 2 mul 3 add 1 roll -1 1 { 4 1 roll dup 4 1 roll 3 -1 roll
	add exch 4 -1 roll 2 mul 1 add index 2 mul 2 add 2 roll} for pop} def
/addtox1 {1 exch addtox pop} def
/addtox3 {3 exch addtox pop} def
/addtox4 {4 exch addtox pop} def
/polygon { gsave /num exch def moveto num 1 sub {lineto} repeat setstyles } def
/xcarc   { gsave newpath arc setstyles } def
/elb { matrix currentmatrix 7 -1 roll 7 -1 roll translate 5 1 roll 4 -1 roll
	3 index div 1 scale } def
/ele { 0 4 1 roll 0 4 1 roll } bind def
/ellipse { gsave elb newpath ele arc setmatrix setstyles } def
/pellip  { elb ele arc setmatrix } def
/nellip  { elb ele arcn setmatrix } def
/spline  { gsave moveto curveto setstyles } def
/polyc   { {lineto} repeat } bind def
/beginpath { gsave moveto } bind def
/endpath { setstyles } bind def
/bop	 { 1 setlinecap 0 setlinejoin 6 setmiterlimit 0 0 0 scb cRedef
	/clipped 0 def} def
/psinsertion {/PSobj save def /showpage {} def /setpagedevice {pop} def bop
	rotate translate dup scale} def
/end_insert {PSobj restore} def
/setpagemat {/pagemat matrix currentmatrix def} def
/inchscale  {setpagemat 0.375 mul dup scale} def
/cmscale    {setpagemat 0.35433071 mul dup scale} def

%%EndResource
%%EndProlog

% XCircuit output starts here.

%%BeginSetup

/::dp_cell {
begingate
0.604 0.604 0.604 scb
241 1.000 -48 -8 -16 -8 -16 -24 -48 -24 spline
241 1.000 -48 -120 -16 -120 -16 -104 -48 -104 spline
0.800 0.800 0.800 scb
240 1.000 0 -24 0 8 16 8 16 -24 4 polygon
0.000 0.000 1.000 scb
241 1.000 8 64 56 0.000 360.000 xcarc
0.604 0.604 0.604 scb
240 1.000 -48 -24 -48 -104 -16 -104 -16 -24 4 polygon
sce
241 1.000 -32 -64 8 0.000 360.000 xcarc
0.604 0.604 0.604 scb
241 1.000 32 -8 64 -8 64 -24 32 -24 spline
241 1.000 32 -120 64 -120 64 -104 32 -104 spline
240 1.000 32 -24 32 -104 64 -104 64 -24 4 polygon
sce
241 1.000 48 -64 8 0.000 360.000 xcarc
0.800 0.800 0.800 scb
240 1.000 -16 -24 -16 -104 32 -104 32 -24 4 polygon
sce
1 1.000 -48 -104 -48 -24 2 polygon
1 1.000 -16 -24 -16 -104 2 polygon
1 1.000 -48 -8 -16 -8 -16 -24 -48 -24 spline
1 1.000 -48 -120 -16 -120 -16 -104 -48 -104 spline
1 1.000 32 -120 64 -120 64 -104 32 -104 spline
1 1.000 32 -8 64 -8 64 -24 32 -24 spline
1 1.000 32 -24 32 -104 2 polygon
1 1.000 64 -24 64 -104 2 polygon
0 1.000 -16 -24 -16 -104 32 -104 32 -24 4 polygon
(H) {/Helvetica cf} 2 16 0 0.500 -40 -40 label
(L) {/Helvetica cf} 2 16 0 0.500 40 -40 label
0 1.000 0 8 0 -24 16 -24 16 8 4 polygon
1 1.000 8 64 56 0.000 360.000 xcarc
endgate
} def

/generic::arrowhead {
% nonetwork
begingate
8 -28 beginpath
3 -18 3 -15 0 0 curveto
-3 -15 -3 -18 -8 -28 curveto
-2 -26 2 -26 8 -28 curveto
249 
1.000 endpath
endgate
} def

/generic::arrow {
% nonetwork
begingate
1 0.800 0 -40 0 20 2 polygon
1.000 0 0 40 generic::arrowhead
endgate
} def


%%EndSetup

%%Page: 6700x013.eps 1
%%PageOrientation: Portrait
/pgsave save def bop
% 32.00 8.00 gridspace
0.3000 inchscale
2.6000 setlinewidth 5887 135 translate

0.604 0.604 0.604 scb
241 1.000 -5136 3472 -4768 3472 -4768 3504 -4784 3504 -4784 3520 -4736 3520 
-4736 3504 -4752 3504 -4752 3472 -4608 3472 -4256 3376 -3968 3376 -2944 3472 
-2784 3472 -2784 3504 -2976 3504 -3968 3408 -4256 3408 -4608 3504 -4688 3504 
-4720 3552 -4800 3552 -4832 3504 -5136 3504 -5136 3472 25 polygon
sce
1 1.000 -5136 3472 -4768 3472 -4768 3504 -4784 3504 -4784 3520 -4736 3520 -4736 
3504 -4752 3504 -4752 3472 -4608 3472 -4256 3376 -3968 3376 -2944 3472 -2784 
3472 -2784 3504 -2976 3504 -3968 3408 -4256 3408 -4608 3504 -4688 3504 -4720 
3552 -4800 3552 -4832 3504 -5136 3504 -5136 3472 25 polygon
0.604 0.604 0.604 scb
241 1.000 -5136 3088 -4768 3088 -4768 3056 -4784 3056 -4784 3040 -4736 3040 
-4736 3056 -4752 3056 -4752 3088 -4608 3088 -4256 3184 -3968 3184 -2944 3088 
-2784 3088 -2784 3056 -2976 3056 -3968 3152 -4256 3152 -4608 3056 -4688 3056 
-4720 3008 -4800 3008 -4832 3056 -5136 3056 -5136 3088 25 polygon
sce
1 1.000 -5136 3088 -4768 3088 -4768 3056 -4784 3056 -4784 3040 -4736 3040 -4736 
3056 -4752 3056 -4752 3088 -4608 3088 -4256 3184 -3968 3184 -2944 3088 -2784 
3088 -2784 3056 -2976 3056 -3968 3152 -4256 3152 -4608 3056 -4688 3056 -4720 
3008 -4800 3008 -4832 3056 -5136 3056 -5136 3088 25 polygon
1.000 0 -4384 3744 ::dp_cell
1 2.000 -4416 3680 -4760 3680 -4760 3520 3 polygon
1 4.000 -4760 3520 -4760 3592 2 polygon
1 4.000 -4112 3376 -4112 3448 2 polygon
1 2.000 -4112 3448 -4112 3680 -4336 3680 3 polygon
(Venturi tube) {/Helvetica-Bold cf} 2 16 0 2.000 -4112 3760 label
0.604 0.604 0.604 scb
240 1.000 -5248 1888 -5248 1920 -4640 1920 -4640 1888 4 polygon
240 1.000 -4640 1792 -4640 1920 -4544 1920 -4544 1792 4 polygon
sce
1 1.000 -5248 1888 -4640 1888 -4640 1792 -4544 1792 -4544 1920 -5248 1920 6 
polygon
0.604 0.604 0.604 scb
240 1.000 -3824 1888 -3824 1920 -4432 1920 -4432 1888 4 polygon
240 1.000 -4432 1792 -4432 1920 -4528 1920 -4528 1792 4 polygon
sce
1 1.000 -3824 1888 -4432 1888 -4432 1792 -4528 1792 -4528 1920 -3824 1920 6 
polygon
(Flange) {/Helvetica cf} 2 16 0 0.500 -4624 1880 label
(Flange) {/Helvetica cf} 2 16 0 0.500 -4512 1880 label
0.400 0.400 0.400 scb
240 1.000 -4704 1856 -4704 1824 -4368 1824 -4368 1856 4 polygon
sce
0 1.000 -4704 1856 -4704 1824 -4368 1824 -4368 1856 4 polygon
1 1.000 -4376 1856 -4368 1824 2 polygon
1 1.000 -4384 1856 -4376 1824 2 polygon
1 1.000 -4392 1856 -4384 1824 2 polygon
1 1.000 -4400 1856 -4392 1824 2 polygon
1 1.000 -4408 1856 -4400 1824 2 polygon
1 1.000 -4416 1856 -4408 1824 2 polygon
1 1.000 -4424 1856 -4416 1824 2 polygon
1 1.000 -4432 1856 -4424 1824 2 polygon
1 1.000 -4440 1856 -4432 1824 2 polygon
1 1.000 -4448 1856 -4440 1824 2 polygon
1 1.000 -4456 1856 -4448 1824 2 polygon
1 1.000 -4464 1856 -4456 1824 2 polygon
1 1.000 -4472 1856 -4464 1824 2 polygon
1 1.000 -4480 1856 -4472 1824 2 polygon
1 1.000 -4488 1856 -4480 1824 2 polygon
1 1.000 -4496 1856 -4488 1824 2 polygon
1 1.000 -4504 1856 -4496 1824 2 polygon
1 1.000 -4512 1856 -4504 1824 2 polygon
1 1.000 -4520 1856 -4512 1824 2 polygon
1 1.000 -4528 1856 -4520 1824 2 polygon
1 1.000 -4536 1856 -4528 1824 2 polygon
1 1.000 -4544 1856 -4536 1824 2 polygon
1 1.000 -4552 1856 -4544 1824 2 polygon
1 1.000 -4560 1856 -4552 1824 2 polygon
1 1.000 -4568 1856 -4560 1824 2 polygon
1 1.000 -4576 1856 -4568 1824 2 polygon
1 1.000 -4584 1856 -4576 1824 2 polygon
1 1.000 -4592 1856 -4584 1824 2 polygon
1 1.000 -4600 1856 -4592 1824 2 polygon
1 1.000 -4608 1856 -4600 1824 2 polygon
1 1.000 -4616 1856 -4608 1824 2 polygon
1 1.000 -4624 1856 -4616 1824 2 polygon
1 1.000 -4632 1856 -4624 1824 2 polygon
1 1.000 -4640 1856 -4632 1824 2 polygon
1 1.000 -4648 1856 -4640 1824 2 polygon
1 1.000 -4656 1856 -4648 1824 2 polygon
1 1.000 -4664 1856 -4656 1824 2 polygon
1 1.000 -4672 1856 -4664 1824 2 polygon
1 1.000 -4680 1856 -4672 1824 2 polygon
1 1.000 -4688 1856 -4680 1824 2 polygon
1 1.000 -4696 1856 -4688 1824 2 polygon
1 1.000 -4704 1856 -4696 1824 2 polygon
0.400 0.400 0.400 scb
240 1.000 -4432 1872 -4432 1808 -4408 1808 -4408 1872 4 polygon
sce
0 1.000 -4432 1872 -4432 1808 -4408 1808 -4408 1872 4 polygon
1 1.000 -4432 1860 -4408 1860 2 polygon
1 1.000 -4432 1820 -4408 1820 2 polygon
0.400 0.400 0.400 scb
240 1.000 -4664 1872 -4664 1808 -4640 1808 -4640 1872 4 polygon
sce
0 1.000 -4664 1872 -4664 1808 -4640 1808 -4640 1872 4 polygon
1 1.000 -4664 1820 -4640 1820 2 polygon
1 1.000 -4664 1860 -4640 1860 2 polygon
(Stud) {/Helvetica cf} 2 16 0 1.000 -4272 1832 label
1.000 270 -4320 1840 generic::arrow
1.000 300 -4368 1784 generic::arrow
(Nut) {/Helvetica cf} 2 16 0 1.000 -4328 1736 label
-1.000 /sv 60 -4704 1784 generic::arrow
(Nut) {/Helvetica cf} 2 19 0 1.000 -4744 1736 label
(Pipe wall) {/Helvetica cf} 2 16 0 0.500 -5012 1900 label
0.000 0.000 1.000 scb
1 1.000 -5216 2280 -4720 2280 2 polygon
1 1.000 -4728 2288 -4720 2280 -4728 2272 3 polygon
1 1.000 -5216 2256 -4720 2256 2 polygon
1 1.000 -4728 2264 -4720 2256 -4728 2248 3 polygon
1 1.000 -5216 2232 -4720 2232 2 polygon
1 1.000 -4728 2240 -4720 2232 -4728 2224 3 polygon
1 1.000 -5216 2208 -4720 2208 2 polygon
1 1.000 -4728 2216 -4720 2208 -4728 2200 3 polygon
1 1.000 -5216 2184 -4720 2184 2 polygon
1 1.000 -4728 2192 -4720 2184 -4728 2176 3 polygon
1 1.000 -5216 2160 -4720 2160 2 polygon
1 1.000 -4728 2168 -4720 2160 -4728 2152 3 polygon
1 1.000 -5216 2136 -4720 2136 2 polygon
1 1.000 -4728 2144 -4720 2136 -4728 2128 3 polygon
1 1.000 -5216 2112 -4720 2112 2 polygon
1 1.000 -4728 2120 -4720 2112 -4728 2104 3 polygon
1 1.000 -5216 2088 -4720 2088 2 polygon
1 1.000 -4728 2096 -4720 2088 -4728 2080 3 polygon
1 1.000 -5216 2064 -4720 2064 2 polygon
1 1.000 -4728 2072 -4720 2064 -4728 2056 3 polygon
1 1.000 -5216 2040 -4720 2040 2 polygon
1 1.000 -4728 2048 -4720 2040 -4728 2032 3 polygon
1 1.000 -5216 2016 -4720 2016 2 polygon
1 1.000 -4728 2024 -4720 2016 -4728 2008 3 polygon
1 1.000 -5216 1992 -4720 1992 2 polygon
1 1.000 -4728 2000 -4720 1992 -4728 1984 3 polygon
1 1.000 -5216 1968 -4720 1968 2 polygon
1 1.000 -4728 1976 -4720 1968 -4728 1960 3 polygon
1 1.000 -5216 1944 -4720 1944 2 polygon
1 1.000 -4728 1952 -4720 1944 -4728 1936 3 polygon
1 1.000 -4640 2272 -4616 2184 -4528 2168 -4704 2280 spline
1 1.000 -4704 2112 -4528 2112 2 polygon
1 1.000 -4656 2224 -4616 2168 -4528 2152 -4704 2232 spline
1 1.000 -4664 2208 -4640 2160 -4528 2144 -4704 2208 spline
1 1.000 -4648 2248 -4616 2176 -4528 2160 -4704 2256 spline
1 1.000 -4648 2184 -4640 2144 -4528 2136 -4704 2184 spline
1 1.000 -4640 2160 -4640 2136 -4528 2128 -4704 2160 spline
1 1.000 -4600 2120 -4632 2136 -4704 2136 -4528 2120 spline
1 1.000 -4640 1952 -4616 2040 -4528 2056 -4704 1944 spline
1 1.000 -4656 2000 -4616 2056 -4528 2072 -4704 1992 spline
1 1.000 -4664 2016 -4640 2064 -4528 2080 -4704 2016 spline
1 1.000 -4648 1976 -4616 2048 -4528 2064 -4704 1968 spline
1 1.000 -4648 2040 -4640 2080 -4528 2088 -4704 2040 spline
1 1.000 -4640 2064 -4640 2088 -4528 2096 -4704 2064 spline
1 1.000 -4600 2104 -4632 2088 -4704 2088 -4528 2104 spline
1 1.000 -4624 2248 -4592 2272 -4608 2288 -4648 2264 spline
1 1.000 -4616 2304 -4664 2296 -4640 2272 -4608 2288 spline
1 1.000 -4648 2272 -4640 2272 -4640 2280 3 polygon
1 1.000 -4616 1920 -4664 1928 -4640 1952 -4608 1936 spline
1 1.000 -4648 1952 -4640 1952 -4640 1944 3 polygon
1 1.000 -4624 1976 -4592 1952 -4608 1936 -4648 1960 spline
1 1.000 -4592 2216 -4552 2224 -4560 2248 -4608 2232 spline
1 1.000 -4568 2272 -4624 2264 -4592 2232 -4560 2248 spline
1 1.000 -4600 2232 -4592 2232 -4592 2240 3 polygon
1 1.000 -4592 2008 -4552 2000 -4560 1976 -4608 1992 spline
1 1.000 -4568 1952 -4624 1960 -4592 1992 -4560 1976 spline
1 1.000 -4600 1992 -4592 1992 -4592 1984 3 polygon
1 1.000 -4528 2112 -3880 2112 2 polygon
1 1.000 -4304 2112 -4240 2112 -3880 2128 -4528 2120 spline
1 1.000 -4336 2120 -4272 2112 -3880 2144 -4528 2128 spline
1 1.000 -4336 2128 -4272 2120 -3880 2160 -4528 2136 spline
1 1.000 -4336 2136 -4272 2128 -3880 2176 -4528 2144 spline
1 1.000 -4288 2144 -4272 2144 -3880 2192 -4528 2152 spline
1 1.000 -4336 2160 -4272 2136 -3880 2208 -4528 2160 spline
1 1.000 -4336 2168 -4272 2144 -3880 2224 -4528 2168 spline
1 1.000 -3888 2228 -3880 2224 -3888 2216 3 polygon
1 1.000 -3888 2212 -3880 2208 -3888 2200 3 polygon
1 1.000 -3888 2196 -3880 2192 -3888 2188 3 polygon
1 1.000 -3888 2180 -3880 2176 -3888 2172 3 polygon
1 1.000 -3888 2164 -3880 2160 -3888 2152 3 polygon
1 1.000 -3888 2148 -3880 2144 -3888 2140 3 polygon
1 1.000 -3888 2132 -3880 2128 -3888 2124 3 polygon
1 1.000 -3888 2116 -3880 2112 -3888 2108 3 polygon
1 1.000 -4304 2112 -4240 2112 -3880 2096 -4528 2104 spline
1 1.000 -4336 2104 -4272 2112 -3880 2080 -4528 2096 spline
1 1.000 -4336 2096 -4272 2104 -3880 2064 -4528 2088 spline
1 1.000 -4336 2088 -4272 2096 -3880 2048 -4528 2080 spline
1 1.000 -4288 2080 -4272 2080 -3880 2032 -4528 2072 spline
1 1.000 -4336 2064 -4272 2088 -3880 2016 -4528 2064 spline
1 1.000 -4336 2056 -4272 2080 -3880 2000 -4528 2056 spline
1 1.000 -3888 1996 -3880 2000 -3888 2008 3 polygon
1 1.000 -3888 2012 -3880 2016 -3888 2024 3 polygon
1 1.000 -3888 2028 -3880 2032 -3888 2036 3 polygon
1 1.000 -3888 2044 -3880 2048 -3888 2052 3 polygon
1 1.000 -3888 2060 -3880 2064 -3888 2072 3 polygon
1 1.000 -3888 2076 -3880 2080 -3888 2084 3 polygon
1 1.000 -3888 2092 -3880 2096 -3888 2100 3 polygon
1 1.000 -4232 2240 -4288 2232 -4256 2200 -4224 2216 spline
1 1.000 -4264 2200 -4256 2200 -4256 2208 3 polygon
1 1.000 -4256 2184 -4216 2192 -4224 2216 -4272 2200 spline
1 1.000 -4120 2256 -4176 2248 -4144 2216 -4112 2232 spline
1 1.000 -4152 2216 -4144 2216 -4144 2224 3 polygon
1 1.000 -4144 2200 -4104 2208 -4112 2232 -4160 2216 spline
1 1.000 -4008 2272 -4064 2264 -4032 2232 -4000 2248 spline
1 1.000 -4040 2232 -4032 2232 -4032 2240 3 polygon
1 1.000 -4032 2216 -3992 2224 -4000 2248 -4048 2232 spline
1 1.000 -3912 2288 -3968 2280 -3936 2248 -3904 2264 spline
1 1.000 -3944 2248 -3936 2248 -3936 2256 3 polygon
1 1.000 -3936 2232 -3896 2240 -3904 2264 -3952 2248 spline
1 1.000 -4184 2304 -4240 2296 -4208 2264 -4176 2280 spline
1 1.000 -4216 2264 -4208 2264 -4208 2272 3 polygon
1 1.000 -4208 2248 -4168 2256 -4176 2280 -4224 2264 spline
1 1.000 -4280 2304 -4336 2296 -4304 2264 -4272 2280 spline
1 1.000 -4312 2264 -4304 2264 -4304 2272 3 polygon
1 1.000 -4304 2248 -4264 2256 -4272 2280 -4320 2264 spline
1 1.000 -4072 2304 -4128 2296 -4096 2264 -4064 2280 spline
1 1.000 -4104 2264 -4096 2264 -4096 2272 3 polygon
1 1.000 -4096 2248 -4056 2256 -4064 2280 -4112 2264 spline
1 1.000 -4008 1952 -4064 1960 -4032 1992 -4000 1976 spline
1 1.000 -4040 1992 -4032 1992 -4032 1984 3 polygon
1 1.000 -4032 2008 -3992 2000 -4000 1976 -4048 1992 spline
1 1.000 -3912 1936 -3968 1944 -3936 1976 -3904 1960 spline
1 1.000 -3944 1976 -3936 1976 -3936 1968 3 polygon
1 1.000 -3936 1992 -3896 1984 -3904 1960 -3952 1976 spline
1 1.000 -4184 1920 -4240 1928 -4208 1960 -4176 1944 spline
1 1.000 -4216 1960 -4208 1960 -4208 1952 3 polygon
1 1.000 -4208 1976 -4168 1968 -4176 1944 -4224 1960 spline
1 1.000 -4280 1920 -4336 1928 -4304 1960 -4272 1944 spline
1 1.000 -4312 1960 -4304 1960 -4304 1952 3 polygon
1 1.000 -4304 1976 -4264 1968 -4272 1944 -4320 1960 spline
1 1.000 -4072 1920 -4128 1928 -4096 1960 -4064 1944 spline
1 1.000 -4104 1960 -4096 1960 -4096 1952 3 polygon
1 1.000 -4096 1976 -4056 1968 -4064 1944 -4112 1960 spline
1 1.000 -4120 1968 -4176 1976 -4144 2008 -4112 1992 spline
1 1.000 -4152 2008 -4144 2008 -4144 2000 3 polygon
1 1.000 -4144 2024 -4104 2016 -4112 1992 -4160 2008 spline
0.604 0.604 0.604 scb
240 1.000 -4640 2432 -4640 2304 -4544 2304 -4544 2432 4 polygon
240 1.000 -4432 2432 -4432 2304 -4528 2304 -4528 2432 4 polygon
sce
(Flange) {/Helvetica cf} 2 28 0 0.500 -4512 2344 label
1 1.000 -4552 2368 -4544 2400 2 polygon
0.400 0.400 0.400 scb
240 1.000 -4704 2368 -4704 2400 -4368 2400 -4368 2368 4 polygon
sce
0 1.000 -4704 2368 -4704 2400 -4368 2400 -4368 2368 4 polygon
1 1.000 -4704 2400 -4696 2368 2 polygon
1 1.000 -4696 2400 -4688 2368 2 polygon
1 1.000 -4688 2400 -4680 2368 2 polygon
1 1.000 -4680 2400 -4672 2368 2 polygon
1 1.000 -4672 2400 -4664 2368 2 polygon
1 1.000 -4664 2400 -4656 2368 2 polygon
1 1.000 -4656 2400 -4648 2368 2 polygon
1 1.000 -4648 2400 -4640 2368 2 polygon
1 1.000 -4640 2400 -4632 2368 2 polygon
1 1.000 -4632 2400 -4624 2368 2 polygon
1 1.000 -4624 2400 -4616 2368 2 polygon
1 1.000 -4616 2400 -4608 2368 2 polygon
1 1.000 -4608 2400 -4600 2368 2 polygon
1 1.000 -4600 2400 -4592 2368 2 polygon
1 1.000 -4592 2400 -4584 2368 2 polygon
1 1.000 -4584 2400 -4576 2368 2 polygon
1 1.000 -4576 2400 -4568 2368 2 polygon
1 1.000 -4568 2400 -4560 2368 2 polygon
1 1.000 -4560 2400 -4552 2368 2 polygon
1 1.000 -4552 2400 -4544 2368 2 polygon
1 1.000 -4544 2400 -4536 2368 2 polygon
1 1.000 -4536 2400 -4528 2368 2 polygon
1 1.000 -4528 2400 -4520 2368 2 polygon
1 1.000 -4520 2400 -4512 2368 2 polygon
1 1.000 -4512 2400 -4504 2368 2 polygon
1 1.000 -4504 2400 -4496 2368 2 polygon
1 1.000 -4496 2400 -4488 2368 2 polygon
1 1.000 -4488 2400 -4480 2368 2 polygon
1 1.000 -4480 2400 -4472 2368 2 polygon
1 1.000 -4472 2400 -4464 2368 2 polygon
1 1.000 -4464 2400 -4456 2368 2 polygon
1 1.000 -4456 2400 -4448 2368 2 polygon
1 1.000 -4448 2400 -4440 2368 2 polygon
1 1.000 -4440 2400 -4432 2368 2 polygon
1 1.000 -4432 2400 -4424 2368 2 polygon
1 1.000 -4424 2400 -4416 2368 2 polygon
1 1.000 -4416 2400 -4408 2368 2 polygon
1 1.000 -4408 2400 -4400 2368 2 polygon
1 1.000 -4400 2400 -4392 2368 2 polygon
1 1.000 -4392 2400 -4384 2368 2 polygon
1 1.000 -4384 2400 -4376 2368 2 polygon
1 1.000 -4376 2400 -4368 2368 2 polygon
0.400 0.400 0.400 scb
240 1.000 -4432 2416 -4432 2352 -4408 2352 -4408 2416 4 polygon
sce
0 1.000 -4432 2416 -4432 2352 -4408 2352 -4408 2416 4 polygon
1 1.000 -4432 2404 -4408 2404 2 polygon
1 1.000 -4432 2364 -4408 2364 2 polygon
0.400 0.400 0.400 scb
240 1.000 -4664 2416 -4664 2352 -4640 2352 -4640 2416 4 polygon
sce
0 1.000 -4664 2416 -4664 2352 -4640 2352 -4640 2416 4 polygon
1 1.000 -4664 2404 -4640 2404 2 polygon
1 1.000 -4664 2364 -4640 2364 2 polygon
0.400 0.400 0.400 scb
241 1.000 -4544 2208 -4496 2176 -4384 2176 -4544 2304 spline
1.000 1.000 1.000 scb
241 1.000 -4528 2208 -4464 2192 -4384 2192 -4528 2304 spline
0.400 0.400 0.400 scb
240 1.000 -4544 2464 -4544 2304 -4528 2304 -4528 2464 4 polygon
sce
1 1.000 -4544 2304 -4544 2464 -4528 2464 -4528 2304 4 polygon
0.400 0.400 0.400 scb
241 1.000 -4544 2304 -4528 2288 -4528 2304 -4544 2304 4 polygon
241 1.000 -4408 2192 -4384 2176 -4384 2192 -4408 2192 4 polygon
sce
1 1.000 -4528 2208 -4464 2192 -4384 2192 -4528 2304 spline
1 1.000 -4544 2208 -4496 2176 -4384 2176 -4544 2304 spline
0.000 0.000 1.000 scb
1 1.000 -4232 1992 -4288 2000 -4256 2032 -4224 2016 spline
1 1.000 -4264 2032 -4256 2032 -4256 2024 3 polygon
1 1.000 -4256 2048 -4216 2040 -4224 2016 -4272 2032 spline
0.400 0.400 0.400 scb
240 1.000 -4384 2192 -4384 2176 -4328 2176 -4328 2192 4 polygon
sce
1 1.000 -4384 2192 -4328 2192 -4328 2176 -4384 2176 4 polygon
(Flow nozzle) {/Helvetica-Bold cf} 2 16 0 2.000 -4264 2632 label
0.604 0.604 0.604 scb
240 1.000 -3824 2336 -3824 2304 -4432 2304 -4432 2336 4 polygon
sce
1 1.000 -3824 2336 -4432 2336 -4432 2432 -4528 2432 -4528 2304 -3824 2304 6 
polygon
0.604 0.604 0.604 scb
240 1.000 -5248 2336 -5248 2304 -4640 2304 -4640 2336 4 polygon
sce
1 1.000 -5248 2336 -4640 2336 -4640 2432 -4544 2432 -4544 2304 -5248 2304 6 
polygon
(Pipe wall) {/Helvetica cf} 2 16 0 0.500 -5012 2316 label
(Flange) {/Helvetica cf} 2 16 0 0.500 -4620 2332 label
1.000 0 -4544 2704 ::dp_cell
1 2.000 -4576 2640 -4920 2640 -4920 2304 3 polygon
1 4.000 -4920 2304 -4920 2384 2 polygon
1 4.000 -4328 2304 -4328 2384 2 polygon
1 2.000 -4328 2304 -4328 2640 -4496 2640 3 polygon
0.000 0.000 1.000 scb
1 1.000 -3416 2260 -3408 2256 -3416 2252 3 polygon
1 1.000 -3416 2236 -3408 2240 -3416 2244 3 polygon
sce
1.000 0 -3440 2488 ::dp_cell
0.604 0.604 0.604 scb
240 1.000 -3648 2304 -3648 2272 -3504 2272 -3504 2304 4 polygon
240 1.000 -3488 2304 -3488 2272 -3392 2272 -3392 2304 4 polygon
240 1.000 -3360 2304 -3360 2272 -2704 2272 -2704 2304 4 polygon
240 1.000 -3648 1952 -3648 1920 -2704 1920 -2704 1952 4 polygon
sce
0 1.000 -3648 2304 -3648 2272 -3504 2272 -3504 2304 4 polygon
0 1.000 -3488 2304 -3488 2272 -3392 2272 -3392 2304 4 polygon
0 1.000 -3360 2304 -3360 2272 -2704 2272 -2704 2304 4 polygon
0 1.000 -3648 1952 -3648 1920 -2704 1920 -2704 1952 4 polygon
1 4.000 -3296 2128 -3360 2176 -3360 2304 -3216 2128 spline
1 4.000 -3392 2112 -3296 2096 -3216 2096 -3392 2304 spline
1 4.000 -3216 2128 -3088 2192 -3072 2128 3 polygon
1 4.000 -3216 2096 -3088 2032 -3072 2096 3 polygon
0.604 0.604 0.604 scb
1 2.000 -3296 2128 -3360 2176 -3360 2304 -3216 2128 spline
1 2.000 -3392 2112 -3296 2096 -3216 2096 -3392 2304 spline
1 2.000 -3216 2128 -3088 2192 -3072 2128 3 polygon
1 2.000 -3216 2096 -3088 2032 -3072 2096 3 polygon
sce
1 1.000 -3504 2304 -3504 2320 -3488 2320 -3488 2304 4 polygon
1 1.000 -3392 2304 -3392 2320 -3360 2320 -3360 2304 4 polygon
1 2.000 -3496 2320 -3496 2336 -3520 2336 -3520 2424 -3472 2424 5 polygon
1 2.000 -3392 2424 -3344 2424 -3344 2336 -3376 2336 -3376 2320 5 polygon
0.000 0.000 1.000 scb
1 1.000 -3408 2256 -3632 2256 2 polygon
1 1.000 -3408 2240 -3632 2240 2 polygon
1 1.000 -3416 2228 -3408 2224 -3416 2220 3 polygon
1 1.000 -3416 2204 -3408 2208 -3416 2212 3 polygon
1 1.000 -3408 2224 -3632 2224 2 polygon
1 1.000 -3408 2208 -3632 2208 2 polygon
1 1.000 -3416 2196 -3408 2192 -3416 2188 3 polygon
1 1.000 -3416 2172 -3408 2176 -3416 2180 3 polygon
1 1.000 -3408 2192 -3632 2192 2 polygon
1 1.000 -3408 2176 -3632 2176 2 polygon
1 1.000 -3416 2164 -3408 2160 -3416 2156 3 polygon
1 1.000 -3416 2140 -3408 2144 -3416 2148 3 polygon
1 1.000 -3408 2160 -3632 2160 2 polygon
1 1.000 -3408 2144 -3632 2144 2 polygon
1 1.000 -3416 2132 -3408 2128 -3416 2124 3 polygon
1 1.000 -3416 2108 -3408 2112 -3416 2116 3 polygon
1 1.000 -3408 2128 -3632 2128 2 polygon
1 1.000 -3408 2112 -3632 2112 2 polygon
1 1.000 -3416 2100 -3408 2096 -3416 2092 3 polygon
1 1.000 -3416 2076 -3408 2080 -3416 2084 3 polygon
1 1.000 -3408 2096 -3632 2096 2 polygon
1 1.000 -3408 2080 -3632 2080 2 polygon
1 1.000 -3416 2068 -3408 2064 -3416 2060 3 polygon
1 1.000 -3416 2044 -3408 2048 -3416 2052 3 polygon
1 1.000 -3408 2064 -3632 2064 2 polygon
1 1.000 -3408 2048 -3632 2048 2 polygon
1 1.000 -3416 2036 -3408 2032 -3416 2028 3 polygon
1 1.000 -3416 2012 -3408 2016 -3416 2020 3 polygon
1 1.000 -3408 2032 -3632 2032 2 polygon
1 1.000 -3408 2016 -3632 2016 2 polygon
1 1.000 -3416 2004 -3408 2000 -3416 1996 3 polygon
1 1.000 -3416 1980 -3408 1984 -3416 1988 3 polygon
1 1.000 -3408 2000 -3632 2000 2 polygon
1 1.000 -3408 1984 -3632 1984 2 polygon
1 1.000 -3416 1964 -3408 1968 -3416 1972 3 polygon
1 1.000 -3408 1968 -3632 1968 2 polygon
1 1.000 -3264 2080 -3216 2080 -3120 2032 -3392 2080 spline
1 1.000 -3127 2031 -3119 2031 -3123 2038 3 polygon
1 1.000 -3256 2064 -3200 2056 -3120 2024 -3392 2064 spline
1 1.000 -3392 1968 -3120 1968 2 polygon
1 1.000 -3392 1984 -3120 1984 2 polygon
1 1.000 -3312 2048 -3200 2048 -3120 2016 -3392 2048 spline
1 1.000 -3296 2032 -3200 2032 -3120 2008 -3392 2032 spline
1 1.000 -3312 2016 -3192 2016 -3120 2000 -3392 2016 spline
1 1.000 -3376 2000 -3192 2000 -3120 1992 -3392 2000 spline
1 1.000 -3127 2023 -3119 2023 -3123 2030 3 polygon
1 1.000 -3127 2015 -3119 2015 -3123 2022 3 polygon
1 1.000 -3127 2007 -3119 2007 -3123 2014 3 polygon
1 1.000 -3127 1999 -3119 1999 -3123 2006 3 polygon
1 1.000 -3127 1990 -3119 1992 -3125 1998 3 polygon
1 1.000 -3127 1980 -3120 1984 -3127 1988 3 polygon
1 1.000 -3127 1964 -3120 1968 -3127 1972 3 polygon
1 1.000 -2980 1988 -2840 2104 -2720 2104 -3104 2024 spline
1 1.000 -2996 1976 -2828 2084 -2720 2088 -3104 2016 spline
1 1.000 -3028 1964 -2800 2068 -2720 2076 -3104 2008 spline
1 1.000 -3008 1956 -2804 2056 -2720 2064 -3104 2000 spline
1 1.000 -3016 1948 -2788 2040 -2720 2048 -3104 1992 spline
1 1.000 -2992 1948 -2816 2020 -2720 2032 -3104 1980 spline
1 1.000 -2984 1944 -2804 2004 -2720 2016 -3104 1968 spline
1 1.000 -2728 2108 -2720 2104 -2728 2100 3 polygon
1 1.000 -2728 2092 -2720 2088 -2728 2084 3 polygon
1 1.000 -2728 2080 -2720 2076 -2728 2072 3 polygon
1 1.000 -2728 2068 -2720 2064 -2728 2060 3 polygon
1 1.000 -2728 2052 -2720 2048 -2728 2044 3 polygon
1 1.000 -2728 2036 -2720 2032 -2728 2028 3 polygon
1 1.000 -2728 2020 -2720 2016 -2728 2012 3 polygon
1 1.000 -2980 2236 -2840 2120 -2720 2120 -3104 2200 spline
1 1.000 -2996 2248 -2828 2140 -2720 2136 -3104 2208 spline
1 1.000 -3028 2260 -2800 2156 -2720 2148 -3104 2216 spline
1 1.000 -3008 2268 -2804 2168 -2720 2160 -3104 2224 spline
1 1.000 -3016 2276 -2788 2184 -2720 2176 -3104 2232 spline
1 1.000 -2992 2276 -2816 2204 -2720 2192 -3104 2244 spline
1 1.000 -2984 2280 -2804 2220 -2720 2208 -3104 2256 spline
1 1.000 -2728 2116 -2720 2120 -2728 2124 3 polygon
1 1.000 -2728 2132 -2720 2136 -2728 2140 3 polygon
1 1.000 -2728 2144 -2720 2148 -2728 2152 3 polygon
1 1.000 -2728 2156 -2720 2160 -2728 2164 3 polygon
1 1.000 -2728 2172 -2720 2176 -2728 2180 3 polygon
1 1.000 -2728 2188 -2720 2192 -2728 2196 3 polygon
1 1.000 -2728 2204 -2720 2208 -2728 2212 3 polygon
1 1.000 -3264 2144 -3216 2144 -3120 2192 -3392 2144 spline
1 1.000 -3127 2193 -3119 2193 -3123 2186 3 polygon
1 1.000 -3256 2160 -3200 2168 -3120 2200 -3392 2160 spline
1 1.000 -3392 2256 -3120 2256 2 polygon
1 1.000 -3392 2240 -3120 2240 2 polygon
1 1.000 -3312 2176 -3200 2176 -3120 2208 -3392 2176 spline
1 1.000 -3296 2192 -3200 2192 -3120 2216 -3392 2192 spline
1 1.000 -3312 2208 -3192 2208 -3120 2224 -3392 2208 spline
1 1.000 -3376 2224 -3192 2224 -3120 2232 -3392 2224 spline
1 1.000 -3127 2201 -3119 2201 -3123 2194 3 polygon
1 1.000 -3127 2209 -3119 2209 -3123 2202 3 polygon
1 1.000 -3127 2217 -3119 2217 -3123 2210 3 polygon
1 1.000 -3127 2225 -3119 2225 -3123 2218 3 polygon
1 1.000 -3127 2234 -3119 2232 -3125 2226 3 polygon
1 1.000 -3127 2244 -3120 2240 -3127 2236 3 polygon
1 1.000 -3127 2260 -3120 2256 -3127 2252 3 polygon
sce
(V-cone) {/Helvetica-Bold cf} 2 16 0 2.000 -3216 2464 label
1.000 0 -3216 1280 ::dp_cell
0.604 0.604 0.604 scb
240 1.000 -3648 736 -3648 704 -2704 704 -2704 736 4 polygon
sce
0 1.000 -3648 736 -3648 704 -2704 704 -2704 736 4 polygon
0.604 0.604 0.604 scb
240 1.000 -3648 1088 -3648 1056 -2704 1056 -2704 1088 4 polygon
sce
0 1.000 -3648 1088 -3648 1056 -2704 1056 -2704 1088 4 polygon
0.604 0.604 0.604 scb
241 1.000 -3392 1056 -3200 928 -3008 1056 -3392 1056 4 polygon
sce
1 1.000 -3392 1056 -3200 928 -3008 1056 3 polygon
1 2.000 -3248 1216 -3488 1216 -3488 1056 3 polygon
1 4.000 -3488 1056 -3488 1120 2 polygon
1 4.000 -2928 1056 -2928 1120 2 polygon
1 2.000 -3168 1216 -2928 1216 -2928 1056 3 polygon
(Segmental wedge) {/Helvetica-Bold cf} 2 16 0 2.000 -3616 1456 label
0.604 0.604 0.604 scb
240 1.000 -5248 1104 -5248 1072 -4640 1072 -4640 1104 4 polygon
0.400 0.400 0.400 scb
240 1.000 -4544 1328 -4544 944 -4528 944 -4528 1328 4 polygon
sce
0 1.000 -4544 1328 -4544 944 -4528 944 -4528 1328 4 polygon
0.604 0.604 0.604 scb
240 1.000 -5248 656 -5248 688 -4640 688 -4640 656 4 polygon
240 1.000 -4640 560 -4640 688 -4544 688 -4544 560 4 polygon
sce
1 1.000 -5248 656 -4640 656 -4640 560 -4544 560 -4544 688 -5248 688 6 polygon
0.604 0.604 0.604 scb
240 1.000 -3824 656 -3824 688 -4432 688 -4432 656 4 polygon
240 1.000 -4432 560 -4432 688 -4528 688 -4528 560 4 polygon
sce
1 1.000 -3824 656 -4432 656 -4432 560 -4528 560 -4528 688 -3824 688 6 polygon
0.400 0.400 0.400 scb
240 1.000 -4544 816 -4544 576 -4528 576 -4528 816 4 polygon
sce
0 1.000 -4544 816 -4544 576 -4528 576 -4528 816 4 polygon
0.604 0.604 0.604 scb
240 1.000 -4640 1200 -4640 1072 -4608 1072 -4608 1200 4 polygon
240 1.000 -4576 1200 -4576 1072 -4544 1072 -4544 1200 4 polygon
241 1.000 -4608 1200 -4600 1192 -4608 1184 -4600 1176 -4608 1168 -4600 1160 
-4608 1152 -4600 1144 -4608 1136 -4608 1200 10 polygon
241 1.000 -4576 1200 -4584 1192 -4576 1184 -4584 1176 -4576 1168 -4584 1160 
-4576 1152 -4584 1144 -4576 1136 -4576 1200 10 polygon
sce
1 1.000 -4608 1072 -4608 1136 -4600 1144 -4608 1152 -4600 1160 -4608 1168 -4600 
1176 -4608 1184 -4600 1192 -4608 1200 -4640 1200 -4640 1104 -5248 1104 13 
polygon
1 1.000 -5248 1072 -4608 1072 2 polygon
1 1.000 -4576 1072 -4576 1136 -4584 1144 -4576 1152 -4584 1160 -4576 1168 -4584 
1176 -4576 1184 -4584 1192 -4576 1200 -4544 1200 -4544 1072 -4576 1072 13 
polygon
0.604 0.604 0.604 scb
240 1.000 -3824 1104 -3824 1072 -4432 1072 -4432 1104 4 polygon
240 1.000 -4432 1200 -4432 1072 -4464 1072 -4464 1200 4 polygon
240 1.000 -4496 1200 -4496 1072 -4528 1072 -4528 1200 4 polygon
241 1.000 -4464 1200 -4472 1192 -4464 1184 -4472 1176 -4464 1168 -4472 1160 
-4464 1152 -4472 1144 -4464 1136 -4464 1200 10 polygon
241 1.000 -4496 1200 -4488 1192 -4496 1184 -4488 1176 -4496 1168 -4488 1160 
-4496 1152 -4488 1144 -4496 1136 -4496 1200 10 polygon
sce
1 1.000 -4464 1072 -4464 1136 -4472 1144 -4464 1152 -4472 1160 -4464 1168 -4472 
1176 -4464 1184 -4472 1192 -4464 1200 -4432 1200 -4432 1104 -3824 1104 13 
polygon
1 1.000 -3824 1072 -4464 1072 2 polygon
1 1.000 -4496 1072 -4496 1136 -4488 1144 -4496 1152 -4488 1160 -4496 1168 -4488 
1176 -4496 1184 -4488 1192 -4496 1200 -4528 1200 -4528 1072 -4496 1072 13 
polygon
(Orifice plate) {/Helvetica cf} 2 16 0 1.000 -4440 1272 label
(Flange) {/Helvetica cf} 2 16 0 0.500 -4624 648 label
(Flange) {/Helvetica cf} 2 16 0 0.500 -4512 648 label
1.000 255 -4488 1272 generic::arrow
0.400 0.400 0.400 scb
240 1.000 -4704 624 -4704 592 -4368 592 -4368 624 4 polygon
sce
0 1.000 -4704 624 -4704 592 -4368 592 -4368 624 4 polygon
1 1.000 -4376 624 -4368 592 2 polygon
1 1.000 -4384 624 -4376 592 2 polygon
1 1.000 -4392 624 -4384 592 2 polygon
1 1.000 -4400 624 -4392 592 2 polygon
1 1.000 -4408 624 -4400 592 2 polygon
1 1.000 -4416 624 -4408 592 2 polygon
1 1.000 -4424 624 -4416 592 2 polygon
1 1.000 -4432 624 -4424 592 2 polygon
1 1.000 -4440 624 -4432 592 2 polygon
1 1.000 -4448 624 -4440 592 2 polygon
1 1.000 -4456 624 -4448 592 2 polygon
1 1.000 -4464 624 -4456 592 2 polygon
1 1.000 -4472 624 -4464 592 2 polygon
1 1.000 -4480 624 -4472 592 2 polygon
1 1.000 -4488 624 -4480 592 2 polygon
1 1.000 -4496 624 -4488 592 2 polygon
1 1.000 -4504 624 -4496 592 2 polygon
1 1.000 -4512 624 -4504 592 2 polygon
1 1.000 -4520 624 -4512 592 2 polygon
1 1.000 -4528 624 -4520 592 2 polygon
1 1.000 -4536 624 -4528 592 2 polygon
1 1.000 -4544 624 -4536 592 2 polygon
1 1.000 -4552 624 -4544 592 2 polygon
1 1.000 -4560 624 -4552 592 2 polygon
1 1.000 -4568 624 -4560 592 2 polygon
1 1.000 -4576 624 -4568 592 2 polygon
1 1.000 -4584 624 -4576 592 2 polygon
1 1.000 -4592 624 -4584 592 2 polygon
1 1.000 -4600 624 -4592 592 2 polygon
1 1.000 -4608 624 -4600 592 2 polygon
1 1.000 -4616 624 -4608 592 2 polygon
1 1.000 -4624 624 -4616 592 2 polygon
1 1.000 -4632 624 -4624 592 2 polygon
1 1.000 -4640 624 -4632 592 2 polygon
1 1.000 -4648 624 -4640 592 2 polygon
1 1.000 -4656 624 -4648 592 2 polygon
1 1.000 -4664 624 -4656 592 2 polygon
1 1.000 -4672 624 -4664 592 2 polygon
1 1.000 -4680 624 -4672 592 2 polygon
1 1.000 -4688 624 -4680 592 2 polygon
1 1.000 -4696 624 -4688 592 2 polygon
1 1.000 -4704 624 -4696 592 2 polygon
0.400 0.400 0.400 scb
240 1.000 -4432 640 -4432 576 -4408 576 -4408 640 4 polygon
sce
0 1.000 -4432 640 -4432 576 -4408 576 -4408 640 4 polygon
1 1.000 -4432 628 -4408 628 2 polygon
1 1.000 -4432 588 -4408 588 2 polygon
0.400 0.400 0.400 scb
240 1.000 -4664 640 -4664 576 -4640 576 -4640 640 4 polygon
sce
0 1.000 -4664 640 -4664 576 -4640 576 -4640 640 4 polygon
1 1.000 -4664 588 -4640 588 2 polygon
1 1.000 -4664 628 -4640 628 2 polygon
(Stud) {/Helvetica cf} 2 16 0 1.000 -4272 600 label
1.000 270 -4320 608 generic::arrow
1.000 300 -4368 552 generic::arrow
(Nut) {/Helvetica cf} 2 16 0 1.000 -4328 504 label
0.400 0.400 0.400 scb
240 1.000 -4664 1184 -4664 1120 -4640 1120 -4640 1184 4 polygon
sce
0 1.000 -4664 1184 -4664 1120 -4640 1120 -4640 1184 4 polygon
1 1.000 -4664 1172 -4640 1172 2 polygon
1 1.000 -4664 1132 -4640 1132 2 polygon
0.400 0.400 0.400 scb
240 1.000 -4704 1168 -4704 1136 -4664 1136 -4664 1168 4 polygon
sce
1 1.000 -4704 1168 -4696 1136 2 polygon
0 1.000 -4704 1168 -4704 1136 -4664 1136 -4664 1168 4 polygon
1 1.000 -4696 1168 -4688 1136 2 polygon
1 1.000 -4688 1168 -4680 1136 2 polygon
1 1.000 -4680 1168 -4672 1136 2 polygon
1 1.000 -4672 1168 -4664 1136 2 polygon
0.400 0.400 0.400 scb
240 1.000 -4408 1184 -4408 1120 -4432 1120 -4432 1184 4 polygon
sce
0 1.000 -4408 1184 -4408 1120 -4432 1120 -4432 1184 4 polygon
1 1.000 -4408 1172 -4432 1172 2 polygon
1 1.000 -4408 1132 -4432 1132 2 polygon
0.400 0.400 0.400 scb
240 1.000 -4368 1168 -4368 1136 -4408 1136 -4408 1168 4 polygon
sce
1 1.000 -4408 1168 -4400 1136 2 polygon
0 1.000 -4368 1168 -4368 1136 -4408 1136 -4408 1168 4 polygon
1 1.000 -4400 1168 -4392 1136 2 polygon
1 1.000 -4392 1168 -4384 1136 2 polygon
1 1.000 -4384 1168 -4376 1136 2 polygon
1 1.000 -4376 1168 -4368 1136 2 polygon
-1.000 /sv 60 -4704 552 generic::arrow
(Nut) {/Helvetica cf} 2 19 0 1.000 -4744 504 label
(Pipe wall) {/Helvetica cf} 2 16 0 0.500 -5012 1084 label
(Pipe wall) {/Helvetica cf} 2 16 0 0.500 -5012 668 label
0.000 0.000 1.000 scb
1 1.000 -5216 1048 -4720 1048 2 polygon
1 1.000 -4728 1056 -4720 1048 -4728 1040 3 polygon
1 1.000 -5216 1024 -4720 1024 2 polygon
1 1.000 -4728 1032 -4720 1024 -4728 1016 3 polygon
1 1.000 -5216 1000 -4720 1000 2 polygon
1 1.000 -4728 1008 -4720 1000 -4728 992 3 polygon
1 1.000 -5216 976 -4720 976 2 polygon
1 1.000 -4728 984 -4720 976 -4728 968 3 polygon
1 1.000 -5216 952 -4720 952 2 polygon
1 1.000 -4728 960 -4720 952 -4728 944 3 polygon
1 1.000 -5216 928 -4720 928 2 polygon
1 1.000 -4728 936 -4720 928 -4728 920 3 polygon
1 1.000 -5216 904 -4720 904 2 polygon
1 1.000 -4728 912 -4720 904 -4728 896 3 polygon
1 1.000 -5216 880 -4720 880 2 polygon
1 1.000 -4728 888 -4720 880 -4728 872 3 polygon
1 1.000 -5216 856 -4720 856 2 polygon
1 1.000 -4728 864 -4720 856 -4728 848 3 polygon
1 1.000 -5216 832 -4720 832 2 polygon
1 1.000 -4728 840 -4720 832 -4728 824 3 polygon
1 1.000 -5216 808 -4720 808 2 polygon
1 1.000 -4728 816 -4720 808 -4728 800 3 polygon
1 1.000 -5216 784 -4720 784 2 polygon
1 1.000 -4728 792 -4720 784 -4728 776 3 polygon
1 1.000 -5216 760 -4720 760 2 polygon
1 1.000 -4728 768 -4720 760 -4728 752 3 polygon
1 1.000 -5216 736 -4720 736 2 polygon
1 1.000 -4728 744 -4720 736 -4728 728 3 polygon
1 1.000 -5216 712 -4720 712 2 polygon
1 1.000 -4728 720 -4720 712 -4728 704 3 polygon
1 1.000 -4640 1040 -4616 952 -4528 936 -4704 1048 spline
1 1.000 -4704 880 -4528 880 2 polygon
1 1.000 -4656 992 -4616 936 -4528 920 -4704 1000 spline
1 1.000 -4664 976 -4640 928 -4528 912 -4704 976 spline
1 1.000 -4648 1016 -4616 944 -4528 928 -4704 1024 spline
1 1.000 -4648 952 -4640 912 -4528 904 -4704 952 spline
1 1.000 -4640 928 -4640 904 -4528 896 -4704 928 spline
1 1.000 -4600 888 -4632 904 -4704 904 -4528 888 spline
1 1.000 -4640 720 -4616 808 -4528 824 -4704 712 spline
1 1.000 -4656 768 -4616 824 -4528 840 -4704 760 spline
1 1.000 -4664 784 -4640 832 -4528 848 -4704 784 spline
1 1.000 -4648 744 -4616 816 -4528 832 -4704 736 spline
1 1.000 -4648 808 -4640 848 -4528 856 -4704 808 spline
1 1.000 -4640 832 -4640 856 -4528 864 -4704 832 spline
1 1.000 -4600 872 -4632 856 -4704 856 -4528 872 spline
1 1.000 -4624 1016 -4592 1040 -4608 1056 -4648 1032 spline
1 1.000 -4616 1072 -4664 1064 -4640 1040 -4608 1056 spline
1 1.000 -4648 1040 -4640 1040 -4640 1048 3 polygon
1 1.000 -4616 688 -4664 696 -4640 720 -4608 704 spline
1 1.000 -4648 720 -4640 720 -4640 712 3 polygon
1 1.000 -4624 744 -4592 720 -4608 704 -4648 728 spline
1 1.000 -4592 984 -4552 992 -4560 1016 -4608 1000 spline
1 1.000 -4568 1040 -4624 1032 -4592 1000 -4560 1016 spline
1 1.000 -4600 1000 -4592 1000 -4592 1008 3 polygon
1 1.000 -4592 776 -4552 768 -4560 744 -4608 760 spline
1 1.000 -4568 720 -4624 728 -4592 760 -4560 744 spline
1 1.000 -4600 760 -4592 760 -4592 752 3 polygon
1 1.000 -4528 880 -3880 880 2 polygon
1 1.000 -4304 880 -4240 880 -3880 896 -4528 888 spline
1 1.000 -4336 888 -4272 880 -3880 912 -4528 896 spline
1 1.000 -4336 896 -4272 888 -3880 928 -4528 904 spline
1 1.000 -4336 904 -4272 896 -3880 944 -4528 912 spline
1 1.000 -4288 912 -4272 912 -3880 960 -4528 920 spline
1 1.000 -4336 928 -4272 904 -3880 976 -4528 928 spline
1 1.000 -4336 936 -4272 912 -3880 992 -4528 936 spline
1 1.000 -3888 996 -3880 992 -3888 984 3 polygon
1 1.000 -3888 980 -3880 976 -3888 968 3 polygon
1 1.000 -3888 964 -3880 960 -3888 956 3 polygon
1 1.000 -3888 948 -3880 944 -3888 940 3 polygon
1 1.000 -3888 932 -3880 928 -3888 920 3 polygon
1 1.000 -3888 916 -3880 912 -3888 908 3 polygon
1 1.000 -3888 900 -3880 896 -3888 892 3 polygon
1 1.000 -3888 884 -3880 880 -3888 876 3 polygon
1 1.000 -4304 880 -4240 880 -3880 864 -4528 872 spline
1 1.000 -4336 872 -4272 880 -3880 848 -4528 864 spline
1 1.000 -4336 864 -4272 872 -3880 832 -4528 856 spline
1 1.000 -4336 856 -4272 864 -3880 816 -4528 848 spline
1 1.000 -4288 848 -4272 848 -3880 800 -4528 840 spline
1 1.000 -4336 832 -4272 856 -3880 784 -4528 832 spline
1 1.000 -4336 824 -4272 848 -3880 768 -4528 824 spline
1 1.000 -3888 764 -3880 768 -3888 776 3 polygon
1 1.000 -3888 780 -3880 784 -3888 792 3 polygon
1 1.000 -3888 796 -3880 800 -3888 804 3 polygon
1 1.000 -3888 812 -3880 816 -3888 820 3 polygon
1 1.000 -3888 828 -3880 832 -3888 840 3 polygon
1 1.000 -3888 844 -3880 848 -3888 852 3 polygon
1 1.000 -3888 860 -3880 864 -3888 868 3 polygon
1 1.000 -4472 1008 -4528 1000 -4496 968 -4464 984 spline
1 1.000 -4504 968 -4496 968 -4496 976 3 polygon
1 1.000 -4496 952 -4456 960 -4464 984 -4512 968 spline
1 1.000 -4392 1008 -4448 1000 -4416 968 -4384 984 spline
1 1.000 -4424 968 -4416 968 -4416 976 3 polygon
1 1.000 -4416 952 -4376 960 -4384 984 -4432 968 spline
1 1.000 -4312 1008 -4368 1000 -4336 968 -4304 984 spline
1 1.000 -4344 968 -4336 968 -4336 976 3 polygon
1 1.000 -4336 952 -4296 960 -4304 984 -4352 968 spline
1 1.000 -4232 1008 -4288 1000 -4256 968 -4224 984 spline
1 1.000 -4264 968 -4256 968 -4256 976 3 polygon
1 1.000 -4256 952 -4216 960 -4224 984 -4272 968 spline
1 1.000 -4120 1024 -4176 1016 -4144 984 -4112 1000 spline
1 1.000 -4152 984 -4144 984 -4144 992 3 polygon
1 1.000 -4144 968 -4104 976 -4112 1000 -4160 984 spline
1 1.000 -4008 1040 -4064 1032 -4032 1000 -4000 1016 spline
1 1.000 -4040 1000 -4032 1000 -4032 1008 3 polygon
1 1.000 -4032 984 -3992 992 -4000 1016 -4048 1000 spline
1 1.000 -3912 1056 -3968 1048 -3936 1016 -3904 1032 spline
1 1.000 -3944 1016 -3936 1016 -3936 1024 3 polygon
1 1.000 -3936 1000 -3896 1008 -3904 1032 -3952 1016 spline
1 1.000 -4184 1072 -4240 1064 -4208 1032 -4176 1048 spline
1 1.000 -4216 1032 -4208 1032 -4208 1040 3 polygon
1 1.000 -4208 1016 -4168 1024 -4176 1048 -4224 1032 spline
1 1.000 -4280 1072 -4336 1064 -4304 1032 -4272 1048 spline
1 1.000 -4312 1032 -4304 1032 -4304 1040 3 polygon
1 1.000 -4304 1016 -4264 1024 -4272 1048 -4320 1032 spline
1 1.000 -4360 1072 -4416 1064 -4384 1032 -4352 1048 spline
1 1.000 -4392 1032 -4384 1032 -4384 1040 3 polygon
1 1.000 -4384 1016 -4344 1024 -4352 1048 -4400 1032 spline
1 1.000 -4440 1056 -4496 1048 -4464 1016 -4432 1032 spline
1 1.000 -4472 1016 -4464 1016 -4464 1024 3 polygon
1 1.000 -4464 1000 -4424 1008 -4432 1032 -4480 1016 spline
1 1.000 -4072 1072 -4128 1064 -4096 1032 -4064 1048 spline
1 1.000 -4104 1032 -4096 1032 -4096 1040 3 polygon
1 1.000 -4096 1016 -4056 1024 -4064 1048 -4112 1032 spline
1 1.000 -4008 720 -4064 728 -4032 760 -4000 744 spline
1 1.000 -4040 760 -4032 760 -4032 752 3 polygon
1 1.000 -4032 776 -3992 768 -4000 744 -4048 760 spline
1 1.000 -3912 704 -3968 712 -3936 744 -3904 728 spline
1 1.000 -3944 744 -3936 744 -3936 736 3 polygon
1 1.000 -3936 760 -3896 752 -3904 728 -3952 744 spline
1 1.000 -4184 688 -4240 696 -4208 728 -4176 712 spline
1 1.000 -4216 728 -4208 728 -4208 720 3 polygon
1 1.000 -4208 744 -4168 736 -4176 712 -4224 728 spline
1 1.000 -4280 688 -4336 696 -4304 728 -4272 712 spline
1 1.000 -4312 728 -4304 728 -4304 720 3 polygon
1 1.000 -4304 744 -4264 736 -4272 712 -4320 728 spline
1 1.000 -4360 688 -4416 696 -4384 728 -4352 712 spline
1 1.000 -4392 728 -4384 728 -4384 720 3 polygon
1 1.000 -4384 744 -4344 736 -4352 712 -4400 728 spline
1 1.000 -4456 704 -4512 712 -4480 744 -4448 728 spline
1 1.000 -4488 744 -4480 744 -4480 736 3 polygon
1 1.000 -4480 760 -4440 752 -4448 728 -4496 744 spline
1 1.000 -4072 688 -4128 696 -4096 728 -4064 712 spline
1 1.000 -4104 728 -4096 728 -4096 720 3 polygon
1 1.000 -4096 744 -4056 736 -4064 712 -4112 728 spline
1 1.000 -4120 736 -4176 744 -4144 776 -4112 760 spline
1 1.000 -4152 776 -4144 776 -4144 768 3 polygon
1 1.000 -4144 792 -4104 784 -4112 760 -4160 776 spline
1 1.000 -4472 752 -4528 760 -4496 792 -4464 776 spline
1 1.000 -4504 792 -4496 792 -4496 784 3 polygon
1 1.000 -4496 808 -4456 800 -4464 776 -4512 792 spline
1 1.000 -4392 752 -4448 760 -4416 792 -4384 776 spline
1 1.000 -4424 792 -4416 792 -4416 784 3 polygon
1 1.000 -4416 808 -4376 800 -4384 776 -4432 792 spline
1 1.000 -4312 752 -4368 760 -4336 792 -4304 776 spline
1 1.000 -4344 792 -4336 792 -4336 784 3 polygon
1 1.000 -4336 808 -4296 800 -4304 776 -4352 792 spline
1 1.000 -4232 752 -4288 760 -4256 792 -4224 776 spline
1 1.000 -4264 792 -4256 792 -4256 784 3 polygon
1 1.000 -4256 808 -4216 800 -4224 776 -4272 792 spline
sce
(Orifice plate) {/Helvetica-Bold cf} 2 16 0 2.000 -5168 1408 label
1.000 0 -4544 1456 ::dp_cell
1 1.000 -4576 1392 -4608 1392 -4608 1216 -4592 1216 -4592 1200 5 polygon
1 1.000 -4608 1200 -4576 1200 2 polygon
1 1.000 -4464 1200 -4496 1200 2 polygon
1 1.000 -4496 1392 -4464 1392 -4464 1216 -4480 1216 -4480 1200 5 polygon
0.400 0.400 0.400 scb
241 1.000 -4544 1920 -4528 1936 -4528 1920 -4544 1920 4 polygon
241 1.000 -4544 2016 -4496 2048 -4384 2048 -4544 1920 spline
1.000 1.000 1.000 scb
241 1.000 -4528 2016 -4464 2032 -4384 2032 -4528 1920 spline
sce
1 1.000 -4384 2032 -4328 2032 -4328 2048 -4384 2048 4 polygon
0.400 0.400 0.400 scb
240 1.000 -4384 2032 -4384 2048 -4328 2048 -4328 2032 4 polygon
241 1.000 -4408 2032 -4384 2048 -4384 2032 -4408 2032 4 polygon
240 1.000 -4544 1760 -4544 1920 -4528 1920 -4528 1760 4 polygon
sce
1 1.000 -4544 1920 -4544 1760 -4528 1760 -4528 1920 4 polygon
1 1.000 -4544 2016 -4496 2048 -4384 2048 -4544 1920 spline
1 1.000 -4528 2016 -4464 2032 -4384 2032 -4528 1920 spline
1 1.000 -4384 2048 -4328 2048 -4328 2032 -4384 2032 4 polygon
0.000 0.000 1.000 scb
1 1.000 -5136 3448 -4640 3448 2 polygon
1 1.000 -4648 3456 -4640 3448 -4648 3440 3 polygon
1 1.000 -5136 3424 -4640 3424 2 polygon
1 1.000 -4648 3432 -4640 3424 -4648 3416 3 polygon
1 1.000 -5136 3400 -4640 3400 2 polygon
1 1.000 -4648 3408 -4640 3400 -4648 3392 3 polygon
1 1.000 -5136 3376 -4640 3376 2 polygon
1 1.000 -4648 3384 -4640 3376 -4648 3368 3 polygon
1 1.000 -5136 3352 -4640 3352 2 polygon
1 1.000 -4648 3360 -4640 3352 -4648 3344 3 polygon
1 1.000 -5136 3328 -4640 3328 2 polygon
1 1.000 -4648 3336 -4640 3328 -4648 3320 3 polygon
1 1.000 -5136 3304 -4640 3304 2 polygon
1 1.000 -4648 3312 -4640 3304 -4648 3296 3 polygon
1 1.000 -5136 3280 -4640 3280 2 polygon
1 1.000 -4648 3288 -4640 3280 -4648 3272 3 polygon
1 1.000 -5136 3256 -4640 3256 2 polygon
1 1.000 -4648 3264 -4640 3256 -4648 3248 3 polygon
1 1.000 -5136 3232 -4640 3232 2 polygon
1 1.000 -4648 3240 -4640 3232 -4648 3224 3 polygon
1 1.000 -5136 3208 -4640 3208 2 polygon
1 1.000 -4648 3216 -4640 3208 -4648 3200 3 polygon
1 1.000 -5136 3184 -4640 3184 2 polygon
1 1.000 -4648 3192 -4640 3184 -4648 3176 3 polygon
1 1.000 -5136 3160 -4640 3160 2 polygon
1 1.000 -4648 3168 -4640 3160 -4648 3152 3 polygon
1 1.000 -5136 3136 -4640 3136 2 polygon
1 1.000 -4648 3144 -4640 3136 -4648 3128 3 polygon
1 1.000 -5136 3112 -4640 3112 2 polygon
1 1.000 -4648 3120 -4640 3112 -4648 3104 3 polygon
1 1.000 -2792 3456 -2784 3448 -2792 3440 3 polygon
1 1.000 -2792 3432 -2784 3424 -2792 3416 3 polygon
1 1.000 -2792 3408 -2784 3400 -2792 3392 3 polygon
1 1.000 -2792 3384 -2784 3376 -2792 3368 3 polygon
1 1.000 -2792 3360 -2784 3352 -2792 3344 3 polygon
1 1.000 -2792 3336 -2784 3328 -2792 3320 3 polygon
1 1.000 -2792 3312 -2784 3304 -2792 3296 3 polygon
1 1.000 -2792 3288 -2784 3280 -2792 3272 3 polygon
1 1.000 -2792 3264 -2784 3256 -2792 3248 3 polygon
1 1.000 -2792 3240 -2784 3232 -2792 3224 3 polygon
1 1.000 -2792 3216 -2784 3208 -2792 3200 3 polygon
1 1.000 -2792 3192 -2784 3184 -2792 3176 3 polygon
1 1.000 -2792 3168 -2784 3160 -2792 3152 3 polygon
1 1.000 -2792 3144 -2784 3136 -2792 3128 3 polygon
1 1.000 -2792 3120 -2784 3112 -2792 3104 3 polygon
1 1.000 -2784 3448 -2944 3448 2 polygon
1 1.000 -2784 3424 -2944 3424 2 polygon
1 1.000 -2784 3400 -2944 3400 2 polygon
1 1.000 -2784 3376 -2944 3376 2 polygon
1 1.000 -2784 3352 -2944 3352 2 polygon
1 1.000 -2784 3328 -2944 3328 2 polygon
1 1.000 -2784 3304 -2944 3304 2 polygon
1 1.000 -2784 3280 -2944 3280 2 polygon
1 1.000 -2784 3256 -2944 3256 2 polygon
1 1.000 -2784 3232 -2944 3232 2 polygon
1 1.000 -2784 3208 -2944 3208 2 polygon
1 1.000 -2784 3184 -2944 3184 2 polygon
1 1.000 -2784 3160 -2944 3160 2 polygon
1 1.000 -2784 3136 -2944 3136 2 polygon
1 1.000 -2784 3112 -2944 3112 2 polygon
1 1.000 -2944 3280 -4632 3280 2 polygon
1 1.000 -4632 3448 -4256 3368 -3960 3368 -2944 3448 4 polygon
1 1.000 -4632 3112 -4256 3192 -3960 3192 -2944 3112 4 polygon
1 1.000 -4632 3424 -4256 3356 -3944 3356 -2944 3424 4 polygon
1 1.000 -4632 3136 -4256 3204 -3944 3204 -2944 3136 4 polygon
1 1.000 -4632 3400 -4256 3344 -3936 3344 -2944 3400 4 polygon
1 1.000 -4632 3160 -4256 3216 -3936 3216 -2944 3160 4 polygon
1 1.000 -4632 3376 -4256 3332 -3936 3332 -2944 3376 4 polygon
1 1.000 -4632 3184 -4256 3228 -3936 3228 -2944 3184 4 polygon
1 1.000 -4632 3304 -4256 3296 -3936 3296 -2944 3304 4 polygon
1 1.000 -4632 3256 -4256 3264 -3936 3264 -2944 3256 4 polygon
1 1.000 -4632 3352 -4256 3320 -3928 3320 -2944 3352 4 polygon
1 1.000 -4632 3208 -4256 3240 -3928 3240 -2944 3208 4 polygon
1 1.000 -4632 3328 -4256 3308 -3912 3308 -2944 3328 4 polygon
1 1.000 -4632 3232 -4256 3252 -3912 3252 -2944 3232 4 polygon
1 1.000 -3024 2080 -3080 2072 -3048 2040 -3016 2056 spline
1 1.000 -3056 2040 -3048 2040 -3048 2048 3 polygon
1 1.000 -3048 2024 -3008 2032 -3016 2056 -3064 2040 spline
1 1.000 -3024 2144 -3080 2152 -3048 2184 -3016 2168 spline
1 1.000 -3056 2184 -3048 2184 -3048 2176 3 polygon
1 1.000 -3048 2200 -3008 2192 -3016 2168 -3064 2184 spline
1 1.000 -2952 2120 -3008 2128 -2976 2160 -2944 2144 spline
1 1.000 -2984 2160 -2976 2160 -2976 2152 3 polygon
1 1.000 -2976 2176 -2936 2168 -2944 2144 -2992 2160 spline
1 1.000 -2952 2104 -3008 2096 -2976 2064 -2944 2080 spline
1 1.000 -2984 2064 -2976 2064 -2976 2072 3 polygon
1 1.000 -2976 2048 -2936 2056 -2944 2080 -2992 2064 spline
1 1.000 -3400 1032 -3392 1024 -3400 1016 3 polygon
1 1.000 -3400 1008 -3392 1000 -3400 992 3 polygon
1 1.000 -3400 984 -3392 976 -3400 968 3 polygon
1 1.000 -3400 960 -3392 952 -3400 944 3 polygon
1 1.000 -3400 936 -3392 928 -3400 920 3 polygon
1 1.000 -3400 912 -3392 904 -3400 896 3 polygon
1 1.000 -3400 888 -3392 880 -3400 872 3 polygon
1 1.000 -3400 864 -3392 856 -3400 848 3 polygon
1 1.000 -3400 840 -3392 832 -3400 824 3 polygon
1 1.000 -3400 816 -3392 808 -3400 800 3 polygon
1 1.000 -3400 792 -3392 784 -3400 776 3 polygon
1 1.000 -3400 768 -3392 760 -3400 752 3 polygon
1 1.000 -3392 1024 -3632 1024 2 polygon
1 1.000 -3392 1000 -3632 1000 2 polygon
1 1.000 -3392 976 -3632 976 2 polygon
1 1.000 -3392 952 -3632 952 2 polygon
1 1.000 -3392 928 -3632 928 2 polygon
1 1.000 -3392 904 -3632 904 2 polygon
1 1.000 -3392 880 -3632 880 2 polygon
1 1.000 -3392 856 -3632 856 2 polygon
1 1.000 -3392 832 -3632 832 2 polygon
1 1.000 -3392 808 -3632 808 2 polygon
1 1.000 -3392 784 -3632 784 2 polygon
1 1.000 -3392 760 -3632 760 2 polygon
1 1.000 -3384 760 -2728 760 2 polygon
1 1.000 -2736 768 -2728 760 -2736 752 3 polygon
1 1.000 -2736 792 -2728 784 -2736 776 3 polygon
1 1.000 -2736 816 -2728 808 -2736 800 3 polygon
1 1.000 -2736 840 -2728 832 -2736 824 3 polygon
1 1.000 -2736 864 -2728 856 -2736 848 3 polygon
1 1.000 -2736 888 -2728 880 -2736 872 3 polygon
1 1.000 -2736 912 -2728 904 -2736 896 3 polygon
1 1.000 -2736 936 -2728 928 -2736 920 3 polygon
1 1.000 -2736 960 -2728 952 -2736 944 3 polygon
1 1.000 -2736 984 -2728 976 -2736 968 3 polygon
1 1.000 -2736 1008 -2728 1000 -2736 992 3 polygon
1 1.000 -2736 1032 -2728 1024 -2736 1016 3 polygon
1 1.000 -3384 784 -2728 784 2 polygon
1 1.000 -3384 808 -2728 808 2 polygon
1 1.000 -3384 832 -2728 832 2 polygon
1 1.000 -3384 856 -2728 856 2 polygon
1 1.000 -3336 1024 -3272 920 -3200 920 -3384 1024 spline
1 1.000 -3304 912 -3328 1000 -3384 1000 -3200 912 spline
1 1.000 -2968 912 -3128 976 -2728 976 -3200 904 spline
1 1.000 -3320 904 -3320 976 -3384 976 -3200 904 spline
1 1.000 -2976 896 -3128 952 -2728 952 -3200 896 spline
1 1.000 -3304 952 -3344 904 -3200 896 -3384 952 spline
1 1.000 -3312 928 -3312 888 -3200 888 -3384 928 spline
1 1.000 -2936 880 -3000 904 -2728 904 -3200 880 spline
1 1.000 -3328 880 -3256 904 -3384 904 -3200 880 spline
1 1.000 -3032 872 -2904 880 -2728 880 -3200 872 spline
1 1.000 -3296 872 -3272 880 -3384 880 -3200 872 spline
1 1.000 -3000 1000 -2960 1008 -2968 1032 -3016 1016 spline
1 1.000 -2976 1056 -3032 1048 -3000 1016 -2968 1032 spline
1 1.000 -3008 1016 -3000 1016 -3000 1024 3 polygon
1 1.000 -3056 968 -3016 976 -3024 1000 -3072 984 spline
1 1.000 -3032 1024 -3088 1016 -3056 984 -3024 1000 spline
1 1.000 -3064 984 -3056 984 -3056 992 3 polygon
1 1.000 -3000 920 -3088 992 -2728 1000 -3200 912 spline
1 1.000 -3032 928 -3016 1024 -2728 1024 -3200 920 spline
1 1.000 -2920 1056 -2976 1048 -2944 1016 -2912 1032 spline
1 1.000 -2952 1016 -2944 1016 -2944 1024 3 polygon
1 1.000 -2944 1000 -2904 1008 -2912 1032 -2960 1016 spline
1 1.000 -3088 992 -3144 984 -3112 952 -3080 968 spline
1 1.000 -3120 952 -3112 952 -3112 960 3 polygon
1 1.000 -3112 936 -3072 944 -3080 968 -3128 952 spline
1 1.000 -2968 888 -3080 928 -2728 928 -3200 888 spline
pgsave restore showpage

%%Trailer
XCIRCsave restore
%%EOF
