%!PS-Adobe-3.0 EPSF-3.0
%%Title: plc_012.eps
%%Creator: XCircuit v3.7 rev26
%%CreationDate: Mon Apr  9 18:01:31 2012
%%Pages: 1
%%BoundingBox: 68 68 421 522
%%DocumentNeededResources: font Helvetica Helvetica-Oblique Times-Roman 
%%EndComments
%%BeginProlog
%
%  PostScript prolog for output from xcircuit
%  Version: 3.7
%
%  Electrical circuit (and otherwise general) drawing program
%
%  Written by Tim Edwards 8/5/93--11/1/10  (tim.edwards@multigig.com)
%  The Johns Hopkins University (1993-2004)
%  MultiGiG, Inc. (2004-present)
%
%%BeginResource: procset XCIRCproc 3.7 2
%
% supporting definitions --- these are the primary xcircuit types.

/XCIRCsave save def
/topmat matrix currentmatrix def

/fontslant { /slant exch def [1 0 slant 1 0 0] 
    exch findfont exch makefont dup length dict /ndict exch def
    { 1 index /FID ne { ndict 3 1 roll put } { pop pop } ifelse } forall
    ndict definefont pop} def
/ul { dup type /stringtype eq showflag 1 eq and { gsave 
   currentpoint topmat setmatrix 0 0 moveto 2 index stringwidth pop (_)
   false charpath flattenpath pathbbox grestore exch pop 1 index
   sub setlinewidth exch pop currentpoint 3 -1 roll add moveto 0
   rlineto stroke moveto } if } def
/ol { dup type /stringtype eq showflag 1 eq and { gsave gsave
   currentpoint topmat setmatrix 2 index stringwidth pop 3 index
   true charpath flattenpath pathbbox grestore exch pop
   exch pop topmat setmatrix (_) true charpath pathbbox grestore
   exch pop 1 index sub setlinewidth exch pop currentpoint
   exch 4 1 roll exch sub add moveto pop 0 rlineto stroke
   moveto } if } def
/stW { gsave currentpoint newpath moveto true charpath flattenpath
	pathbbox pop exch pop sub grestore } def
/Ts {mark Tabs aload pop counttomark 1 add array astore /Tabs exch def Tabs
	0 currentpoint pop put} def
/Tbn {mark Tabs aload pop counttomark dup 2 add 1 roll cleartomark 1 sub} def
/Tb { 0 1 Tbn {Tabs exch get dup currentpoint pop lt
	{currentpoint exch pop moveto exit} {pop} ifelse } for } def
/Tf { Tbn -1 0 {Tabs exch get dup currentpoint pop gt
	{currentpoint exch pop moveto exit} {pop} ifelse } for } def
/qS { (aa) stW (a a) stW sub 4 div 0 Kn } def
/hS { qS qS } def
/pspc 0 def
/cf0 { scalefont setfont } bind def
/Kn { dup kY add /kY exch def rmoveto } bind def
/ss { /fscale fscale 0.67 mul def currentfont 0.67 cf0 0 fscale0 fscale mul
	0.33 mul neg Kn} def
/Ss { /fscale fscale 0.67 mul def currentfont 0.67 cf0 0 fscale0 fscale mul
	0.67 mul Kn } def
/ns { 0 kY neg Kn /kY 0 def /fscale 1.0 def xfont0 1.0 cf0 } def
/CR { ns 0 /Bline Bline fscale0 neg add def Bline moveto } def
/cf { dup type /realtype ne {1.0} if exch findfont exch kY 0 eq
	{ 40 mul dup /fscale0 exch def cf0 /xfont0 currentfont def}
	{fscale0 mul fscale mul cf0} ifelse } def
/ctmk { counttomark dup 2 add -1 roll pop } bind def
/label { gsave translate 0 0 moveto dup scale neg /rotval exch def
	/just exch def just 384 and 0 gt {/mshow {pop} def} {/mshow {show}
	def} ifelse just 16 and 0 gt {gsave rotval rotate 0 1 dtransform
	gsave pagemat setmatrix idtransform exch grestore 1 0 dtransform
	gsave pagemat setmatrix idtransform exch grestore dup abs 1e-9 lt
	{pop mul 0 gt} {3 1 roll pop pop 0 lt} ifelse grestore {-1 /rotval
	rotval neg def /just just dup 3 and 1 ne {3 xor} if def} {1} ifelse
	exch -1e-9 lt {-1 /rotval rotval neg def /just just dup 12 and
	4 ne {12 xor} if def} {1} ifelse scale } if /showflag 0 def
	/fspc pspc def /Bline 0 def /Tabs 0 array def /fscale 1.0 def
	/kY 0 def gsave dup 1 add copy 0 exch 1 0 dtransform exch atan rotate
	{exch dup type /stringtype eq {true charpath flattenpath} {dup type
	/arraytype eq {exec} {12 string cvs true charpath flattenpath} ifelse}
	ifelse} repeat pop pathbbox grestore 3 -1 roll pop 3 1 roll just
	1 and 0 gt {just 2 and 0 gt {exch pop neg fspc sub} {exch sub 0.5
	mul neg} ifelse} {pop neg fspc add} ifelse exch Bline exch just 4
	and 0 gt {just 8 and 0 gt {exch pop neg fspc sub} {add 0.5 mul neg}
	ifelse} {pop neg fspc add} ifelse rotval rotate Kn currentpoint
	translate /showflag 1 def /Bline 0 def /Tabs 0 array def /fscale
	1.0 def /kY 0 def {dup type /stringtype eq {mshow} {dup type
	/arraytype eq {exec} {12 string cvs mshow} ifelse} ifelse} repeat
	grestore endclip} def
/pinlabel { 4 index 32 and 0 ne hlevel 0 eq or { /pspc 10 def label
	/pspc 0 def } { pop pop pop pop pop {pop} repeat } ifelse } def
/pinglobal { pinlabel } def
/infolabel { pinlabel } def
/graphic { gsave 4 index cvx exec /DataSource get resetfile translate 0 0
	moveto neg rotate dup scale cvx exec image grestore endclip} def

/scb { setrgbcolor } bind def  /sce { defColor aload pop scb } bind def
/cRedef {/defColor currentcolor 3 array astore def} def
/begingate {dup type /dicttype ne {1 dict} if begin	% default params
	dup type /dicttype ne {1 dict} if begin		% instanced params
	/hlevel hlevel 1 add def /defColor currentcolor sce 3 array astore
	def gsave sce translate 0 0 moveto neg rotate dup type /nametype
	eq not { dup abs currentlinewidth exch div setlinewidth } { pop }
	ifelse dup abs scale clipped 1 and 1 eq {/clipped clipped 1 add def}
	if} bind def
/endgate { /hlevel hlevel 1 sub def grestore defColor aload pop cRedef
	scb end end endclip} bind def

/hlevel 0 def
/endclip {clipped 1 and 1 eq {grestore /clipped clipped 1 sub def} if} def
/tmpa [1 0 0 1 0 0] def
/gar {8 8 true tmpa {<c0 c0 00 00 0c 0c 00 00>} imagemask} bind
{8 8 true tmpa {<30 70 60 02 03 07 06 20>} imagemask} bind
{8 8 true tmpa {<0c 1e 1e 0c c0 e1 e1 c0>} imagemask} bind
{8 8 true tmpa {<0f 0f 0f 0f f0 f0 f0 f0>} imagemask} bind
{8 8 true tmpa {<3f f3 e1 e1 f3 3f 1e 1e>} imagemask} bind
{8 8 true tmpa {<df cf 8f 9f fd fc f8 f9>} imagemask} bind
{8 8 true tmpa {<ff 3f 3f ff ff f3 f3 ff>} imagemask} bind 7 array astore def
/ppaint { gsave clip tmpa dup setmatrix pathbbox neg exch neg 4 2 roll
  neg 4 -1 roll 2 copy gt {exch} if 8 div ceiling 8 mul 4 2 roll neg 2 copy
  gt {exch} if 8 div ceiling 8 mul 3 -1 roll -8 5 -1 roll
  { 3 index exch 5 exch put dup -8 3 index { 3 index
  exch 4 exch put 3 index exec } for } for pop pop pop pop grestore } bind def
/setstyles {
  currentlinewidth mul setlinewidth /style exch def style 2048 and 0 gt
  clipped 1 and 0 eq and {clip newpath /clipped clipped 1 add def} {
  style 1 and 0 gt not {closepath} if
  style 1024 and 0 gt {2 setlinecap} if
  style 2 and 0 gt {currentlinewidth 4 mul dup 2 array astore 0 setdash} if
  style 4 and 0 gt {0.5 currentlinewidth 4 mul 2 array astore 0 setdash} if
  gsave style 16 and 0 gt { style 224 and -5 bitshift style 256 and 0 gt {
  7 exch sub 8 div dup 1 exch sub currentrgbcolor 3 array astore
  {3 copy mul add 4 1 roll pop} forall pop pop setrgbcolor eofill}
  {dup 7 lt {gar exch get ppaint} {pop eofill} ifelse} ifelse}
  {style 256 and 0 gt {1 setgray eofill} if} ifelse grestore style 8 and 0 gt 
  style 512 eq or {newpath} {stroke} ifelse grestore endclip} ifelse} def     

/addtoy {exch dup dup 2 mul 3 add 1 roll -1 1 { 4 1 roll dup 4 1 roll add
	4 -1 roll 2 mul 1 add index 2 mul 2 add 2 roll} for pop} def
/addtoy1 {1 exch addtoy pop} def
/addtoy3 {3 exch addtoy pop} def
/addtoy4 {4 exch addtoy pop} def
/addtox {exch dup dup 2 mul 3 add 1 roll -1 1 { 4 1 roll dup 4 1 roll 3 -1 roll
	add exch 4 -1 roll 2 mul 1 add index 2 mul 2 add 2 roll} for pop} def
/addtox1 {1 exch addtox pop} def
/addtox3 {3 exch addtox pop} def
/addtox4 {4 exch addtox pop} def
/polygon { gsave /num exch def moveto num 1 sub {lineto} repeat setstyles } def
/xcarc   { gsave newpath arc setstyles } def
/elb { matrix currentmatrix 7 -1 roll 7 -1 roll translate 5 1 roll 4 -1 roll
	3 index div 1 scale } def
/ele { 0 4 1 roll 0 4 1 roll } bind def
/ellipse { gsave elb newpath ele arc setmatrix setstyles } def
/pellip  { elb ele arc setmatrix } def
/nellip  { elb ele arcn setmatrix } def
/spline  { gsave moveto curveto setstyles } def
/polyc   { {lineto} repeat } bind def
/beginpath { gsave moveto } bind def
/endpath { setstyles } bind def
/bop	 { 1 setlinecap 0 setlinejoin 6 setmiterlimit 0 0 0 scb cRedef
	/clipped 0 def} def
/psinsertion {/PSobj save def /showpage {} def /setpagedevice {pop} def bop
	rotate translate dup scale} def
/end_insert {PSobj restore} def
/setpagemat {/pagemat matrix currentmatrix def} def
/inchscale  {setpagemat 0.375 mul dup scale} def
/cmscale    {setpagemat 0.35433071 mul dup scale} def

%%EndResource
%%EndProlog

% XCircuit output starts here.

%%BeginSetup

/generic::arrowhead {
% nonetwork
begingate
8 -28 beginpath
3 -18 3 -15 0 0 curveto
-3 -15 -3 -18 -8 -28 curveto
-2 -26 2 -26 8 -28 curveto
249 
1.000 endpath
endgate
} def

/generic::arrow {
% nonetwork
begingate
1 0.800 0 -40 0 20 2 polygon
1.000 0 0 40 generic::arrowhead
endgate
} def

/::terminal_strip_2 {
begingate
0 1.000 -80 48 -80 -48 -48 -48 -48 48 4 polygon
1 1.000 -64 32 8 0.000 360.000 xcarc
1 1.000 -68 25 -58 37 2 polygon
1 1.000 -61 39 -70 28 2 polygon
1 1.000 -64 -32 8 0.000 360.000 xcarc
1 1.000 -68 -39 -58 -27 2 polygon
1 1.000 -61 -25 -70 -36 2 polygon
0 1.000 -32 48 -32 -48 0 -48 0 48 4 polygon
1 1.000 -16 32 8 0.000 360.000 xcarc
1 1.000 -20 25 -10 37 2 polygon
1 1.000 -13 39 -22 28 2 polygon
1 1.000 -16 -32 8 0.000 360.000 xcarc
1 1.000 -20 -39 -10 -27 2 polygon
1 1.000 -13 -25 -22 -36 2 polygon
0 1.000 16 48 16 -48 48 -48 48 48 4 polygon
1 1.000 32 32 8 0.000 360.000 xcarc
1 1.000 28 25 38 37 2 polygon
1 1.000 35 39 26 28 2 polygon
1 1.000 32 -32 8 0.000 360.000 xcarc
1 1.000 28 -39 38 -27 2 polygon
1 1.000 35 -25 26 -36 2 polygon
0 1.000 64 48 64 -48 96 -48 96 48 4 polygon
1 1.000 80 32 8 0.000 360.000 xcarc
1 1.000 76 25 86 37 2 polygon
1 1.000 83 39 74 28 2 polygon
1 1.000 80 -32 8 0.000 360.000 xcarc
1 1.000 76 -39 86 -27 2 polygon
1 1.000 83 -25 74 -36 2 polygon
0.604 0.604 0.604 scb
0 2.000 -96 64 -96 -64 112 -64 112 64 4 polygon
endgate
} def

/generic::jumper {
% trivial
begingate
1 1.000 0 0 10 -90.000 90.000 xcarc
1 1.000 0 10 0 16 2 polygon
1 1.000 0 -10 0 -16 2 polygon
1.000 0.000 0.000 scb
(a) {/Times-Roman cf} 2 1 0 1.000 0 16 pinlabel
(a) {/Times-Roman cf} 2 13 0 1.000 0 -16 pinlabel
endgate
} def

/analog::resistor {
begingate
1 1.000 0 64 0 36 2 polygon
1 1.000 0 -64 0 -36 2 polygon
1 1.000 0 -36 14 -30 -14 -18 14 -6 -14 6 14 18 -14 30 0 36 8 polygon
1.000 0.000 0.000 scb
(r.1) {/Times-Roman cf} 2 9 0 1.000 0 64 pinlabel
(r.2) {/Times-Roman cf} 2 13 0 1.000 0 -64 pinlabel
0.180 0.545 0.341 scb
(spice:R%i %pr.1 %pr.2 1.0K) {/Times-Roman cf} 2 0 0 1.000 -208 -160 infolabel
(sim:r %pr.1 %pr.2) {/Times-Roman cf} 2 0 0 1.000 -208 -208 infolabel
endgate
} def

/analog::npn {
begingate
1 1.000 -48 0 -64 0 2 polygon
1 1.000 -48 48 -48 -48 2 polygon
1 1.000 0 48 -48 22 2 polygon
1 1.000 0 48 0 64 2 polygon
1 1.000 0 -48 -48 -22 2 polygon
1 1.000 0 -48 0 -64 2 polygon
1.000 120 0 -48 generic::arrowhead
1.000 0.000 0.000 scb
(C) {/Times-Roman cf} 2 9 0 1.000 0 64 pinlabel
(B) {/Times-Roman cf} 2 7 0 1.000 -64 0 pinlabel
(E) {/Times-Roman cf} 2 13 0 1.000 0 -64 pinlabel
0.180 0.545 0.341 scb
(spice:Q%i %pC %pB %pE npn) {/Times-Roman cf} 2 4 0 1.000 -244 -139 infolabel
(sim:b %pB %pE %pC) {/Times-Roman cf} 2 4 0 1.000 -244 -187 infolabel
endgate
} def

/analog::diode {
begingate
248 1.000 -18 -16 0 16 18 -16 3 polygon
1 1.000 0 -48 0 -16 2 polygon
1 1.000 0 48 0 16 2 polygon
1 1.000 -18 16 18 16 2 polygon
1.000 0.000 0.000 scb
(d.m) {/Times-Roman cf} 2 9 0 1.000 0 48 pinlabel
(d.p) {/Times-Roman cf} 2 13 0 1.000 0 -48 pinlabel
endgate
} def

/generic::dot {
% trivial
begingate
248 1.000 0 0 6 0.000 360.000 xcarc
1.000 0.000 0.000 scb
(x) {/Times-Roman cf} 2 29 0 1.000 0 0 pinlabel
endgate
} def


%%EndSetup

%%Page: 04330.eps 1
%%PageOrientation: Portrait
/pgsave save def bop
0.6000 inchscale
2.6000 setlinewidth 991 783 translate

0.824 0.706 0.549 scb
496 1.000 176 912 176 672 352 672 352 912 4 polygon
sce
0 1.000 176 912 176 672 352 672 352 912 4 polygon
0.604 0.604 0.604 scb
497 1.000 208 848 16 0.000 360.000 xcarc
sce
1 1.000 208 848 16 0.000 360.000 xcarc
1 1.000 216 860 194 844 2 polygon
1 1.000 222 852 200 836 2 polygon
0.604 0.604 0.604 scb
497 1.000 208 736 16 0.000 360.000 xcarc
sce
1 1.000 208 736 16 0.000 360.000 xcarc
1 1.000 216 748 194 732 2 polygon
1 1.000 222 740 200 724 2 polygon
0.604 0.604 0.604 scb
497 1.000 320 840 16 0.000 360.000 xcarc
sce
1 1.000 320 840 16 0.000 360.000 xcarc
1 1.000 328 852 306 836 2 polygon
1 1.000 334 844 312 828 2 polygon
0.604 0.604 0.604 scb
497 1.000 320 792 16 0.000 360.000 xcarc
sce
1 1.000 320 792 16 0.000 360.000 xcarc
1 1.000 328 804 306 788 2 polygon
1 1.000 334 796 312 780 2 polygon
0.604 0.604 0.604 scb
497 1.000 320 744 16 0.000 360.000 xcarc
sce
1 1.000 320 744 16 0.000 360.000 xcarc
1 1.000 328 756 306 740 2 polygon
1 1.000 334 748 312 732 2 polygon
1 2.000 240 864 240 848 2 polygon
1 2.000 232 856 248 856 2 polygon
1 2.000 232 728 248 728 2 polygon
1 1.000 336 840 464 840 2 polygon
1 1.000 336 792 464 792 2 polygon
1 1.000 336 744 464 744 2 polygon
(L1) {/Helvetica cf} 2 16 0 0.700 480 832 label
(L2) {/Helvetica cf} 2 16 0 0.700 480 784 label
(Gnd) {/Helvetica cf} 2 16 0 0.700 480 736 label
(AC power) {/Helvetica cf} 2 16 0 1.000 416 880 label
1.000 0.000 0.000 scb
(Sourcing) {/Helvetica-Oblique cf} 2 16 0 0.700 -8 1152 label
(current) {/Helvetica cf} 2 16 0 0.700 0 1128 label
sce
1 6.000 848 1408 912 1104 624 1104 624 1392 spline
1 3.000 304 1088 304 1040 224 1040 352 1104 spline
1 3.000 288 1104 272 1088 224 1088 352 1104 spline
1 1.000 288 1104 272 1088 224 1088 352 1104 spline
1 6.000 624 1104 352 1104 2 polygon
0.824 0.706 0.549 scb
1 4.000 848 1408 912 1104 624 1104 624 1392 spline
0.800 0.800 0.800 scb
240 1.000 80 1440 80 1344 640 1344 640 1440 4 polygon
sce
0 1.000 80 1440 80 1344 640 1344 640 1440 4 polygon
1.000 0.000 0.000 scb
241 1.000 528 1392 16 0.000 360.000 xcarc
sce
1 1.000 528 1392 16 0.000 360.000 xcarc
0.000 0.933 0.000 scb
241 1.000 592 1392 16 0.000 360.000 xcarc
sce
1 1.000 592 1392 16 0.000 360.000 xcarc
(Switch actuates) {/Helvetica-Oblique cf} 2 16 0 1.000 -304 1424 label
(when object ) {/Helvetica-Oblique cf} 2 16 0 1.000 -280 1384 label
(approaches this) {/Helvetica-Oblique cf} 2 16 0 1.000 -296 1344 label
1.000 90 0 1392 generic::arrow
(Gnd) {/Helvetica cf} 2 16 0 0.700 264 1016 label
(+V) {/Helvetica cf} 2 16 0 0.700 264 1192 label
1.000 90 176 1120 ::terminal_strip_2
1 3.000 288 1120 312 1184 224 1184 352 1104 spline
0.647 0.165 0.165 scb
1 1.000 288 1120 312 1184 224 1184 352 1104 spline
sce
(Out) {/Helvetica cf} 2 16 0 0.700 248 1112 label
1.000 0.000 0.000 scb
1 1.000 96 1104 0 1104 2 polygon
1 1.000 8 1112 0 1104 8 1096 3 polygon
sce
1 1.000 128 1184 -80 1184 -80 1104 3 polygon
1.000 0 -80 1088 generic::jumper
1.000 0 64 848 generic::jumper
1 1.000 64 832 64 768 144 768 192 736 4 polygon
(end) {/Helvetica-Oblique cf} 2 16 0 1.000 -200 1304 label
(Current-sourcing \(PNP\) proximity switch) {/Helvetica cf} 2 16 0 1.000 8 1464 
label
(PLC discrete) {/Helvetica cf} 2 16 0 1.000 -616 1400 label
1.000 0.000 0.000 scb
1 1.000 -160 1072 -256 1072 2 polygon
1 1.000 -248 1080 -256 1072 -248 1064 3 polygon
sce
(\(sinking\)) {/Helvetica cf} 2 16 0 1.000 -576 1320 label
1.000 0.000 0.000 scb
(Sinking) {/Helvetica-Oblique cf} 2 16 0 0.700 -248 1040 label
(current) {/Helvetica cf} 2 16 0 0.700 -248 1016 label
0.824 0.706 0.549 scb
496 1.000 -608 1296 -608 608 -272 608 -272 1296 4 polygon
sce
0 1.000 -608 1296 -608 608 -272 608 -272 1296 4 polygon
0.604 0.604 0.604 scb
497 1.000 -304 928 16 0.000 360.000 xcarc
sce
1 1.000 -304 928 16 0.000 360.000 xcarc
1 1.000 -296 940 -318 924 2 polygon
1 1.000 -290 932 -312 916 2 polygon
0.604 0.604 0.604 scb
497 1.000 -304 640 16 0.000 360.000 xcarc
sce
1 1.000 -304 640 16 0.000 360.000 xcarc
1 1.000 -296 652 -318 636 2 polygon
1 1.000 -290 644 -312 628 2 polygon
(Com) {/Helvetica cf} 2 16 0 0.750 -384 656 label
1 1.000 -488 888 -504 872 2 polygon
1 1.000 -504 880 -504 872 -496 872 3 polygon
1 1.000 -496 904 -512 888 2 polygon
1 1.000 -512 896 -512 888 -504 888 3 polygon
1.000 90 -384 928 analog::resistor
0.500 /sv 90 -496 832 analog::npn
1.000 270 -496 928 analog::diode
1 1.000 -544 928 -592 928 -592 640 -320 640 4 polygon
2 1.000 -544 960 -544 816 -448 816 -448 960 4 polygon
1 1.000 -488 728 -504 712 2 polygon
1 1.000 -504 720 -504 712 -496 712 3 polygon
1 1.000 -496 744 -512 728 2 polygon
1 1.000 -512 736 -512 728 -504 728 3 polygon
1.000 90 -384 768 analog::resistor
0.500 /sv 90 -496 672 analog::npn
1.000 270 -496 768 analog::diode
2 1.000 -544 800 -544 656 -448 656 -448 800 4 polygon
0.604 0.604 0.604 scb
497 1.000 -304 768 16 0.000 360.000 xcarc
sce
1 1.000 -296 780 -318 764 2 polygon
1 1.000 -290 772 -312 756 2 polygon
1 1.000 -304 768 16 0.000 360.000 xcarc
1 1.000 -544 768 -592 768 2 polygon
1.000 0 -592 768 generic::dot
1 1.000 -488 1048 -504 1032 2 polygon
1 1.000 -504 1040 -504 1032 -496 1032 3 polygon
1 1.000 -496 1064 -512 1048 2 polygon
1 1.000 -512 1056 -512 1048 -504 1048 3 polygon
0.500 /sv 90 -496 992 analog::npn
1.000 270 -496 1088 analog::diode
2 1.000 -544 1120 -544 976 -448 976 -448 1120 4 polygon
1 1.000 -544 1088 -592 1088 -592 928 3 polygon
1.000 0 -592 928 generic::dot
1.000 270 -496 1248 analog::diode
2 1.000 -544 1280 -544 1136 -448 1136 -448 1280 4 polygon
1 1.000 -544 1248 -592 1248 -592 1088 3 polygon
1 1.000 -488 1208 -504 1192 2 polygon
1 1.000 -504 1200 -504 1192 -496 1192 3 polygon
1 1.000 -496 1224 -512 1208 2 polygon
1 1.000 -512 1216 -512 1208 -504 1208 3 polygon
0.500 /sv 90 -496 1152 analog::npn
1.000 0 -592 1088 generic::dot
0.604 0.604 0.604 scb
497 1.000 -304 1088 16 0.000 360.000 xcarc
sce
1 1.000 -304 1088 16 0.000 360.000 xcarc
1 1.000 -296 1100 -318 1084 2 polygon
1 1.000 -290 1092 -312 1076 2 polygon
1.000 90 -384 1088 analog::resistor
0.604 0.604 0.604 scb
497 1.000 -304 1248 16 0.000 360.000 xcarc
sce
1 1.000 -304 1248 16 0.000 360.000 xcarc
1 1.000 -296 1260 -318 1244 2 polygon
1 1.000 -290 1252 -312 1236 2 polygon
1.000 90 -384 1248 analog::resistor
(Ch 1) {/Helvetica cf} 2 16 0 0.750 -368 1040 label
(Ch 2) {/Helvetica cf} 2 16 0 0.750 -368 880 label
(Ch 3) {/Helvetica cf} 2 16 0 0.750 -368 720 label
(Ch 0) {/Helvetica cf} 2 16 0 0.750 -368 1200 label
(input card) {/Helvetica cf} 2 16 0 1.000 -592 1360 label
1 1.000 192 736 64 736 64 640 -288 640 4 polygon
0.824 0.706 0.549 scb
496 1.000 176 -112 176 -352 352 -352 352 -112 4 polygon
sce
0 1.000 176 -112 176 -352 352 -352 352 -112 4 polygon
0.604 0.604 0.604 scb
497 1.000 208 -176 16 0.000 360.000 xcarc
sce
1 1.000 208 -176 16 0.000 360.000 xcarc
1 1.000 216 -164 194 -180 2 polygon
1 1.000 222 -172 200 -188 2 polygon
0.604 0.604 0.604 scb
497 1.000 208 -288 16 0.000 360.000 xcarc
sce
1 1.000 208 -288 16 0.000 360.000 xcarc
1 1.000 216 -276 194 -292 2 polygon
1 1.000 222 -284 200 -300 2 polygon
0.604 0.604 0.604 scb
497 1.000 320 -184 16 0.000 360.000 xcarc
sce
1 1.000 320 -184 16 0.000 360.000 xcarc
1 1.000 328 -172 306 -188 2 polygon
1 1.000 334 -180 312 -196 2 polygon
0.604 0.604 0.604 scb
497 1.000 320 -232 16 0.000 360.000 xcarc
sce
1 1.000 320 -232 16 0.000 360.000 xcarc
1 1.000 328 -220 306 -236 2 polygon
1 1.000 334 -228 312 -244 2 polygon
0.604 0.604 0.604 scb
497 1.000 320 -280 16 0.000 360.000 xcarc
sce
1 1.000 320 -280 16 0.000 360.000 xcarc
1 1.000 328 -268 306 -284 2 polygon
1 1.000 334 -276 312 -292 2 polygon
1 2.000 240 -160 240 -176 2 polygon
1 2.000 232 -168 248 -168 2 polygon
1 2.000 232 -296 248 -296 2 polygon
1 1.000 336 -184 464 -184 2 polygon
1 1.000 336 -232 464 -232 2 polygon
1 1.000 336 -280 464 -280 2 polygon
(L1) {/Helvetica cf} 2 16 0 0.700 480 -192 label
(L2) {/Helvetica cf} 2 16 0 0.700 480 -240 label
(Gnd) {/Helvetica cf} 2 16 0 0.700 480 -288 label
(AC power) {/Helvetica cf} 2 16 0 1.000 416 -144 label
1.000 0.000 0.000 scb
(Sourcing) {/Helvetica-Oblique cf} 2 16 0 0.700 -256 16 label
(current) {/Helvetica cf} 2 16 0 0.700 0 104 label
sce
1 6.000 848 384 912 80 624 80 624 368 spline
1 3.000 304 64 304 16 224 16 352 80 spline
1 3.000 288 80 272 64 224 64 352 80 spline
1 1.000 288 80 272 64 224 64 352 80 spline
1 6.000 624 80 352 80 2 polygon
0.824 0.706 0.549 scb
1 4.000 848 384 912 80 624 80 624 368 spline
0.800 0.800 0.800 scb
240 1.000 80 416 80 320 640 320 640 416 4 polygon
sce
0 1.000 80 416 80 320 640 320 640 416 4 polygon
1.000 0.000 0.000 scb
241 1.000 528 368 16 0.000 360.000 xcarc
sce
1 1.000 528 368 16 0.000 360.000 xcarc
0.000 0.933 0.000 scb
241 1.000 592 368 16 0.000 360.000 xcarc
sce
1 1.000 592 368 16 0.000 360.000 xcarc
(Switch actuates) {/Helvetica-Oblique cf} 2 16 0 1.000 -304 400 label
(when object ) {/Helvetica-Oblique cf} 2 16 0 1.000 -280 360 label
(approaches this) {/Helvetica-Oblique cf} 2 16 0 1.000 -296 320 label
1.000 90 0 368 generic::arrow
(Gnd) {/Helvetica cf} 2 16 0 0.700 264 -8 label
(+V) {/Helvetica cf} 2 16 0 0.700 264 168 label
1.000 90 176 96 ::terminal_strip_2
1 3.000 288 96 312 160 224 160 352 80 spline
0.647 0.165 0.165 scb
1 1.000 288 96 312 160 224 160 352 80 spline
sce
(Out) {/Helvetica cf} 2 16 0 0.700 248 88 label
1.000 0.000 0.000 scb
1 1.000 96 80 0 80 2 polygon
1 1.000 88 88 96 80 88 72 3 polygon
sce
1 1.000 128 160 -80 160 -80 80 3 polygon
1.000 0 -80 64 generic::jumper
1.000 0 64 -176 generic::jumper
(end) {/Helvetica-Oblique cf} 2 16 0 1.000 -200 280 label
(PLC discrete) {/Helvetica cf} 2 16 0 1.000 -616 376 label
1.000 0.000 0.000 scb
1 1.000 -160 48 -256 48 2 polygon
1 1.000 -168 56 -160 48 -168 40 3 polygon
(Sinking) {/Helvetica-Oblique cf} 2 16 0 0.700 0 128 label
(current) {/Helvetica cf} 2 16 0 0.700 -248 -8 label
0.824 0.706 0.549 scb
496 1.000 -608 272 -608 -416 -272 -416 -272 272 4 polygon
sce
0 1.000 -608 272 -608 -416 -272 -416 -272 272 4 polygon
0.604 0.604 0.604 scb
497 1.000 -304 -96 16 0.000 360.000 xcarc
sce
1 1.000 -304 -96 16 0.000 360.000 xcarc
1 1.000 -296 -84 -318 -100 2 polygon
1 1.000 -290 -92 -312 -108 2 polygon
0.604 0.604 0.604 scb
497 1.000 -304 -384 16 0.000 360.000 xcarc
sce
1 1.000 -304 -384 16 0.000 360.000 xcarc
1 1.000 -296 -372 -318 -388 2 polygon
1 1.000 -290 -380 -312 -396 2 polygon
1 1.000 -488 -136 -504 -152 2 polygon
1 1.000 -504 -144 -504 -152 -496 -152 3 polygon
1 1.000 -496 -120 -512 -136 2 polygon
1 1.000 -512 -128 -512 -136 -504 -136 3 polygon
1.000 90 -384 -96 analog::resistor
0.500 /sv 90 -496 -192 analog::npn
1 1.000 -544 -96 -592 -96 -592 -384 -320 -384 4 polygon
2 1.000 -544 -64 -544 -208 -448 -208 -448 -64 4 polygon
1 1.000 -488 -296 -504 -312 2 polygon
1 1.000 -504 -304 -504 -312 -496 -312 3 polygon
1 1.000 -496 -280 -512 -296 2 polygon
1 1.000 -512 -288 -512 -296 -504 -296 3 polygon
1.000 90 -384 -256 analog::resistor
0.500 /sv 90 -496 -352 analog::npn
-1.000 /sv 90 -496 -256 analog::diode
2 1.000 -544 -224 -544 -368 -448 -368 -448 -224 4 polygon
0.604 0.604 0.604 scb
497 1.000 -304 -256 16 0.000 360.000 xcarc
sce
1 1.000 -296 -244 -318 -260 2 polygon
1 1.000 -290 -252 -312 -268 2 polygon
1 1.000 -304 -256 16 0.000 360.000 xcarc
1 1.000 -544 -256 -592 -256 2 polygon
1.000 0 -592 -256 generic::dot
1 1.000 -488 24 -504 8 2 polygon
1 1.000 -504 16 -504 8 -496 8 3 polygon
1 1.000 -496 40 -512 24 2 polygon
1 1.000 -512 32 -512 24 -504 24 3 polygon
0.500 /sv 90 -496 -32 analog::npn
2 1.000 -544 96 -544 -48 -448 -48 -448 96 4 polygon
1 1.000 -544 64 -592 64 -592 -96 3 polygon
1.000 0 -592 -96 generic::dot
2 1.000 -544 256 -544 112 -448 112 -448 256 4 polygon
1 1.000 -544 224 -592 224 -592 64 3 polygon
1 1.000 -488 184 -504 168 2 polygon
1 1.000 -504 176 -504 168 -496 168 3 polygon
1 1.000 -496 200 -512 184 2 polygon
1 1.000 -512 192 -512 184 -504 184 3 polygon
0.500 /sv 90 -496 128 analog::npn
1.000 0 -592 64 generic::dot
0.604 0.604 0.604 scb
497 1.000 -304 64 16 0.000 360.000 xcarc
sce
1 1.000 -304 64 16 0.000 360.000 xcarc
1 1.000 -296 76 -318 60 2 polygon
1 1.000 -290 68 -312 52 2 polygon
1.000 90 -384 64 analog::resistor
0.604 0.604 0.604 scb
497 1.000 -304 224 16 0.000 360.000 xcarc
sce
1 1.000 -304 224 16 0.000 360.000 xcarc
1 1.000 -296 236 -318 220 2 polygon
1 1.000 -290 228 -312 212 2 polygon
1.000 90 -384 224 analog::resistor
(Ch 1) {/Helvetica cf} 2 16 0 0.750 -368 16 label
(Ch 2) {/Helvetica cf} 2 16 0 0.750 -368 -144 label
(Ch 3) {/Helvetica cf} 2 16 0 0.750 -368 -304 label
(Ch 0) {/Helvetica cf} 2 16 0 0.750 -368 176 label
(input card) {/Helvetica cf} 2 16 0 1.000 -592 336 label
-1.000 /sv 90 -496 -96 analog::diode
-1.000 /sv 90 -496 64 analog::diode
-1.000 /sv 90 -496 224 analog::diode
(VDC) {/Helvetica cf} 2 16 0 0.750 -384 -368 label
(\(sourcing\)) {/Helvetica cf} 2 16 0 1.000 -592 296 label
(Current-sinking \(NPN\) proximity switch) {/Helvetica cf} 2 16 0 1.000 8 440 
label
1 1.000 64 -192 64 -288 192 -288 3 polygon
1 1.000 192 -176 -32 -176 -32 -384 -288 -384 4 polygon
1 1.000 64 -160 64 16 128 16 3 polygon
1 1.000 -80 48 -80 -352 -240 -352 -288 -384 4 polygon
1 1.000 -288 64 128 64 2 polygon
1 1.000 -288 1088 128 1088 2 polygon
1 1.000 64 864 64 1040 128 1040 3 polygon
1 1.000 -80 1072 -80 848 192 848 3 polygon
0.604 0.604 0.604 scb
0 3.000 -672 1520 -672 560 864 560 864 1520 4 polygon
0 3.000 -672 496 -672 -464 864 -464 864 496 4 polygon
0.000 0.000 1.000 scb
1 1.000 304 1088 304 1040 224 1040 352 1104 spline
0.824 0.706 0.549 scb
1 4.000 624 1104 352 1104 2 polygon
0.000 0.000 1.000 scb
1 1.000 304 64 304 16 224 16 352 80 spline
0.824 0.706 0.549 scb
1 4.000 624 80 352 80 2 polygon
pgsave restore showpage

%%Trailer
XCIRCsave restore
%%EOF
