%!PS-Adobe-3.0 EPSF-3.0
%%Title: plc_075.eps
%%Creator: XCircuit v3.6 rev164
%%CreationDate: Fri Jul 29 04:14:27 2011
%%Pages: 1
%%BoundingBox: 68 68 433 231
%%DocumentNeededResources: font Helvetica Helvetica-Bold Helvetica-Oblique 
%%+ font Courier 
%%EndComments
%%BeginProlog
%
%  PostScript prolog for output from xcircuit
%  Version: 3.3
%
%  Electrical circuit (and otherwise general) drawing program
%
%  Written by Tim Edwards 8/5/93--7/13/05  (tim.edwards@multigig.com)
%  The Johns Hopkins University (1993-2004)
%  MultiGiG, Inc. (2004-present)
%
%%BeginResource: procset XCIRCproc 3.3 0
%
% supporting definitions --- these are the primary xcircuit types.

/XCIRCsave save def
/topmat matrix currentmatrix def

/fontslant { /slant exch def [1 0 slant 1 0 0] 
    exch findfont exch makefont dup length dict /ndict exch def
    { 1 index /FID ne { ndict 3 1 roll put } { pop pop } ifelse } forall
    ndict definefont pop} def
/ul { dup type /stringtype eq showflag 1 eq and { gsave 
   currentpoint topmat setmatrix 0 0 moveto 2 index stringwidth pop (_)
   false charpath flattenpath pathbbox grestore exch pop 1 index
   sub setlinewidth exch pop currentpoint 3 -1 roll add moveto 0
   rlineto stroke moveto } if } def
/ol { dup type /stringtype eq showflag 1 eq and { gsave gsave
   currentpoint topmat setmatrix 2 index stringwidth pop 3 index
   true charpath flattenpath pathbbox grestore exch pop
   exch pop topmat setmatrix (_) true charpath pathbbox grestore
   exch pop 1 index sub setlinewidth exch pop currentpoint
   exch 4 1 roll exch sub add moveto pop 0 rlineto stroke
   moveto } if } def
/stW { gsave currentpoint newpath moveto true charpath flattenpath
	pathbbox pop exch pop sub grestore } def
/Ts {mark Tabs aload pop counttomark 1 add array astore /Tabs exch def Tabs
	0 currentpoint pop put} def
/Tbn {mark Tabs aload pop counttomark dup 2 add 1 roll cleartomark 1 sub} def
/Tb { 0 1 Tbn {Tabs exch get dup currentpoint pop lt
	{currentpoint exch pop moveto exit} {pop} ifelse } for } def
/Tf { Tbn -1 0 {Tabs exch get dup currentpoint pop gt
	{currentpoint exch pop moveto exit} {pop} ifelse } for } def
/qS { (aa) stW (a a) stW sub 4 div 0 Kn } def
/hS { qS qS } def
/pspc 0 def
/cf0 { scalefont setfont } bind def
/Kn { dup kY add /kY exch def rmoveto } bind def
/ss { /fscale fscale 0.67 mul def currentfont 0.67 cf0 0 fscale0 fscale mul
	0.33 mul neg Kn} def
/Ss { /fscale fscale 0.67 mul def currentfont 0.67 cf0 0 fscale0 fscale mul
	0.67 mul Kn } def
/ns { 0 kY neg Kn /kY 0 def /fscale 1.0 def xfont0 1.0 cf0 } def
/CR { ns 0 /Bline Bline fscale0 neg add def Bline moveto } def
/cf { dup type /realtype ne {1.0} if exch findfont exch kY 0 eq
	{ 40 mul dup /fscale0 exch def cf0 /xfont0 currentfont def}
	{fscale0 mul fscale mul cf0} ifelse } def
/ctmk { counttomark dup 2 add -1 roll pop } bind def
/label { gsave translate 0 0 moveto dup scale neg /rotval exch def
	/just exch def just 384 and 0 gt {/mshow {pop} def} {/mshow {show}
	def} ifelse just 16 and 0 gt {gsave rotval rotate 0 1 dtransform
	gsave pagemat setmatrix idtransform exch grestore 1 0 dtransform
	gsave pagemat setmatrix idtransform exch grestore dup abs 1e-9 lt
	{pop mul 0 gt} {3 1 roll pop pop 0 lt} ifelse grestore {-1 /rotval
	rotval neg def /just just dup 3 and 1 ne {3 xor} if def} {1} ifelse
	exch -1e-9 lt {-1 /rotval rotval neg def /just just dup 12 and
	4 ne {12 xor} if def} {1} ifelse scale } if /showflag 0 def
	/fspc pspc def /Bline 0 def /Tabs 0 array def /fscale 1.0 def
	/kY 0 def gsave dup 1 add copy 0 exch 1 0 dtransform exch atan rotate
	{exch dup type /stringtype eq {true charpath flattenpath} {dup type
	/arraytype eq {exec} {12 string cvs true charpath flattenpath} ifelse}
	ifelse} repeat pop pathbbox grestore 3 -1 roll pop 3 1 roll just
	1 and 0 gt {just 2 and 0 gt {exch pop neg fspc sub} {exch sub 0.5
	mul neg} ifelse} {pop neg fspc add} ifelse exch Bline exch just 4
	and 0 gt {just 8 and 0 gt {exch pop neg fspc sub} {add 0.5 mul neg}
	ifelse} {pop neg fspc add} ifelse rotval rotate Kn currentpoint
	translate /showflag 1 def /Bline 0 def /Tabs 0 array def /fscale
	1.0 def /kY 0 def {dup type /stringtype eq {mshow} {dup type
	/arraytype eq {exec} {12 string cvs mshow} ifelse} ifelse} repeat
	grestore } def
/pinlabel { 4 index 32 and 0 ne hlevel 0 eq or { /pspc 10 def label
	/pspc 0 def } { pop pop pop pop pop {pop} repeat } ifelse } def
/pinglobal { pinlabel } def
/infolabel { pinlabel } def
/graphic { gsave 4 index cvx exec /DataSource get resetfile translate
	0 0 moveto neg rotate dup scale cvx exec image grestore } def

/scb { setrgbcolor } bind def  /sce { defColor aload pop scb } bind def
/cRedef {/defColor currentcolor 3 array astore def} def
/begingate {dup type /dicttype ne {1 dict} if begin	% default params
	dup type /dicttype ne {1 dict} if begin		% instanced params
	/hlevel hlevel 1 add def /defColor currentcolor sce 3 array
	astore def gsave sce translate 0 0 moveto neg rotate dup abs scale
	} bind def
/endgate { /hlevel hlevel 1 sub def grestore defColor aload pop cRedef
	scb end end} bind def

/hlevel 0 def
/tmpa [1 0 0 1 0 0] def
/gar {8 8 true tmpa {<c0 c0 00 00 0c 0c 00 00>} imagemask} bind
{8 8 true tmpa {<30 70 60 02 03 07 06 20>} imagemask} bind
{8 8 true tmpa {<0c 1e 1e 0c c0 e1 e1 c0>} imagemask} bind
{8 8 true tmpa {<0f 0f 0f 0f f0 f0 f0 f0>} imagemask} bind
{8 8 true tmpa {<3f f3 e1 e1 f3 3f 1e 1e>} imagemask} bind
{8 8 true tmpa {<df cf 8f 9f fd fc f8 f9>} imagemask} bind
{8 8 true tmpa {<ff 3f 3f ff ff f3 f3 ff>} imagemask} bind 7 array astore def
/ppaint { gsave clip tmpa dup setmatrix pathbbox neg exch neg 4 2 roll
  neg 4 -1 roll 2 copy gt {exch} if 8 div ceiling 8 mul 4 2 roll neg 2 copy
  gt {exch} if 8 div ceiling 8 mul 3 -1 roll -8 5 -1 roll
  { 3 index exch 5 exch put dup -8 3 index { 3 index
  exch 4 exch put 3 index exec } for } for pop pop pop pop grestore } bind def
/setstyles {
  currentlinewidth mul setlinewidth /style exch def
  style 1 and 0 gt not {closepath} if
  style 1024 and 0 gt {2 setlinecap} if
  style 2 and 0 gt {currentlinewidth 4 mul dup 2 array astore 0 setdash} if
  style 4 and 0 gt {0.5 currentlinewidth 4 mul 2 array astore 0 setdash} if
  gsave style 16 and 0 gt { style 224 and -5 bitshift style 256 and 0 gt {
  7 exch sub 8 div dup 1 exch sub currentrgbcolor 3 array astore
  {3 copy mul add 4 1 roll pop} forall pop pop setrgbcolor eofill}
  {dup 7 lt {gar exch get ppaint} {pop eofill} ifelse} ifelse}
  {style 256 and 0 gt {1 setgray eofill} if} ifelse grestore style 8 and 0 gt 
  style 512 eq or {newpath} {stroke} ifelse grestore} def     

/polygon { gsave /num exch def moveto num 1 sub {lineto} repeat setstyles } def
/xcarc   { gsave newpath arc setstyles } def
/elb { matrix currentmatrix 7 -1 roll 7 -1 roll translate 5 1 roll 4 -1 roll
	3 index div 1 scale } def
/ele { 0 4 1 roll 0 4 1 roll } bind def
/ellipse { gsave elb newpath ele arc setmatrix setstyles } def
/pellip  { elb ele arc setmatrix } def
/nellip  { elb ele arcn setmatrix } def
/spline  { gsave moveto curveto setstyles } def
/polyc   { {lineto} repeat } bind def
/beginpath { gsave moveto } bind def
/endpath { setstyles } bind def
/bop	 { 1 setlinecap 0 setlinejoin 6 setmiterlimit 0 0 0 scb cRedef } def
/psinsertion {/PSobj save def /showpage {} def /setpagedevice {pop} def bop
	rotate translate dup scale} def
/end_insert {PSobj restore} def
/setpagemat {/pagemat matrix currentmatrix def} def
/inchscale  {setpagemat 0.375 mul dup scale} def
/cmscale    {setpagemat 0.35433071 mul dup scale} def

%%EndResource
%%EndProlog

% XCircuit output starts here.

%%BeginSetup

/liec_dig::PLC1 {
begingate
0.800 0.800 0.800 scb
240 1.000 -304 240 -304 -240 304 -240 304 240 4 polygon
sce
(PLC) {/Helvetica-Bold cf} 2 16 0 1.000 -32 0 label
1 1.000 -272 192 16 0.000 360.000 xcarc
1 1.000 -264 204 -284 184 2 polygon
1 1.000 -260 200 -280 180 2 polygon
1 1.000 -272 128 16 0.000 360.000 xcarc
1 1.000 -264 140 -284 120 2 polygon
1 1.000 -260 136 -280 116 2 polygon
1 1.000 -272 64 16 0.000 360.000 xcarc
1 1.000 -264 76 -284 56 2 polygon
1 1.000 -260 72 -280 52 2 polygon
1 1.000 -272 0 16 0.000 360.000 xcarc
1 1.000 -264 12 -284 -8 2 polygon
1 1.000 -260 8 -280 -12 2 polygon
1 1.000 -272 -64 16 0.000 360.000 xcarc
1 1.000 -264 -52 -284 -72 2 polygon
1 1.000 -260 -56 -280 -76 2 polygon
1 1.000 -272 -128 16 0.000 360.000 xcarc
1 1.000 -264 -116 -284 -136 2 polygon
1 1.000 -260 -120 -280 -140 2 polygon
1 1.000 -272 -192 16 0.000 360.000 xcarc
1 1.000 -264 -180 -284 -200 2 polygon
1 1.000 -260 -184 -280 -204 2 polygon
(X1) {/Courier cf} 2 16 0 1.000 -224 176 label
(X2) {/Courier cf} 2 16 0 1.000 -224 112 label
(X3) {/Courier cf} 2 16 0 1.000 -224 48 label
(X4) {/Courier cf} 2 16 0 1.000 -224 -16 label
(X5) {/Courier cf} 2 16 0 1.000 -224 -80 label
(X6) {/Courier cf} 2 16 0 1.000 -224 -144 label
1 1.000 -112 208 16 0.000 360.000 xcarc
1 1.000 -104 220 -124 200 2 polygon
1 1.000 -100 216 -120 196 2 polygon
1 1.000 112 208 16 0.000 360.000 xcarc
1 1.000 120 220 100 200 2 polygon
1 1.000 124 216 104 196 2 polygon
(L1) {/Helvetica cf} 2 16 0 1.000 -128 160 label
(L2) {/Helvetica cf} 2 16 0 1.000 88 160 label
1 1.000 272 192 16 0.000 360.000 xcarc
1 1.000 280 204 260 184 2 polygon
1 1.000 284 200 264 180 2 polygon
1 1.000 272 128 16 0.000 360.000 xcarc
1 1.000 280 140 260 120 2 polygon
1 1.000 284 136 264 116 2 polygon
1 1.000 272 64 16 0.000 360.000 xcarc
1 1.000 280 76 260 56 2 polygon
1 1.000 284 72 264 52 2 polygon
1 1.000 272 0 16 0.000 360.000 xcarc
1 1.000 280 12 260 -8 2 polygon
1 1.000 284 8 264 -12 2 polygon
1 1.000 272 -64 16 0.000 360.000 xcarc
1 1.000 280 -52 260 -72 2 polygon
1 1.000 284 -56 264 -76 2 polygon
1 1.000 272 -128 16 0.000 360.000 xcarc
1 1.000 280 -116 260 -136 2 polygon
1 1.000 284 -120 264 -140 2 polygon
1 1.000 272 -192 16 0.000 360.000 xcarc
1 1.000 280 -180 260 -200 2 polygon
1 1.000 284 -184 264 -204 2 polygon
(Y1) {/Courier cf} 2 16 0 1.000 176 176 label
(Y2) {/Courier cf} 2 16 0 1.000 176 112 label
(Y3) {/Courier cf} 2 16 0 1.000 176 48 label
(Y4) {/Courier cf} 2 16 0 1.000 176 -16 label
(Y5) {/Courier cf} 2 16 0 1.000 176 -80 label
(Y6) {/Courier cf} 2 16 0 1.000 176 -144 label
(Programming) {/Helvetica cf} 2 16 0 0.500 -48 -180 label
(port) {/Helvetica cf} 2 16 0 0.500 -8 -228 label
240 1.000 -32 -192 -32 -208 48 -208 48 -192 4 polygon
1 1.000 -240 192 8 0.000 360.000 xcarc
1 1.000 -240 128 8 0.000 360.000 xcarc
1 1.000 -240 64 8 0.000 360.000 xcarc
1 1.000 -240 0 8 0.000 360.000 xcarc
1 1.000 -240 -64 8 0.000 360.000 xcarc
1 1.000 -240 -128 8 0.000 360.000 xcarc
1 1.000 240 192 8 0.000 360.000 xcarc
1 1.000 240 128 8 0.000 360.000 xcarc
1 1.000 240 64 8 0.000 360.000 xcarc
1 1.000 240 0 8 0.000 360.000 xcarc
1 1.000 240 -64 8 0.000 360.000 xcarc
1 1.000 240 -128 8 0.000 360.000 xcarc
0 2.000 -304 240 -304 -240 304 -240 304 240 4 polygon
(Common) {/Courier cf} 2 16 0 1.000 -248 -208 label
(Source) {/Courier cf} 2 16 0 1.000 104 -208 label
endgate
} def

/plc::plc_processor {
begingate
0.604 0.604 0.604 scb
240 1.000 -64 240 -64 -240 64 -240 64 240 4 polygon
sce
0 1.000 -64 240 -64 -240 64 -240 64 240 4 polygon
(Processor) {/Helvetica cf} 2 16 0 0.500 -48 208 label
0 1.000 -40 176 -40 160 40 160 40 176 4 polygon
0 1.000 -40 144 -40 128 40 128 40 144 4 polygon
1 1.000 -32 80 16 0.000 360.000 xcarc
1 1.000 32 80 16 0.000 360.000 xcarc
1 1.000 -32 -216 -32 -168 32 -168 32 -216 16 -216 16 -224 -16 -224 -16 -216 -32 
-216 9 polygon
endgate
} def

/plc::PLC_powersupply {
begingate
0.800 0.800 0.800 scb
240 1.000 -112 240 -112 -240 112 -240 112 240 4 polygon
sce
0 1.000 -112 240 -112 -240 112 -240 112 240 4 polygon
(Power) {/Helvetica cf} 2 16 0 1.000 -64 192 label
(supply) {/Helvetica cf} 2 16 0 1.000 -64 152 label
1 1.000 -80 -208 16 0.000 360.000 xcarc
1 1.000 -72 -196 -92 -216 2 polygon
1 1.000 -68 -200 -88 -220 2 polygon
1 1.000 -80 -160 16 0.000 360.000 xcarc
1 1.000 -72 -148 -92 -168 2 polygon
1 1.000 -68 -152 -88 -172 2 polygon
1 1.000 -80 -112 16 0.000 360.000 xcarc
1 1.000 -72 -100 -92 -120 2 polygon
1 1.000 -68 -104 -88 -124 2 polygon
(L1) {/Helvetica cf} 2 16 0 0.700 -56 -120 label
(Gnd) {/Helvetica cf} 2 16 0 0.700 -56 -216 label
(L2/N) {/Helvetica cf} 2 16 0 0.700 -56 -168 label
endgate
} def

/plc::1746_NI4 {
begingate
0.604 0.604 0.604 scb
496 1.000 -64 240 -64 -240 64 -240 64 240 4 polygon
sce
0 1.000 -64 240 -64 -240 64 -240 64 240 4 polygon
1 1.000 -64 112 64 112 2 polygon
1 1.000 32 80 8 0.000 360.000 xcarc
1 1.000 36 86 26 77 2 polygon
1 1.000 38 83 28 74 2 polygon
1 1.000 32 56 8 0.000 360.000 xcarc
1 1.000 36 62 26 53 2 polygon
1 1.000 38 59 28 50 2 polygon
1 1.000 32 32 8 0.000 360.000 xcarc
1 1.000 36 38 26 29 2 polygon
1 1.000 38 35 28 26 2 polygon
1 1.000 32 8 8 0.000 360.000 xcarc
1 1.000 36 14 26 5 2 polygon
1 1.000 38 11 28 2 2 polygon
1 1.000 32 -16 8 0.000 360.000 xcarc
1 1.000 36 -10 26 -19 2 polygon
1 1.000 38 -13 28 -22 2 polygon
1 1.000 32 -40 8 0.000 360.000 xcarc
1 1.000 36 -34 26 -43 2 polygon
1 1.000 38 -37 28 -46 2 polygon
1 1.000 32 -64 8 0.000 360.000 xcarc
1 1.000 36 -58 26 -67 2 polygon
1 1.000 38 -61 28 -70 2 polygon
1 1.000 32 -88 8 0.000 360.000 xcarc
1 1.000 36 -82 26 -91 2 polygon
1 1.000 38 -85 28 -94 2 polygon
1 1.000 32 -112 8 0.000 360.000 xcarc
1 1.000 36 -106 26 -115 2 polygon
1 1.000 38 -109 28 -118 2 polygon
1 1.000 32 -136 8 0.000 360.000 xcarc
1 1.000 36 -130 26 -139 2 polygon
1 1.000 38 -133 28 -142 2 polygon
1 1.000 32 -160 8 0.000 360.000 xcarc
1 1.000 36 -154 26 -163 2 polygon
1 1.000 38 -157 28 -166 2 polygon
1 1.000 32 -184 8 0.000 360.000 xcarc
1 1.000 36 -178 26 -187 2 polygon
1 1.000 38 -181 28 -190 2 polygon
(IN 0+) {/Helvetica cf} 2 16 0 0.500 -32 72 label
(IN 0-) {/Helvetica cf} 2 16 0 0.500 -32 48 label
(IN 1+) {/Helvetica cf} 2 16 0 0.500 -32 0 label
(IN 1-) {/Helvetica cf} 2 16 0 0.500 -32 -24 label
(IN 2+) {/Helvetica cf} 2 16 0 0.500 -32 -72 label
(IN 2-) {/Helvetica cf} 2 16 0 0.500 -32 -96 label
(IN 3+) {/Helvetica cf} 2 16 0 0.500 -32 -144 label
(IN 3-) {/Helvetica cf} 2 16 0 0.500 -32 -168 label
(Input) {/Helvetica cf} 2 16 0 0.700 -32 208 label
(Analog) {/Helvetica cf} 2 16 0 0.500 -32 128 label
0 1.000 8 176 8 168 24 168 24 176 4 polygon
(ANL COM) {/Helvetica cf} 2 16 0 0.400 -56 24 label
(ANL COM) {/Helvetica cf} 2 16 0 0.400 -56 -48 label
(ANL COM) {/Helvetica cf} 2 16 0 0.400 -56 -120 label
(ANL COM) {/Helvetica cf} 2 16 0 0.400 -56 -192 label
endgate
} def

/plc::1746_IB8 {
begingate
0.604 0.604 0.604 scb
240 1.000 -64 240 -64 -240 64 -240 64 240 4 polygon
sce
0 1.000 -64 240 -64 -240 64 -240 64 240 4 polygon
(Input) {/Helvetica cf} 2 16 0 0.700 -32 208 label
1 1.000 32 -48 11 0.000 360.000 xcarc
1 1.000 38 -40 23 -52 2 polygon
1 1.000 41 -44 26 -56 2 polygon
1 1.000 32 -16 11 0.000 360.000 xcarc
1 1.000 38 -8 23 -20 2 polygon
1 1.000 41 -12 26 -24 2 polygon
1 1.000 32 16 11 0.000 360.000 xcarc
1 1.000 38 24 23 12 2 polygon
1 1.000 41 20 26 8 2 polygon
1 1.000 32 -80 11 0.000 360.000 xcarc
1 1.000 38 -72 23 -84 2 polygon
1 1.000 41 -76 26 -88 2 polygon
1 1.000 32 -112 11 0.000 360.000 xcarc
1 1.000 38 -104 23 -116 2 polygon
1 1.000 41 -108 26 -120 2 polygon
1 1.000 32 -144 11 0.000 360.000 xcarc
1 1.000 38 -136 23 -148 2 polygon
1 1.000 41 -140 26 -152 2 polygon
1 1.000 32 -176 11 0.000 360.000 xcarc
1 1.000 38 -168 23 -180 2 polygon
1 1.000 41 -172 26 -184 2 polygon
1 1.000 32 -208 11 0.000 360.000 xcarc
1 1.000 38 -200 23 -212 2 polygon
1 1.000 41 -204 26 -216 2 polygon
0 1.000 -8 192 -8 184 8 184 8 192 4 polygon
0 1.000 24 192 24 184 40 184 40 192 4 polygon
0 1.000 -8 176 -8 168 8 168 8 176 4 polygon
0 1.000 24 176 24 168 40 168 40 176 4 polygon
0 1.000 -8 160 -8 152 8 152 8 160 4 polygon
0 1.000 24 160 24 152 40 152 40 160 4 polygon
0 1.000 -8 144 -8 136 8 136 8 144 4 polygon
0 1.000 24 144 24 136 40 136 40 144 4 polygon
(0) {/Helvetica cf} 2 16 0 0.400 -24 184 label
(1) {/Helvetica cf} 2 16 0 0.400 -24 168 label
(2) {/Helvetica cf} 2 16 0 0.400 -24 152 label
(3) {/Helvetica cf} 2 16 0 0.400 -24 136 label
(4) {/Helvetica cf} 2 16 0 0.400 48 184 label
(5) {/Helvetica cf} 2 16 0 0.400 48 168 label
(6) {/Helvetica cf} 2 16 0 0.400 48 152 label
(7) {/Helvetica cf} 2 16 0 0.400 48 136 label
(IN0) {/Helvetica cf} 2 16 0 0.500 -24 72 label
(IN1) {/Helvetica cf} 2 16 0 0.500 -24 40 label
(IN2) {/Helvetica cf} 2 16 0 0.500 -24 8 label
(IN3) {/Helvetica cf} 2 16 0 0.500 -24 -24 label
(IN4) {/Helvetica cf} 2 16 0 0.500 -24 -56 label
(IN5) {/Helvetica cf} 2 16 0 0.500 -24 -88 label
(IN6) {/Helvetica cf} 2 16 0 0.500 -24 -120 label
(IN7) {/Helvetica cf} 2 16 0 0.500 -24 -152 label
(COM) {/Helvetica cf} 2 16 0 0.500 -32 -184 label
1 1.000 32 48 11 0.000 360.000 xcarc
1 1.000 38 56 23 44 2 polygon
1 1.000 41 52 26 40 2 polygon
1 1.000 32 80 11 0.000 360.000 xcarc
1 1.000 38 88 23 76 2 polygon
1 1.000 41 84 26 72 2 polygon
(COM) {/Helvetica cf} 2 16 0 0.500 -32 -216 label
1 1.000 -64 112 64 112 2 polygon
endgate
} def

/plc::1746_OB8 {
begingate
0.604 0.604 0.604 scb
240 1.000 -64 240 -64 -240 64 -240 64 240 4 polygon
sce
0 1.000 -64 240 -64 -240 64 -240 64 240 4 polygon
(Output) {/Helvetica cf} 2 16 0 0.700 -48 208 label
0 1.000 -8 192 -8 184 8 184 8 192 4 polygon
0 1.000 24 192 24 184 40 184 40 192 4 polygon
0 1.000 -8 176 -8 168 8 168 8 176 4 polygon
0 1.000 24 176 24 168 40 168 40 176 4 polygon
0 1.000 -8 160 -8 152 8 152 8 160 4 polygon
0 1.000 24 160 24 152 40 152 40 160 4 polygon
0 1.000 -8 144 -8 136 8 136 8 144 4 polygon
0 1.000 24 144 24 136 40 136 40 144 4 polygon
(0) {/Helvetica cf} 2 16 0 0.400 -24 184 label
(1) {/Helvetica cf} 2 16 0 0.400 -24 168 label
(2) {/Helvetica cf} 2 16 0 0.400 -24 152 label
(3) {/Helvetica cf} 2 16 0 0.400 -24 136 label
(4) {/Helvetica cf} 2 16 0 0.400 48 184 label
(5) {/Helvetica cf} 2 16 0 0.400 48 168 label
(6) {/Helvetica cf} 2 16 0 0.400 48 152 label
(7) {/Helvetica cf} 2 16 0 0.400 48 136 label
1 1.000 -64 112 64 112 2 polygon
1 1.000 32 80 11 0.000 360.000 xcarc
1 1.000 38 88 23 76 2 polygon
1 1.000 41 84 26 72 2 polygon
1 1.000 32 48 11 0.000 360.000 xcarc
1 1.000 38 56 23 44 2 polygon
1 1.000 41 52 26 40 2 polygon
1 1.000 32 16 11 0.000 360.000 xcarc
1 1.000 38 24 23 12 2 polygon
1 1.000 41 20 26 8 2 polygon
1 1.000 32 -16 11 0.000 360.000 xcarc
1 1.000 38 -8 23 -20 2 polygon
1 1.000 41 -12 26 -24 2 polygon
1 1.000 32 -48 11 0.000 360.000 xcarc
1 1.000 38 -40 23 -52 2 polygon
1 1.000 41 -44 26 -56 2 polygon
1 1.000 32 -80 11 0.000 360.000 xcarc
1 1.000 38 -72 23 -84 2 polygon
1 1.000 41 -76 26 -88 2 polygon
1 1.000 32 -112 11 0.000 360.000 xcarc
1 1.000 38 -104 23 -116 2 polygon
1 1.000 41 -108 26 -120 2 polygon
1 1.000 32 -144 11 0.000 360.000 xcarc
1 1.000 38 -136 23 -148 2 polygon
1 1.000 41 -140 26 -152 2 polygon
1 1.000 32 -208 11 0.000 360.000 xcarc
1 1.000 38 -200 23 -212 2 polygon
1 1.000 41 -204 26 -216 2 polygon
1 1.000 32 -176 11 0.000 360.000 xcarc
1 1.000 38 -168 23 -180 2 polygon
1 1.000 41 -172 26 -184 2 polygon
(COM) {/Helvetica cf} 2 16 0 0.500 -32 -216 label
(OUT1) {/Helvetica cf} 2 16 0 0.500 -40 8 label
(OUT2) {/Helvetica cf} 2 16 0 0.500 -40 -24 label
(OUT3) {/Helvetica cf} 2 16 0 0.500 -40 -56 label
(OUT4) {/Helvetica cf} 2 16 0 0.500 -40 -88 label
(OUT5) {/Helvetica cf} 2 16 0 0.500 -40 -120 label
(OUT6) {/Helvetica cf} 2 16 0 0.500 -40 -152 label
(OUT7) {/Helvetica cf} 2 16 0 0.500 -40 -184 label
(OUT0) {/Helvetica cf} 2 16 0 0.500 -40 40 label
(VDC) {/Helvetica cf} 2 16 0 0.500 -32 72 label
endgate
} def

/plc::1746_OA8 {
begingate
0.604 0.604 0.604 scb
496 1.000 -64 240 -64 -240 64 -240 64 240 4 polygon
sce
0 1.000 -64 240 -64 -240 64 -240 64 240 4 polygon
1 1.000 -64 112 64 112 2 polygon
1 1.000 31 80 11 0.000 360.000 xcarc
1 1.000 22 76 37 88 2 polygon
1 1.000 25 72 40 84 2 polygon
1 1.000 31 48 11 0.000 360.000 xcarc
1 1.000 22 44 37 56 2 polygon
1 1.000 25 40 40 52 2 polygon
1 1.000 31 16 11 0.000 360.000 xcarc
1 1.000 22 12 37 24 2 polygon
1 1.000 25 8 40 20 2 polygon
1 1.000 31 -16 11 0.000 360.000 xcarc
1 1.000 22 -20 37 -8 2 polygon
1 1.000 25 -24 40 -12 2 polygon
1 1.000 31 -48 11 0.000 360.000 xcarc
1 1.000 22 -52 37 -40 2 polygon
1 1.000 25 -56 40 -44 2 polygon
1 1.000 31 -80 11 0.000 360.000 xcarc
1 1.000 22 -84 37 -72 2 polygon
1 1.000 25 -88 40 -76 2 polygon
1 1.000 31 -112 11 0.000 360.000 xcarc
1 1.000 22 -116 37 -104 2 polygon
1 1.000 25 -120 40 -108 2 polygon
1 1.000 31 -144 11 0.000 360.000 xcarc
1 1.000 22 -148 37 -136 2 polygon
1 1.000 25 -152 40 -140 2 polygon
1 1.000 31 -176 11 0.000 360.000 xcarc
1 1.000 22 -180 37 -168 2 polygon
1 1.000 25 -184 40 -172 2 polygon
1 1.000 31 -208 11 0.000 360.000 xcarc
1 1.000 22 -212 37 -200 2 polygon
1 1.000 25 -216 40 -204 2 polygon
(VAC 1) {/Helvetica cf} 2 16 0 0.500 -48 72 label
(OUT1) {/Helvetica cf} 2 16 0 0.500 -40 8 label
(OUT2) {/Helvetica cf} 2 16 0 0.500 -40 -24 label
(OUT3) {/Helvetica cf} 2 16 0 0.500 -40 -56 label
(OUT4) {/Helvetica cf} 2 16 0 0.500 -40 -120 label
(OUT5) {/Helvetica cf} 2 16 0 0.500 -40 -152 label
(OUT6) {/Helvetica cf} 2 16 0 0.500 -40 -184 label
(OUT7) {/Helvetica cf} 2 16 0 0.500 -40 -216 label
(VAC 2) {/Helvetica cf} 2 16 0 0.500 -48 -88 label
(OUT0) {/Helvetica cf} 2 16 0 0.500 -40 40 label
0 1.000 24 192 24 184 40 184 40 192 4 polygon
0 1.000 -8 192 -8 184 8 184 8 192 4 polygon
0 1.000 24 176 24 168 40 168 40 176 4 polygon
0 1.000 -8 176 -8 168 8 168 8 176 4 polygon
0 1.000 24 160 24 152 40 152 40 160 4 polygon
0 1.000 -8 160 -8 152 8 152 8 160 4 polygon
0 1.000 24 144 24 136 40 136 40 144 4 polygon
0 1.000 -8 144 -8 136 8 136 8 144 4 polygon
(Output) {/Helvetica cf} 2 16 0 0.700 -48 208 label
(0) {/Helvetica cf} 2 16 0 0.400 -24 184 label
(1) {/Helvetica cf} 2 16 0 0.400 -24 168 label
(2) {/Helvetica cf} 2 16 0 0.400 -24 152 label
(3) {/Helvetica cf} 2 16 0 0.400 -24 136 label
(6) {/Helvetica cf} 2 16 0 0.400 48 152 label
(7) {/Helvetica cf} 2 16 0 0.400 48 136 label
(4) {/Helvetica cf} 2 16 0 0.400 48 184 label
(5) {/Helvetica cf} 2 16 0 0.400 48 168 label
endgate
} def

/generic::arrowhead {
% nonetwork
begingate
8 -28 beginpath
3 -18 3 -15 0 0 curveto
-3 -15 -3 -18 -8 -28 curveto
-2 -26 2 -26 8 -28 curveto
249 
1.000 endpath
endgate
} def

/generic::arrow {
% nonetwork
begingate
1 0.800 0 -40 0 20 2 polygon
1.000 0 0 40 generic::arrowhead
endgate
} def


%%EndSetup

%%Page: 04330.eps 1
%%PageOrientation: Portrait
/pgsave save def bop
0.5000 inchscale
2.6000 setlinewidth 2624 624 translate

0.800 0.800 0.800 scb
240 1.000 -1280 528 -1280 48 -1056 48 -1056 528 4 polygon
sce
0 1.000 -1280 528 -1280 48 -1056 48 -1056 528 4 polygon
0.604 0.604 0.604 scb
240 1.000 -1040 528 -1040 48 -912 48 -912 528 4 polygon
sce
0 1.000 -1040 528 -1040 48 -912 48 -912 528 4 polygon
1.000 0 -1936 288 liec_dig::PLC1
0.824 0.706 0.549 scb
496 1.000 -1280 528 -1280 48 -336 48 -336 528 4 polygon
sce
1.000 0 -976 288 plc::plc_processor
1.000 0 -1168 288 plc::PLC_powersupply
1.000 0 -832 288 plc::1746_NI4
1.000 0 -544 288 plc::1746_IB8
1.000 0 -400 288 plc::1746_OB8
0 1.000 -1280 528 -1280 48 -336 48 -336 528 4 polygon
(Monolithic PLC) {/Helvetica cf} 2 16 0 1.000 -2064 560 label
1.000 0 -640 0 plc::1746_OA8
0.000 0.000 1.000 scb
(Individual cards may be) {/Helvetica-Oblique cf} 2 16 0 1.000 -1216 -128 label
(removed and replaced) {/Helvetica-Oblique cf} 2 16 0 1.000 -1216 -176 label
1.000 60 -752 -80 generic::arrow
(All I/O is fixed in one PLC unit) {/Helvetica-Oblique cf} 2 16 0 1.000 -2208 
-16 label
sce
(Modular \("rack-based"\) PLC) {/Helvetica cf} 2 16 0 1.000 -1056 560 label
pgsave restore showpage

%%Trailer
XCIRCsave restore
%%EOF
