%!PS-Adobe-3.0 EPSF-3.0
%%Title: plc_023.eps
%%Creator: XCircuit v3.4 rev27
%%CreationDate: Sun Mar  8 16:36:28 2009
%%Pages: 1
%%BoundingBox: 68 68 442 400
%%DocumentNeededResources: font Helvetica font Times-Roman 
%%EndComments
%%BeginProlog
%
%  PostScript prolog for output from xcircuit
%  Version: 3.3
%
%  Electrical circuit (and otherwise general) drawing program
%
%  Written by Tim Edwards 8/5/93--7/13/05  (tim.edwards@multigig.com)
%  The Johns Hopkins University (1993-2004)
%  MultiGiG, Inc. (2004-present)
%
%%BeginResource: procset XCIRCproc 3.3 0
%
% supporting definitions --- these are the primary xcircuit types.

/XCIRCsave save def
/topmat matrix currentmatrix def

/fontslant { /slant exch def [1 0 slant 1 0 0] 
    exch findfont exch makefont dup length dict /ndict exch def
    { 1 index /FID ne { ndict 3 1 roll put } { pop pop } ifelse } forall
    ndict definefont pop} def
/ul { dup type /stringtype eq showflag 1 eq and { gsave 
   currentpoint topmat setmatrix 0 0 moveto 2 index stringwidth pop (_)
   false charpath flattenpath pathbbox grestore exch pop 1 index
   sub setlinewidth exch pop currentpoint 3 -1 roll add moveto 0
   rlineto stroke moveto } if } def
/ol { dup type /stringtype eq showflag 1 eq and { gsave gsave
   currentpoint topmat setmatrix 2 index stringwidth pop 3 index
   true charpath flattenpath pathbbox grestore exch pop
   exch pop topmat setmatrix (_) true charpath pathbbox grestore
   exch pop 1 index sub setlinewidth exch pop currentpoint
   exch 4 1 roll exch sub add moveto pop 0 rlineto stroke
   moveto } if } def
/stW { gsave currentpoint newpath moveto true charpath flattenpath
	pathbbox pop exch pop sub grestore } def
/Ts {mark Tabs aload pop counttomark 1 add array astore /Tabs exch def Tabs
	0 currentpoint pop put} def
/Tbn {mark Tabs aload pop counttomark dup 2 add 1 roll cleartomark 1 sub} def
/Tb { 0 1 Tbn {Tabs exch get dup currentpoint pop lt
	{currentpoint exch pop moveto exit} {pop} ifelse } for } def
/Tf { Tbn -1 0 {Tabs exch get dup currentpoint pop gt
	{currentpoint exch pop moveto exit} {pop} ifelse } for } def
/qS { (aa) stW (a a) stW sub 4 div 0 Kn } def
/hS { qS qS } def
/pspc 0 def
/cf0 { scalefont setfont } bind def
/Kn { dup kY add /kY exch def rmoveto } bind def
/ss { /fscale fscale 0.67 mul def currentfont 0.67 cf0 0 fscale0 fscale mul
	0.33 mul neg Kn} def
/Ss { /fscale fscale 0.67 mul def currentfont 0.67 cf0 0 fscale0 fscale mul
	0.67 mul Kn } def
/ns { 0 kY neg Kn /kY 0 def /fscale 1.0 def xfont0 1.0 cf0 } def
/CR { ns 0 /Bline Bline fscale0 neg add def Bline moveto } def
/cf { dup type /realtype ne {1.0} if exch findfont exch kY 0 eq
	{ 40 mul dup /fscale0 exch def cf0 /xfont0 currentfont def}
	{fscale0 mul fscale mul cf0} ifelse } def
/ctmk { counttomark dup 2 add -1 roll pop } bind def
/label { gsave translate 0 0 moveto dup scale neg /rotval exch def
	/just exch def just 384 and 0 gt {/mshow {pop} def} {/mshow {show}
	def} ifelse just 16 and 0 gt {gsave rotval rotate 0 1 dtransform
	gsave pagemat setmatrix idtransform exch grestore 1 0 dtransform
	gsave pagemat setmatrix idtransform exch grestore dup abs 1e-9 lt
	{pop mul 0 gt} {3 1 roll pop pop 0 lt} ifelse grestore {-1 /rotval
	rotval neg def /just just dup 3 and 1 ne {3 xor} if def} {1} ifelse
	exch -1e-9 lt {-1 /rotval rotval neg def /just just dup 12 and
	4 ne {12 xor} if def} {1} ifelse scale } if /showflag 0 def
	/fspc pspc def /Bline 0 def /Tabs 0 array def /fscale 1.0 def
	/kY 0 def gsave dup 1 add copy 0 exch 1 0 dtransform exch atan rotate
	{exch dup type /stringtype eq {true charpath flattenpath} {dup type
	/arraytype eq {exec} {12 string cvs true charpath flattenpath} ifelse}
	ifelse} repeat pop pathbbox grestore 3 -1 roll pop 3 1 roll just
	1 and 0 gt {just 2 and 0 gt {exch pop neg fspc sub} {exch sub 0.5
	mul neg} ifelse} {pop neg fspc add} ifelse exch Bline exch just 4
	and 0 gt {just 8 and 0 gt {exch pop neg fspc sub} {add 0.5 mul neg}
	ifelse} {pop neg fspc add} ifelse rotval rotate Kn currentpoint
	translate /showflag 1 def /Bline 0 def /Tabs 0 array def /fscale
	1.0 def /kY 0 def {dup type /stringtype eq {mshow} {dup type
	/arraytype eq {exec} {12 string cvs mshow} ifelse} ifelse} repeat
	grestore } def
/pinlabel { 4 index 32 and 0 ne hlevel 0 eq or { /pspc 10 def label
	/pspc 0 def } { pop pop pop pop pop {pop} repeat } ifelse } def
/pinglobal { pinlabel } def
/infolabel { pinlabel } def
/graphic { gsave 4 index cvx exec /DataSource get resetfile translate
	0 0 moveto neg rotate dup scale cvx exec image grestore } def

/scb { setrgbcolor } bind def  /sce { defColor aload pop scb } bind def
/cRedef {/defColor currentcolor 3 array astore def} def
/begingate {dup type /dicttype ne {1 dict} if begin	% default params
	dup type /dicttype ne {1 dict} if begin		% instanced params
	/hlevel hlevel 1 add def /defColor currentcolor sce 3 array
	astore def gsave sce translate 0 0 moveto neg rotate dup abs scale
	} bind def
/endgate { /hlevel hlevel 1 sub def grestore defColor aload pop cRedef
	scb end end} bind def

/hlevel 0 def
/tmpa [1 0 0 1 0 0] def
/gar {8 8 true tmpa {<c0 c0 00 00 0c 0c 00 00>} imagemask} bind
{8 8 true tmpa {<30 70 60 02 03 07 06 20>} imagemask} bind
{8 8 true tmpa {<0c 1e 1e 0c c0 e1 e1 c0>} imagemask} bind
{8 8 true tmpa {<0f 0f 0f 0f f0 f0 f0 f0>} imagemask} bind
{8 8 true tmpa {<3f f3 e1 e1 f3 3f 1e 1e>} imagemask} bind
{8 8 true tmpa {<df cf 8f 9f fd fc f8 f9>} imagemask} bind
{8 8 true tmpa {<ff 3f 3f ff ff f3 f3 ff>} imagemask} bind 7 array astore def
/ppaint { gsave clip tmpa dup setmatrix pathbbox neg exch neg 4 2 roll
  neg 4 -1 roll 2 copy gt {exch} if 8 div ceiling 8 mul 4 2 roll neg 2 copy
  gt {exch} if 8 div ceiling 8 mul 3 -1 roll -8 5 -1 roll
  { 3 index exch 5 exch put dup -8 3 index { 3 index
  exch 4 exch put 3 index exec } for } for pop pop pop pop grestore } bind def
/setstyles {
  currentlinewidth mul setlinewidth /style exch def
  style 1 and 0 gt not {closepath} if
  style 1024 and 0 gt {2 setlinecap} if
  style 2 and 0 gt {currentlinewidth 4 mul dup 2 array astore 0 setdash} if
  style 4 and 0 gt {0.5 currentlinewidth 4 mul 2 array astore 0 setdash} if
  gsave style 16 and 0 gt { style 224 and -5 bitshift style 256 and 0 gt {
  7 exch sub 8 div dup 1 exch sub currentrgbcolor 3 array astore
  {3 copy mul add 4 1 roll pop} forall pop pop setrgbcolor eofill}
  {dup 7 lt {gar exch get ppaint} {pop eofill} ifelse} ifelse}
  {style 256 and 0 gt {1 setgray eofill} if} ifelse grestore style 8 and 0 gt 
  style 512 eq or {newpath} {stroke} ifelse grestore} def     

/polygon { gsave /num exch def moveto num 1 sub {lineto} repeat setstyles } def
/xcarc   { gsave newpath arc setstyles } def
/elb { matrix currentmatrix 7 -1 roll 7 -1 roll translate 5 1 roll 4 -1 roll
	3 index div 1 scale } def
/ele { 0 4 1 roll 0 4 1 roll } bind def
/ellipse { gsave elb newpath ele arc setmatrix setstyles } def
/pellip  { elb ele arc setmatrix } def
/nellip  { elb ele arcn setmatrix } def
/spline  { gsave moveto curveto setstyles } def
/polyc   { {lineto} repeat } bind def
/beginpath { gsave moveto } bind def
/endpath { setstyles } bind def
/bop	 { 1 setlinecap 0 setlinejoin 6 setmiterlimit 0 0 0 scb cRedef } def
/psinsertion {/PSobj save def /showpage {} def /setpagedevice {pop} def bop
	rotate translate dup scale} def
/end_insert {PSobj restore} def
/setpagemat {/pagemat matrix currentmatrix def} def
/inchscale  {setpagemat 0.375 mul dup scale} def
/cmscale    {setpagemat 0.35433071 mul dup scale} def

%%EndResource
%%EndProlog

% XCircuit output starts here.

%%BeginSetup

/PLC_powersupply {
begingate
0.800 0.800 0.800 scb
240 1.00 -112 240 -112 -240 112 -240 112 240 4 polygon
sce
0 1.00 -112 240 -112 -240 112 -240 112 240 4 polygon
(Power) {/Helvetica cf} 2 16 0 1.00 -64 192 label
(supply) {/Helvetica cf} 2 16 0 1.00 -64 152 label
1 1.00 -80 -208 16 0.00 360.00 xcarc
1 1.00 -72 -196 -92 -216 2 polygon
1 1.00 -68 -200 -88 -220 2 polygon
1 1.00 -80 -160 16 0.00 360.00 xcarc
1 1.00 -72 -148 -92 -168 2 polygon
1 1.00 -68 -152 -88 -172 2 polygon
1 1.00 -80 -112 16 0.00 360.00 xcarc
1 1.00 -72 -100 -92 -120 2 polygon
1 1.00 -68 -104 -88 -124 2 polygon
(L1) {/Helvetica cf} 2 16 0 0.70 -56 -120 label
(Gnd) {/Helvetica cf} 2 16 0 0.70 -56 -216 label
(L2/N) {/Helvetica cf} 2 16 0 0.70 -56 -168 label
endgate
} def

/plc_processor {
begingate
0.604 0.604 0.604 scb
240 1.00 -64 240 -64 -240 64 -240 64 240 4 polygon
sce
0 1.00 -64 240 -64 -240 64 -240 64 240 4 polygon
(Processor) {/Helvetica cf} 2 16 0 0.50 -48 208 label
0 1.00 -40 176 -40 160 40 160 40 176 4 polygon
0 1.00 -40 144 -40 128 40 128 40 144 4 polygon
1 1.00 -32 80 16 0.00 360.00 xcarc
1 1.00 32 80 16 0.00 360.00 xcarc
1 1.00 -32 -216 -32 -168 32 -168 32 -216 16 -216 16 -224 -16 -224 -16 -216 -32 
-216 9 polygon
endgate
} def

/1746_IB8 {
begingate
0.604 0.604 0.604 scb
240 1.00 -64 240 -64 -240 64 -240 64 240 4 polygon
sce
0 1.00 -64 240 -64 -240 64 -240 64 240 4 polygon
(Input) {/Helvetica cf} 2 16 0 0.70 -32 208 label
1 1.00 32 -48 11 0.00 360.00 xcarc
1 1.00 38 -40 23 -52 2 polygon
1 1.00 41 -44 26 -56 2 polygon
1 1.00 32 -16 11 0.00 360.00 xcarc
1 1.00 38 -8 23 -20 2 polygon
1 1.00 41 -12 26 -24 2 polygon
1 1.00 32 16 11 0.00 360.00 xcarc
1 1.00 38 24 23 12 2 polygon
1 1.00 41 20 26 8 2 polygon
1 1.00 32 -80 11 0.00 360.00 xcarc
1 1.00 38 -72 23 -84 2 polygon
1 1.00 41 -76 26 -88 2 polygon
1 1.00 32 -112 11 0.00 360.00 xcarc
1 1.00 38 -104 23 -116 2 polygon
1 1.00 41 -108 26 -120 2 polygon
1 1.00 32 -144 11 0.00 360.00 xcarc
1 1.00 38 -136 23 -148 2 polygon
1 1.00 41 -140 26 -152 2 polygon
1 1.00 32 -176 11 0.00 360.00 xcarc
1 1.00 38 -168 23 -180 2 polygon
1 1.00 41 -172 26 -184 2 polygon
1 1.00 32 -208 11 0.00 360.00 xcarc
1 1.00 38 -200 23 -212 2 polygon
1 1.00 41 -204 26 -216 2 polygon
0 1.00 -8 192 -8 184 8 184 8 192 4 polygon
0 1.00 24 192 24 184 40 184 40 192 4 polygon
0 1.00 -8 176 -8 168 8 168 8 176 4 polygon
0 1.00 24 176 24 168 40 168 40 176 4 polygon
0 1.00 -8 160 -8 152 8 152 8 160 4 polygon
0 1.00 24 160 24 152 40 152 40 160 4 polygon
0 1.00 -8 144 -8 136 8 136 8 144 4 polygon
0 1.00 24 144 24 136 40 136 40 144 4 polygon
(0) {/Helvetica cf} 2 16 0 0.40 -24 184 label
(1) {/Helvetica cf} 2 16 0 0.40 -24 168 label
(2) {/Helvetica cf} 2 16 0 0.40 -24 152 label
(3) {/Helvetica cf} 2 16 0 0.40 -24 136 label
(4) {/Helvetica cf} 2 16 0 0.40 48 184 label
(5) {/Helvetica cf} 2 16 0 0.40 48 168 label
(6) {/Helvetica cf} 2 16 0 0.40 48 152 label
(7) {/Helvetica cf} 2 16 0 0.40 48 136 label
(IN0) {/Helvetica cf} 2 16 0 0.50 -24 72 label
(IN1) {/Helvetica cf} 2 16 0 0.50 -24 40 label
(IN2) {/Helvetica cf} 2 16 0 0.50 -24 8 label
(IN3) {/Helvetica cf} 2 16 0 0.50 -24 -24 label
(IN4) {/Helvetica cf} 2 16 0 0.50 -24 -56 label
(IN5) {/Helvetica cf} 2 16 0 0.50 -24 -88 label
(IN6) {/Helvetica cf} 2 16 0 0.50 -24 -120 label
(IN7) {/Helvetica cf} 2 16 0 0.50 -24 -152 label
(COM) {/Helvetica cf} 2 16 0 0.50 -32 -184 label
1 1.00 32 48 11 0.00 360.00 xcarc
1 1.00 38 56 23 44 2 polygon
1 1.00 41 52 26 40 2 polygon
1 1.00 32 80 11 0.00 360.00 xcarc
1 1.00 38 88 23 76 2 polygon
1 1.00 41 84 26 72 2 polygon
(COM) {/Helvetica cf} 2 16 0 0.50 -32 -216 label
1 1.00 -64 112 64 112 2 polygon
endgate
} def

/1746_OA8 {
begingate
0.604 0.604 0.604 scb
496 1.00 -64 240 -64 -240 64 -240 64 240 4 polygon
sce
0 1.00 -64 240 -64 -240 64 -240 64 240 4 polygon
1 1.00 -64 112 64 112 2 polygon
1 1.00 31 80 11 0.00 360.00 xcarc
1 1.00 22 76 37 88 2 polygon
1 1.00 25 72 40 84 2 polygon
1 1.00 31 48 11 0.00 360.00 xcarc
1 1.00 22 44 37 56 2 polygon
1 1.00 25 40 40 52 2 polygon
1 1.00 31 16 11 0.00 360.00 xcarc
1 1.00 22 12 37 24 2 polygon
1 1.00 25 8 40 20 2 polygon
1 1.00 31 -16 11 0.00 360.00 xcarc
1 1.00 22 -20 37 -8 2 polygon
1 1.00 25 -24 40 -12 2 polygon
1 1.00 31 -48 11 0.00 360.00 xcarc
1 1.00 22 -52 37 -40 2 polygon
1 1.00 25 -56 40 -44 2 polygon
1 1.00 31 -80 11 0.00 360.00 xcarc
1 1.00 22 -84 37 -72 2 polygon
1 1.00 25 -88 40 -76 2 polygon
1 1.00 31 -112 11 0.00 360.00 xcarc
1 1.00 22 -116 37 -104 2 polygon
1 1.00 25 -120 40 -108 2 polygon
1 1.00 31 -144 11 0.00 360.00 xcarc
1 1.00 22 -148 37 -136 2 polygon
1 1.00 25 -152 40 -140 2 polygon
1 1.00 31 -176 11 0.00 360.00 xcarc
1 1.00 22 -180 37 -168 2 polygon
1 1.00 25 -184 40 -172 2 polygon
1 1.00 31 -208 11 0.00 360.00 xcarc
1 1.00 22 -212 37 -200 2 polygon
1 1.00 25 -216 40 -204 2 polygon
(VAC 1) {/Helvetica cf} 2 16 0 0.50 -48 72 label
(OUT1) {/Helvetica cf} 2 16 0 0.50 -40 8 label
(OUT2) {/Helvetica cf} 2 16 0 0.50 -40 -24 label
(OUT3) {/Helvetica cf} 2 16 0 0.50 -40 -56 label
(OUT4) {/Helvetica cf} 2 16 0 0.50 -40 -120 label
(OUT5) {/Helvetica cf} 2 16 0 0.50 -40 -152 label
(OUT6) {/Helvetica cf} 2 16 0 0.50 -40 -184 label
(OUT7) {/Helvetica cf} 2 16 0 0.50 -40 -216 label
(VAC 2) {/Helvetica cf} 2 16 0 0.50 -48 -88 label
(OUT0) {/Helvetica cf} 2 16 0 0.50 -40 40 label
0 1.00 24 192 24 184 40 184 40 192 4 polygon
0 1.00 -8 192 -8 184 8 184 8 192 4 polygon
0 1.00 24 176 24 168 40 168 40 176 4 polygon
0 1.00 -8 176 -8 168 8 168 8 176 4 polygon
0 1.00 24 160 24 152 40 152 40 160 4 polygon
0 1.00 -8 160 -8 152 8 152 8 160 4 polygon
0 1.00 24 144 24 136 40 136 40 144 4 polygon
0 1.00 -8 144 -8 136 8 136 8 144 4 polygon
(Output) {/Helvetica cf} 2 16 0 0.70 -48 208 label
(0) {/Helvetica cf} 2 16 0 0.40 -24 184 label
(1) {/Helvetica cf} 2 16 0 0.40 -24 168 label
(2) {/Helvetica cf} 2 16 0 0.40 -24 152 label
(3) {/Helvetica cf} 2 16 0 0.40 -24 136 label
(6) {/Helvetica cf} 2 16 0 0.40 48 152 label
(7) {/Helvetica cf} 2 16 0 0.40 48 136 label
(4) {/Helvetica cf} 2 16 0 0.40 48 184 label
(5) {/Helvetica cf} 2 16 0 0.40 48 168 label
endgate
} def

/dot {
begingate
248 1.00 0 0 6 0.00 360.00 xcarc
endgate
} def

/lamp {
begingate
1 1.00 0 22 32 0.00 360.00 xcarc
1.00 0 0 -40 dot
1 1.00 -8 -8 -8 16 2 polygon
1 1.00 8 -8 8 16 2 polygon
1 0.25 32 48 -32 48 8 16 -8 16 spline
0.800 0.800 0.800 scb
241 1.00 -24 0 -16 -8 -16 -40 16 -40 16 -8 24 0 8 -8 -8 -8 -24 0 9 polygon
sce
1 1.00 -24 0 -16 -8 -16 -40 16 -40 16 -8 24 0 6 polygon
1 1.00 16 -8 -16 -16 2 polygon
1 1.00 16 -16 -16 -24 2 polygon
1 1.00 16 -24 -16 -32 2 polygon
1 1.00 16 -32 -16 -40 2 polygon
endgate
} def

/lamp_socket {
begingate
0.824 0.706 0.549 scb
241 1.00 -24 32 -24 8 -32 0 -88 -8 -88 -16 88 -16 88 -8 32 0 24 8 24 32 -24 32 
11 polygon
sce
1 1.00 -88 -8 -88 -16 88 -16 88 -8 32 0 24 8 24 32 -24 32 -24 8 -32 0 -88 -8 
11 polygon
1 2.00 -48 -24 -32 -24 2 polygon
1 2.00 -40 -24 -40 -16 2 polygon
1 2.00 32 -24 48 -24 2 polygon
1 2.00 40 -24 40 -16 2 polygon
1 2.00 -40 -32 -40 -32 -32 -24 -48 -24 spline
1 2.00 40 -32 40 -32 48 -24 32 -24 spline
endgate
} def

/jumper {
% trivial
begingate
1 1.00 0 0 10 -90.00 90.00 xcarc
1 1.00 0 10 0 16 2 polygon
1 1.00 0 -10 0 -16 2 polygon
1.000 0.000 0.000 scb
(a) {/Times-Roman cf} 2 1 0 1.00 0 16 pinlabel
(a) {/Times-Roman cf} 2 13 0 1.00 0 -16 pinlabel
endgate
} def


%%EndSetup

%%Page: pid_023.eps 1
%%PageOrientation: Portrait
/pgsave save def bop
0.7500 inchscale
2.6000 setlinewidth 1112 1152 translate

0.824 0.706 0.549 scb
496 1.00 -336 256 -336 -224 320 -224 320 256 4 polygon
sce
0 1.00 -336 256 -336 -224 320 -224 320 256 4 polygon
1.00 0 -224 16 PLC_powersupply
1.00 0 -32 16 plc_processor
1.00 0 112 16 1746_IB8
1.00 0 256 16 1746_OA8
0.824 0.706 0.549 scb
496 1.00 -496 -288 -496 -432 -288 -432 -288 -288 4 polygon
sce
0 1.00 -496 -288 -496 -432 -288 -432 -288 -288 4 polygon
1 1.00 -312 -336 11 0.00 360.00 xcarc
1 1.00 -306 -328 -321 -340 2 polygon
1 1.00 -318 -344 -303 -332 2 polygon
1 1.00 -312 -384 11 0.00 360.00 xcarc
1 1.00 -306 -376 -321 -388 2 polygon
1 1.00 -318 -392 -303 -380 2 polygon
1 1.00 -336 -328 -336 -344 2 polygon
1 1.00 -344 -336 -328 -336 2 polygon
1 1.00 -344 -384 -328 -384 2 polygon
1 1.00 -464 -408 11 0.00 360.00 xcarc
1 1.00 -458 -400 -473 -412 2 polygon
1 1.00 -470 -416 -455 -404 2 polygon
1 1.00 -424 -408 11 0.00 360.00 xcarc
1 1.00 -418 -400 -433 -412 2 polygon
1 1.00 -430 -416 -415 -404 2 polygon
1 1.00 -384 -408 11 0.00 360.00 xcarc
1 1.00 -378 -400 -393 -412 2 polygon
1 1.00 -390 -416 -375 -404 2 polygon
(L1) {/Helvetica cf} 2 16 0 0.50 -488 -392 label
(L2) {/Helvetica cf} 2 16 0 0.50 -452 -392 label
(Gnd) {/Helvetica cf} 2 16 0 0.50 -420 -392 label
0.678 1.000 0.184 scb
496 1.00 -496 -336 -496 -384 -512 -384 -512 -336 4 polygon
sce
0 1.00 -496 -336 -496 -384 -512 -384 -512 -336 4 polygon
0.804 0.000 0.000 scb
1 1.00 -320 -96 -464 -96 2 polygon
1 1.00 -464 -96 -464 -396 2 polygon
1 1.00 -320 -144 -424 -144 -424 -396 3 polygon
1 1.00 -320 -192 -384 -192 -384 -396 3 polygon
0.824 0.706 0.549 scb
496 1.00 -496 -480 -496 -624 -288 -624 -288 -480 4 polygon
sce
0 1.00 -496 -480 -496 -624 -288 -624 -288 -480 4 polygon
1 1.00 -312 -528 11 0.00 360.00 xcarc
1 1.00 -306 -520 -321 -532 2 polygon
1 1.00 -318 -536 -303 -524 2 polygon
1 1.00 -312 -576 11 0.00 360.00 xcarc
1 1.00 -306 -568 -321 -580 2 polygon
1 1.00 -318 -584 -303 -572 2 polygon
1 1.00 -336 -520 -336 -536 2 polygon
1 1.00 -344 -528 -328 -528 2 polygon
1 1.00 -344 -576 -328 -576 2 polygon
1 1.00 -464 -600 11 0.00 360.00 xcarc
1 1.00 -458 -592 -473 -604 2 polygon
1 1.00 -470 -608 -455 -596 2 polygon
1 1.00 -424 -600 11 0.00 360.00 xcarc
1 1.00 -418 -592 -433 -604 2 polygon
1 1.00 -430 -608 -415 -596 2 polygon
1 1.00 -384 -600 11 0.00 360.00 xcarc
1 1.00 -378 -592 -393 -604 2 polygon
1 1.00 -390 -608 -375 -596 2 polygon
(L1) {/Helvetica cf} 2 16 0 0.50 -488 -584 label
(L2) {/Helvetica cf} 2 16 0 0.50 -452 -584 label
(Gnd) {/Helvetica cf} 2 16 0 0.50 -420 -584 label
0.678 1.000 0.184 scb
496 1.00 -496 -528 -496 -576 -512 -576 -512 -528 4 polygon
sce
0 1.00 -496 -528 -496 -576 -512 -576 -512 -528 4 polygon
0.804 0.000 0.000 scb
1 1.00 -464 -420 -464 -588 2 polygon
1 1.00 -424 -588 -424 -420 2 polygon
1 1.00 -384 -420 -384 -588 2 polygon
0.824 0.706 0.549 scb
496 1.00 -496 -672 -496 -816 -288 -816 -288 -672 4 polygon
sce
0 1.00 -496 -672 -496 -816 -288 -816 -288 -672 4 polygon
1 1.00 -312 -720 11 0.00 360.00 xcarc
1 1.00 -306 -712 -321 -724 2 polygon
1 1.00 -318 -728 -303 -716 2 polygon
1 1.00 -312 -768 11 0.00 360.00 xcarc
1 1.00 -306 -760 -321 -772 2 polygon
1 1.00 -318 -776 -303 -764 2 polygon
1 1.00 -336 -712 -336 -728 2 polygon
1 1.00 -344 -720 -328 -720 2 polygon
1 1.00 -344 -768 -328 -768 2 polygon
1 1.00 -464 -792 11 0.00 360.00 xcarc
1 1.00 -458 -784 -473 -796 2 polygon
1 1.00 -470 -800 -455 -788 2 polygon
1 1.00 -424 -792 11 0.00 360.00 xcarc
1 1.00 -418 -784 -433 -796 2 polygon
1 1.00 -430 -800 -415 -788 2 polygon
1 1.00 -384 -792 11 0.00 360.00 xcarc
1 1.00 -378 -784 -393 -796 2 polygon
1 1.00 -390 -800 -375 -788 2 polygon
(L1) {/Helvetica cf} 2 16 0 0.50 -488 -776 label
(L2) {/Helvetica cf} 2 16 0 0.50 -452 -776 label
(Gnd) {/Helvetica cf} 2 16 0 0.50 -420 -776 label
0.678 1.000 0.184 scb
496 1.00 -496 -720 -496 -768 -512 -768 -512 -720 4 polygon
sce
0 1.00 -496 -720 -496 -768 -512 -768 -512 -720 4 polygon
0.804 0.000 0.000 scb
1 1.00 -464 -612 -464 -780 2 polygon
1 1.00 -424 -780 -424 -612 2 polygon
1 1.00 -384 -612 -384 -780 2 polygon
1 1.00 -300 -336 56 -336 56 96 132 96 4 polygon
1 1.00 132 64 68 64 68 -528 -300 -528 4 polygon
1 1.00 132 32 80 32 80 -720 -300 -720 4 polygon
1 1.00 -320 -392 -352 -420 -352 -552 -324 -576 4 polygon
1 1.00 -324 -576 -352 -596 -352 -744 -324 -768 4 polygon
1 1.00 -300 -768 144 -768 144 -204 3 polygon
0.604 0.604 0.604 scb
496 1.00 -720 -608 -720 -736 -672 -736 -672 -608 4 polygon
sce
0 1.00 -720 -608 -720 -736 -672 -736 -672 -608 4 polygon
0.933 0.604 0.000 scb
497 1.00 -724 -568 -716 -532 -696 -480 -708 -604 spline
497 1.00 -668 -568 -676 -532 -696 -480 -684 -604 spline
497 1.00 -708 -604 -696 -484 -684 -604 -708 -604 4 polygon
1.000 0.000 0.000 scb
497 1.00 -708 -576 -708 -568 -696 -544 -704 -604 spline
497 1.00 -684 -576 -684 -568 -696 -544 -688 -604 spline
497 1.00 -704 -604 -696 -544 -688 -604 -704 -604 4 polygon
3 1.00 -520 -552 -664 -552 2 polygon
3 1.00 -520 -360 -664 -536 2 polygon
3 1.00 -664 -568 -520 -744 2 polygon
0.804 0.000 0.000 scb
1 1.00 -424 -804 -424 -864 160 -864 3 polygon
sce
1.00 0 308 -428 lamp
1.00 0 308 -480 lamp_socket
0.804 0.000 0.000 scb
1 1.00 -464 -804 -464 -896 448 -896 448 96 300 96 5 polygon
-1.00 90 -424 -176 jumper
-1.00 90 -464 -176 jumper
-1.00 90 -464 -128 jumper
1 1.00 -448 -176 -440 -176 2 polygon
1 1.00 -408 -176 -352 -176 -320 -192 3 polygon
1 1.00 -320 -144 -352 -128 -448 -128 3 polygon
1 1.00 -320 -96 -352 -80 -480 -80 3 polygon
1 1.00 -480 -80 -576 -80 2 polygon
1 1.00 -480 -128 -576 -128 2 polygon
1 1.00 -480 -176 -576 -176 2 polygon
sce
(To 120 VAC) {/Helvetica cf} 2 16 0 1.00 -824 -120 label
(power source) {/Helvetica cf} 2 16 0 1.00 -832 -160 label
(Burner) {/Helvetica cf} 2 16 0 1.00 -856 -560 label
(sensor A) {/Helvetica cf} 2 16 0 1.00 -280 -456 label
(Flame) {/Helvetica cf} 2 16 0 1.00 -264 -424 label
(Flame) {/Helvetica cf} 2 16 0 1.00 -264 -616 label
(Flame) {/Helvetica cf} 2 16 0 1.00 -264 -808 label
(sensor B) {/Helvetica cf} 2 16 0 1.00 -280 -648 label
(sensor C) {/Helvetica cf} 2 16 0 1.00 -280 -840 label
("Burner lit") {/Helvetica cf} 2 16 0 1.00 200 -280 label
(indicator) {/Helvetica cf} 2 16 0 1.00 224 -320 label
(lamp) {/Helvetica cf} 2 16 0 1.00 256 -360 label
0.804 0.000 0.000 scb
1 1.00 300 64 416 64 416 -560 396 -560 396 -528 348 -496 6 polygon
1 1.00 268 -496 224 -528 224 -864 160 -864 4 polygon
pgsave restore showpage

%%Trailer
XCIRCsave restore
%%EOF
