%!PS-Adobe-3.0 EPSF-3.0
%%Title: plc_074.eps
%%Creator: XCircuit v3.6 rev164
%%CreationDate: Fri Jul 29 03:19:37 2011
%%Pages: 1
%%BoundingBox: 68 68 485 260
%%DocumentNeededResources: font Helvetica Helvetica-Oblique Times-Roman 
%%EndComments
%%BeginProlog
%
%  PostScript prolog for output from xcircuit
%  Version: 3.3
%
%  Electrical circuit (and otherwise general) drawing program
%
%  Written by Tim Edwards 8/5/93--7/13/05  (tim.edwards@multigig.com)
%  The Johns Hopkins University (1993-2004)
%  MultiGiG, Inc. (2004-present)
%
%%BeginResource: procset XCIRCproc 3.3 0
%
% supporting definitions --- these are the primary xcircuit types.

/XCIRCsave save def
/topmat matrix currentmatrix def

/fontslant { /slant exch def [1 0 slant 1 0 0] 
    exch findfont exch makefont dup length dict /ndict exch def
    { 1 index /FID ne { ndict 3 1 roll put } { pop pop } ifelse } forall
    ndict definefont pop} def
/ul { dup type /stringtype eq showflag 1 eq and { gsave 
   currentpoint topmat setmatrix 0 0 moveto 2 index stringwidth pop (_)
   false charpath flattenpath pathbbox grestore exch pop 1 index
   sub setlinewidth exch pop currentpoint 3 -1 roll add moveto 0
   rlineto stroke moveto } if } def
/ol { dup type /stringtype eq showflag 1 eq and { gsave gsave
   currentpoint topmat setmatrix 2 index stringwidth pop 3 index
   true charpath flattenpath pathbbox grestore exch pop
   exch pop topmat setmatrix (_) true charpath pathbbox grestore
   exch pop 1 index sub setlinewidth exch pop currentpoint
   exch 4 1 roll exch sub add moveto pop 0 rlineto stroke
   moveto } if } def
/stW { gsave currentpoint newpath moveto true charpath flattenpath
	pathbbox pop exch pop sub grestore } def
/Ts {mark Tabs aload pop counttomark 1 add array astore /Tabs exch def Tabs
	0 currentpoint pop put} def
/Tbn {mark Tabs aload pop counttomark dup 2 add 1 roll cleartomark 1 sub} def
/Tb { 0 1 Tbn {Tabs exch get dup currentpoint pop lt
	{currentpoint exch pop moveto exit} {pop} ifelse } for } def
/Tf { Tbn -1 0 {Tabs exch get dup currentpoint pop gt
	{currentpoint exch pop moveto exit} {pop} ifelse } for } def
/qS { (aa) stW (a a) stW sub 4 div 0 Kn } def
/hS { qS qS } def
/pspc 0 def
/cf0 { scalefont setfont } bind def
/Kn { dup kY add /kY exch def rmoveto } bind def
/ss { /fscale fscale 0.67 mul def currentfont 0.67 cf0 0 fscale0 fscale mul
	0.33 mul neg Kn} def
/Ss { /fscale fscale 0.67 mul def currentfont 0.67 cf0 0 fscale0 fscale mul
	0.67 mul Kn } def
/ns { 0 kY neg Kn /kY 0 def /fscale 1.0 def xfont0 1.0 cf0 } def
/CR { ns 0 /Bline Bline fscale0 neg add def Bline moveto } def
/cf { dup type /realtype ne {1.0} if exch findfont exch kY 0 eq
	{ 40 mul dup /fscale0 exch def cf0 /xfont0 currentfont def}
	{fscale0 mul fscale mul cf0} ifelse } def
/ctmk { counttomark dup 2 add -1 roll pop } bind def
/label { gsave translate 0 0 moveto dup scale neg /rotval exch def
	/just exch def just 384 and 0 gt {/mshow {pop} def} {/mshow {show}
	def} ifelse just 16 and 0 gt {gsave rotval rotate 0 1 dtransform
	gsave pagemat setmatrix idtransform exch grestore 1 0 dtransform
	gsave pagemat setmatrix idtransform exch grestore dup abs 1e-9 lt
	{pop mul 0 gt} {3 1 roll pop pop 0 lt} ifelse grestore {-1 /rotval
	rotval neg def /just just dup 3 and 1 ne {3 xor} if def} {1} ifelse
	exch -1e-9 lt {-1 /rotval rotval neg def /just just dup 12 and
	4 ne {12 xor} if def} {1} ifelse scale } if /showflag 0 def
	/fspc pspc def /Bline 0 def /Tabs 0 array def /fscale 1.0 def
	/kY 0 def gsave dup 1 add copy 0 exch 1 0 dtransform exch atan rotate
	{exch dup type /stringtype eq {true charpath flattenpath} {dup type
	/arraytype eq {exec} {12 string cvs true charpath flattenpath} ifelse}
	ifelse} repeat pop pathbbox grestore 3 -1 roll pop 3 1 roll just
	1 and 0 gt {just 2 and 0 gt {exch pop neg fspc sub} {exch sub 0.5
	mul neg} ifelse} {pop neg fspc add} ifelse exch Bline exch just 4
	and 0 gt {just 8 and 0 gt {exch pop neg fspc sub} {add 0.5 mul neg}
	ifelse} {pop neg fspc add} ifelse rotval rotate Kn currentpoint
	translate /showflag 1 def /Bline 0 def /Tabs 0 array def /fscale
	1.0 def /kY 0 def {dup type /stringtype eq {mshow} {dup type
	/arraytype eq {exec} {12 string cvs mshow} ifelse} ifelse} repeat
	grestore } def
/pinlabel { 4 index 32 and 0 ne hlevel 0 eq or { /pspc 10 def label
	/pspc 0 def } { pop pop pop pop pop {pop} repeat } ifelse } def
/pinglobal { pinlabel } def
/infolabel { pinlabel } def
/graphic { gsave 4 index cvx exec /DataSource get resetfile translate
	0 0 moveto neg rotate dup scale cvx exec image grestore } def

/scb { setrgbcolor } bind def  /sce { defColor aload pop scb } bind def
/cRedef {/defColor currentcolor 3 array astore def} def
/begingate {dup type /dicttype ne {1 dict} if begin	% default params
	dup type /dicttype ne {1 dict} if begin		% instanced params
	/hlevel hlevel 1 add def /defColor currentcolor sce 3 array
	astore def gsave sce translate 0 0 moveto neg rotate dup abs scale
	} bind def
/endgate { /hlevel hlevel 1 sub def grestore defColor aload pop cRedef
	scb end end} bind def

/hlevel 0 def
/tmpa [1 0 0 1 0 0] def
/gar {8 8 true tmpa {<c0 c0 00 00 0c 0c 00 00>} imagemask} bind
{8 8 true tmpa {<30 70 60 02 03 07 06 20>} imagemask} bind
{8 8 true tmpa {<0c 1e 1e 0c c0 e1 e1 c0>} imagemask} bind
{8 8 true tmpa {<0f 0f 0f 0f f0 f0 f0 f0>} imagemask} bind
{8 8 true tmpa {<3f f3 e1 e1 f3 3f 1e 1e>} imagemask} bind
{8 8 true tmpa {<df cf 8f 9f fd fc f8 f9>} imagemask} bind
{8 8 true tmpa {<ff 3f 3f ff ff f3 f3 ff>} imagemask} bind 7 array astore def
/ppaint { gsave clip tmpa dup setmatrix pathbbox neg exch neg 4 2 roll
  neg 4 -1 roll 2 copy gt {exch} if 8 div ceiling 8 mul 4 2 roll neg 2 copy
  gt {exch} if 8 div ceiling 8 mul 3 -1 roll -8 5 -1 roll
  { 3 index exch 5 exch put dup -8 3 index { 3 index
  exch 4 exch put 3 index exec } for } for pop pop pop pop grestore } bind def
/setstyles {
  currentlinewidth mul setlinewidth /style exch def
  style 1 and 0 gt not {closepath} if
  style 1024 and 0 gt {2 setlinecap} if
  style 2 and 0 gt {currentlinewidth 4 mul dup 2 array astore 0 setdash} if
  style 4 and 0 gt {0.5 currentlinewidth 4 mul 2 array astore 0 setdash} if
  gsave style 16 and 0 gt { style 224 and -5 bitshift style 256 and 0 gt {
  7 exch sub 8 div dup 1 exch sub currentrgbcolor 3 array astore
  {3 copy mul add 4 1 roll pop} forall pop pop setrgbcolor eofill}
  {dup 7 lt {gar exch get ppaint} {pop eofill} ifelse} ifelse}
  {style 256 and 0 gt {1 setgray eofill} if} ifelse grestore style 8 and 0 gt 
  style 512 eq or {newpath} {stroke} ifelse grestore} def     

/polygon { gsave /num exch def moveto num 1 sub {lineto} repeat setstyles } def
/xcarc   { gsave newpath arc setstyles } def
/elb { matrix currentmatrix 7 -1 roll 7 -1 roll translate 5 1 roll 4 -1 roll
	3 index div 1 scale } def
/ele { 0 4 1 roll 0 4 1 roll } bind def
/ellipse { gsave elb newpath ele arc setmatrix setstyles } def
/pellip  { elb ele arc setmatrix } def
/nellip  { elb ele arcn setmatrix } def
/spline  { gsave moveto curveto setstyles } def
/polyc   { {lineto} repeat } bind def
/beginpath { gsave moveto } bind def
/endpath { setstyles } bind def
/bop	 { 1 setlinecap 0 setlinejoin 6 setmiterlimit 0 0 0 scb cRedef } def
/psinsertion {/PSobj save def /showpage {} def /setpagedevice {pop} def bop
	rotate translate dup scale} def
/end_insert {PSobj restore} def
/setpagemat {/pagemat matrix currentmatrix def} def
/inchscale  {setpagemat 0.375 mul dup scale} def
/cmscale    {setpagemat 0.35433071 mul dup scale} def

%%EndResource
%%EndProlog

% XCircuit output starts here.

%%BeginSetup

/liec_smi::diode {
begingate
248 1.000 -18 -16 0 16 18 -16 3 polygon
1 1.000 0 -48 0 -16 2 polygon
1 1.000 0 48 0 16 2 polygon
1 1.000 -18 16 18 16 2 polygon
1.000 0.000 0.000 scb
(d.m) {/Times-Roman cf} 2 9 0 1.000 0 48 pinlabel
(d.p) {/Times-Roman cf} 2 13 0 1.000 0 -48 pinlabel
endgate
} def

/liec_smi::DIAC {
begingate
241 1.000 -24 16 -12 -16 0 16 3 polygon
1 1.000 0 16 0 48 2 polygon
1 1.000 -28 16 28 16 2 polygon
241 1.000 24 -16 12 16 0 -16 3 polygon
1 1.000 0 -16 0 -48 2 polygon
1 1.000 -28 -16 28 -16 2 polygon
endgate
} def

/analog::source {
% hidden
begingate
1 1.000 0 0 32 0.000 360.000 xcarc
1 1.000 0 32 0 64 2 polygon
1 1.000 0 -32 0 -64 2 polygon
endgate
} def

/analog::acsource {
begingate
1.000 0 0 0 analog::source
1 0.800 0 -48 0 48 -16 0 16 0 spline
1.000 0.000 0.000 scb
(s.p) {/Times-Roman cf} 2 9 0 1.000 0 64 pinlabel
(s.m) {/Times-Roman cf} 2 13 0 1.000 0 -64 pinlabel
endgate
} def

/liec_exp::contactor1 {
begingate
0.800 0.800 0.800 scb
240 1.000 -144 192 -144 128 -80 128 -80 192 4 polygon
sce
0 1.000 -144 192 -144 128 -80 128 -80 192 4 polygon
1 1.000 -112 160 16 0.000 360.000 xcarc
1 1.000 -126 156 -102 172 2 polygon
1 1.000 -122 148 -98 164 2 polygon
0.800 0.800 0.800 scb
240 1.000 -16 192 -16 128 48 128 48 192 4 polygon
sce
0 1.000 -16 192 -16 128 48 128 48 192 4 polygon
1 1.000 16 160 16 0.000 360.000 xcarc
1 1.000 2 156 26 172 2 polygon
1 1.000 6 148 30 164 2 polygon
0.800 0.800 0.800 scb
240 1.000 112 192 112 128 176 128 176 192 4 polygon
sce
0 1.000 112 192 112 128 176 128 176 192 4 polygon
1 1.000 144 160 16 0.000 360.000 xcarc
1 1.000 130 156 154 172 2 polygon
1 1.000 134 148 158 164 2 polygon
0.604 0.604 0.604 scb
240 1.000 -160 128 -160 -112 192 -112 192 128 4 polygon
sce
0 1.000 -160 128 -160 -112 192 -112 192 128 4 polygon
0.800 0.800 0.800 scb
240 1.000 -144 -112 -144 -176 -80 -176 -80 -112 4 polygon
sce
0 1.000 -144 -112 -144 -176 -80 -176 -80 -112 4 polygon
1 1.000 -112 -144 16 0.000 360.000 xcarc
1 1.000 -126 -148 -102 -132 2 polygon
1 1.000 -122 -156 -98 -140 2 polygon
0.800 0.800 0.800 scb
240 1.000 -16 -112 -16 -176 48 -176 48 -112 4 polygon
sce
0 1.000 -16 -112 -16 -176 48 -176 48 -112 4 polygon
1 1.000 16 -144 16 0.000 360.000 xcarc
1 1.000 2 -148 26 -132 2 polygon
1 1.000 6 -156 30 -140 2 polygon
0.800 0.800 0.800 scb
240 1.000 112 -112 112 -176 176 -176 176 -112 4 polygon
sce
0 1.000 112 -112 112 -176 176 -176 176 -112 4 polygon
1 1.000 144 -144 16 0.000 360.000 xcarc
1 1.000 130 -148 154 -132 2 polygon
1 1.000 134 -156 158 -140 2 polygon
0 2.000 -32 48 -32 -32 64 -32 64 48 4 polygon
0.800 0.800 0.800 scb
240 1.000 -200 96 -200 64 -168 64 -168 96 4 polygon
sce
0 1.000 -200 96 -200 64 -168 64 -168 96 4 polygon
1 1.000 -184 80 11 0.000 360.000 xcarc
1 1.000 -194 79 -175 86 2 polygon
1 1.000 -192 74 -173 81 2 polygon
0.800 0.800 0.800 scb
240 1.000 192 -48 192 -80 224 -80 224 -48 4 polygon
sce
0 1.000 192 -48 192 -80 224 -80 224 -48 4 polygon
1 1.000 208 -64 11 0.000 360.000 xcarc
1 1.000 198 -65 217 -58 2 polygon
1 1.000 200 -70 219 -63 2 polygon
0.604 0.604 0.604 scb
240 1.000 -160 64 -160 -48 -208 -48 -208 64 4 polygon
sce
0 1.000 -208 64 -208 -48 -160 -48 -160 64 4 polygon
0.800 0.800 0.800 scb
240 1.000 -200 -48 -200 -80 -168 -80 -168 -48 4 polygon
sce
0 1.000 -200 -48 -200 -80 -168 -80 -168 -48 4 polygon
1 1.000 -184 -64 11 0.000 360.000 xcarc
1 1.000 -194 -65 -175 -58 2 polygon
1 1.000 -200 16 -168 16 2 polygon
1 1.000 -200 0 -168 0 2 polygon
1 1.000 -168 24 -200 -8 2 polygon
1 1.000 -184 16 -184 56 2 polygon
1 1.000 -184 -40 -184 0 2 polygon
0.800 0.800 0.800 scb
240 1.000 192 0 192 -32 224 -32 224 0 4 polygon
sce
0 1.000 192 0 192 -32 224 -32 224 0 4 polygon
1 1.000 208 -16 11 0.000 360.000 xcarc
1 1.000 198 -17 217 -10 2 polygon
1 1.000 200 -22 219 -15 2 polygon
1 1.000 160 -40 16 0.000 360.000 xcarc
1 1.000 160 -24 160 -16 184 -16 3 polygon
1 1.000 160 -56 160 -64 184 -64 3 polygon
endgate
} def

/generic::dot {
% trivial
begingate
248 1.000 0 0 6 0.000 360.000 xcarc
1.000 0.000 0.000 scb
(x) {/Times-Roman cf} 2 29 0 1.000 0 0 pinlabel
endgate
} def

/liec_exp::lamp {
begingate
1 1.000 0 22 32 0.000 360.000 xcarc
1.000 0 0 -40 generic::dot
1 1.000 -8 -8 -8 16 2 polygon
1 1.000 8 -8 8 16 2 polygon
1 0.250 32 48 -32 48 8 16 -8 16 spline
0.800 0.800 0.800 scb
241 1.000 -24 0 -16 -8 -16 -40 16 -40 16 -8 24 0 8 -8 -8 -8 -24 0 9 polygon
sce
1 1.000 -24 0 -16 -8 -16 -40 16 -40 16 -8 24 0 6 polygon
1 1.000 16 -8 -16 -16 2 polygon
1 1.000 16 -16 -16 -24 2 polygon
1 1.000 16 -24 -16 -32 2 polygon
1 1.000 16 -32 -16 -40 2 polygon
endgate
} def

/liec_exp::lamp_socket {
begingate
0.824 0.706 0.549 scb
241 1.000 -24 32 -24 8 -32 0 -88 -8 -88 -16 88 -16 88 -8 32 0 24 8 24 32 -24 32 
11 polygon
sce
1 1.000 -88 -8 -88 -16 88 -16 88 -8 32 0 24 8 24 32 -24 32 -24 8 -32 0 -88 -8 
11 polygon
1 2.000 -48 -24 -32 -24 2 polygon
1 2.000 -40 -24 -40 -16 2 polygon
1 2.000 32 -24 48 -24 2 polygon
1 2.000 40 -24 40 -16 2 polygon
1 2.000 -40 -32 -40 -32 -32 -24 -48 -24 spline
1 2.000 40 -32 40 -32 48 -24 32 -24 spline
endgate
} def


%%EndSetup

%%Page: 04330.eps 1
%%PageOrientation: Portrait
/pgsave save def bop
% 32.00 8.00 gridspace
0.6500 inchscale
2.6000 setlinewidth 1575 461 translate

0.824 0.706 0.549 scb
496 1.000 -1280 528 -1280 48 -400 48 -400 528 4 polygon
sce
0 1.000 -1280 528 -1280 48 -400 48 -400 528 4 polygon
0.800 0.800 0.800 scb
240 1.000 -1280 528 -1280 48 -1056 48 -1056 528 4 polygon
sce
0 1.000 -1280 528 -1280 48 -1056 48 -1056 528 4 polygon
(Power) {/Helvetica cf} 2 16 0 1.000 -1232 480 label
(supply) {/Helvetica cf} 2 16 0 1.000 -1232 440 label
1 1.000 -1248 80 16 0.000 360.000 xcarc
1 1.000 -1240 92 -1260 72 2 polygon
1 1.000 -1236 88 -1256 68 2 polygon
1 1.000 -1248 128 16 0.000 360.000 xcarc
1 1.000 -1240 140 -1260 120 2 polygon
1 1.000 -1236 136 -1256 116 2 polygon
1 1.000 -1248 176 16 0.000 360.000 xcarc
1 1.000 -1240 188 -1260 168 2 polygon
1 1.000 -1236 184 -1256 164 2 polygon
(L1) {/Helvetica cf} 2 16 0 0.700 -1224 168 label
(Gnd) {/Helvetica cf} 2 16 0 0.700 -1224 72 label
0.604 0.604 0.604 scb
240 1.000 -1040 528 -1040 48 -912 48 -912 528 4 polygon
sce
0 1.000 -1040 528 -1040 48 -912 48 -912 528 4 polygon
(Processor) {/Helvetica cf} 2 16 0 0.500 -1024 496 label
0 1.000 -1016 464 -1016 448 -936 448 -936 464 4 polygon
0 1.000 -1016 432 -1016 416 -936 416 -936 432 4 polygon
1 1.000 -1008 368 16 0.000 360.000 xcarc
1 1.000 -944 368 16 0.000 360.000 xcarc
1 1.000 -1008 72 -1008 120 -944 120 -944 72 -960 72 -960 64 -992 64 -992 72 
-1008 72 9 polygon
(L2/N) {/Helvetica cf} 2 16 0 0.700 -1224 120 label
0.898 0.898 0.898 scb
496 1.000 -400 528 -400 48 -896 48 -896 528 4 polygon
sce
1 1.000 -480 352 16 0.000 360.000 xcarc
1 1.000 -472 364 -492 344 2 polygon
1 1.000 -468 360 -488 340 2 polygon
1 1.000 -480 416 16 0.000 360.000 xcarc
1 1.000 -472 428 -492 408 2 polygon
1 1.000 -468 424 -488 404 2 polygon
1 1.000 -480 80 16 0.000 360.000 xcarc
1 1.000 -472 92 -492 72 2 polygon
1 1.000 -468 88 -488 68 2 polygon
0.800 0.800 0.800 scb
496 1.000 -880 384 -880 224 -688 224 -688 384 4 polygon
sce
1 1.000 -544 416 -496 416 2 polygon
(Ch1) {/Helvetica cf} 2 16 0 0.500 -536 424 label
(Ch3) {/Helvetica cf} 2 16 0 0.500 -536 296 label
(Ch2) {/Helvetica cf} 2 16 0 0.500 -536 360 label
1 1.000 -480 288 16 0.000 360.000 xcarc
1 1.000 -472 300 -492 280 2 polygon
1 1.000 -468 296 -488 276 2 polygon
1 1.000 -496 352 -544 352 2 polygon
1 1.000 -496 288 -544 288 2 polygon
(...) {/Helvetica cf} 2 16 0 1.000 -576 352 label
(...) {/Helvetica cf} 2 16 0 1.000 -576 288 label
0 1.000 -896 528 -896 48 -400 48 -400 528 4 polygon
-1.000 180 -848 304 liec_smi::diode
1 1.000 -814 306 -798 290 2 polygon
1 1.000 -806 290 -798 290 -798 298 3 polygon
1 1.000 -802 318 -786 302 2 polygon
1 1.000 -794 302 -786 302 -786 310 3 polygon
1 1.000 -848 240 -848 208 -928 208 3 polygon
3 1.000 -928 208 -992 208 2 polygon
1 1.000 -848 368 -880 368 -880 320 -928 320 4 polygon
3 1.000 -928 320 -992 320 2 polygon
(supply) {/Helvetica cf} 2 16 0 1.000 256 184 label
(PLC) {/Helvetica cf} 2 16 0 1.000 -928 560 label
(Discrete output card \(TRIAC\)) {/Helvetica cf} 2 16 0 0.750 -856 488 label
1 1.000 -848 368 -848 352 2 polygon
1 1.000 -848 256 -848 240 2 polygon
1.000 0 -736 304 liec_smi::DIAC
(VAC) {/Helvetica cf} 2 16 0 0.500 -544 88 label
1 1.000 -496 80 -736 80 -736 256 3 polygon
1 1.000 -736 352 -736 416 -544 416 3 polygon
1.000 0 176 208 analog::acsource
(AC power) {/Helvetica cf} 2 16 0 1.000 224 224 label
-0.500 0 -96 496 liec_exp::contactor1
1.000 0 -96 224 liec_exp::lamp
1.000 0 -96 176 liec_exp::lamp_socket
1 1.000 -464 416 -352 416 -352 488 -208 488 4 polygon
1 1.000 -464 352 -352 352 -352 128 -160 128 -136 160 5 polygon
1 1.000 -56 160 -32 128 96 128 96 384 176 384 5 polygon
1.000 0 96 384 generic::dot
1 1.000 96 384 -240 384 -240 464 -208 464 4 polygon
(Contactor) {/Helvetica cf} 2 16 0 1.000 -8 560 label
(Lamp) {/Helvetica cf} 2 16 0 1.000 -248 240 label
1.000 0.000 0.000 scb
(Setting a bit \(1\) in the PLC's output register sends a "high" signal) 
{/Helvetica-Oblique cf} 2 16 0 1.000 -1184 -64 label
(to the LED inside the optocoupler, turning on the photo-TRIAC,) 
{/Helvetica-Oblique cf} 2 16 0 1.000 -1184 -112 label
(sending AC power to the output channel to energize the load.) 
{/Helvetica-Oblique cf} 2 16 0 1.000 -1184 -160 label
sce
1 1.000 -464 80 -352 80 -352 0 176 0 176 144 5 polygon
1 1.000 176 272 176 384 2 polygon
(Optocoupler) {/Helvetica cf} 2 16 0 0.500 -864 392 label
pgsave restore showpage

%%Trailer
XCIRCsave restore
%%EOF
