%!PS-Adobe-3.0 EPSF-3.0
%%Title: plc_055.eps
%%Creator: XCircuit v3.6 rev164
%%CreationDate: Sun Mar 21 08:18:59 2010
%%Pages: 1
%%BoundingBox: 68 68 486 416
%%DocumentNeededResources: font Helvetica Helvetica-Bold Helvetica-Oblique 
%%+ font Times-Roman Courier 
%%EndComments
%%BeginProlog
%
%  PostScript prolog for output from xcircuit
%  Version: 3.3
%
%  Electrical circuit (and otherwise general) drawing program
%
%  Written by Tim Edwards 8/5/93--7/13/05  (tim.edwards@multigig.com)
%  The Johns Hopkins University (1993-2004)
%  MultiGiG, Inc. (2004-present)
%
%%BeginResource: procset XCIRCproc 3.3 0
%
% supporting definitions --- these are the primary xcircuit types.

/XCIRCsave save def
/topmat matrix currentmatrix def

/fontslant { /slant exch def [1 0 slant 1 0 0] 
    exch findfont exch makefont dup length dict /ndict exch def
    { 1 index /FID ne { ndict 3 1 roll put } { pop pop } ifelse } forall
    ndict definefont pop} def
/ul { dup type /stringtype eq showflag 1 eq and { gsave 
   currentpoint topmat setmatrix 0 0 moveto 2 index stringwidth pop (_)
   false charpath flattenpath pathbbox grestore exch pop 1 index
   sub setlinewidth exch pop currentpoint 3 -1 roll add moveto 0
   rlineto stroke moveto } if } def
/ol { dup type /stringtype eq showflag 1 eq and { gsave gsave
   currentpoint topmat setmatrix 2 index stringwidth pop 3 index
   true charpath flattenpath pathbbox grestore exch pop
   exch pop topmat setmatrix (_) true charpath pathbbox grestore
   exch pop 1 index sub setlinewidth exch pop currentpoint
   exch 4 1 roll exch sub add moveto pop 0 rlineto stroke
   moveto } if } def
/stW { gsave currentpoint newpath moveto true charpath flattenpath
	pathbbox pop exch pop sub grestore } def
/Ts {mark Tabs aload pop counttomark 1 add array astore /Tabs exch def Tabs
	0 currentpoint pop put} def
/Tbn {mark Tabs aload pop counttomark dup 2 add 1 roll cleartomark 1 sub} def
/Tb { 0 1 Tbn {Tabs exch get dup currentpoint pop lt
	{currentpoint exch pop moveto exit} {pop} ifelse } for } def
/Tf { Tbn -1 0 {Tabs exch get dup currentpoint pop gt
	{currentpoint exch pop moveto exit} {pop} ifelse } for } def
/qS { (aa) stW (a a) stW sub 4 div 0 Kn } def
/hS { qS qS } def
/pspc 0 def
/cf0 { scalefont setfont } bind def
/Kn { dup kY add /kY exch def rmoveto } bind def
/ss { /fscale fscale 0.67 mul def currentfont 0.67 cf0 0 fscale0 fscale mul
	0.33 mul neg Kn} def
/Ss { /fscale fscale 0.67 mul def currentfont 0.67 cf0 0 fscale0 fscale mul
	0.67 mul Kn } def
/ns { 0 kY neg Kn /kY 0 def /fscale 1.0 def xfont0 1.0 cf0 } def
/CR { ns 0 /Bline Bline fscale0 neg add def Bline moveto } def
/cf { dup type /realtype ne {1.0} if exch findfont exch kY 0 eq
	{ 40 mul dup /fscale0 exch def cf0 /xfont0 currentfont def}
	{fscale0 mul fscale mul cf0} ifelse } def
/ctmk { counttomark dup 2 add -1 roll pop } bind def
/label { gsave translate 0 0 moveto dup scale neg /rotval exch def
	/just exch def just 384 and 0 gt {/mshow {pop} def} {/mshow {show}
	def} ifelse just 16 and 0 gt {gsave rotval rotate 0 1 dtransform
	gsave pagemat setmatrix idtransform exch grestore 1 0 dtransform
	gsave pagemat setmatrix idtransform exch grestore dup abs 1e-9 lt
	{pop mul 0 gt} {3 1 roll pop pop 0 lt} ifelse grestore {-1 /rotval
	rotval neg def /just just dup 3 and 1 ne {3 xor} if def} {1} ifelse
	exch -1e-9 lt {-1 /rotval rotval neg def /just just dup 12 and
	4 ne {12 xor} if def} {1} ifelse scale } if /showflag 0 def
	/fspc pspc def /Bline 0 def /Tabs 0 array def /fscale 1.0 def
	/kY 0 def gsave dup 1 add copy 0 exch 1 0 dtransform exch atan rotate
	{exch dup type /stringtype eq {true charpath flattenpath} {dup type
	/arraytype eq {exec} {12 string cvs true charpath flattenpath} ifelse}
	ifelse} repeat pop pathbbox grestore 3 -1 roll pop 3 1 roll just
	1 and 0 gt {just 2 and 0 gt {exch pop neg fspc sub} {exch sub 0.5
	mul neg} ifelse} {pop neg fspc add} ifelse exch Bline exch just 4
	and 0 gt {just 8 and 0 gt {exch pop neg fspc sub} {add 0.5 mul neg}
	ifelse} {pop neg fspc add} ifelse rotval rotate Kn currentpoint
	translate /showflag 1 def /Bline 0 def /Tabs 0 array def /fscale
	1.0 def /kY 0 def {dup type /stringtype eq {mshow} {dup type
	/arraytype eq {exec} {12 string cvs mshow} ifelse} ifelse} repeat
	grestore } def
/pinlabel { 4 index 32 and 0 ne hlevel 0 eq or { /pspc 10 def label
	/pspc 0 def } { pop pop pop pop pop {pop} repeat } ifelse } def
/pinglobal { pinlabel } def
/infolabel { pinlabel } def
/graphic { gsave 4 index cvx exec /DataSource get resetfile translate
	0 0 moveto neg rotate dup scale cvx exec image grestore } def

/scb { setrgbcolor } bind def  /sce { defColor aload pop scb } bind def
/cRedef {/defColor currentcolor 3 array astore def} def
/begingate {dup type /dicttype ne {1 dict} if begin	% default params
	dup type /dicttype ne {1 dict} if begin		% instanced params
	/hlevel hlevel 1 add def /defColor currentcolor sce 3 array
	astore def gsave sce translate 0 0 moveto neg rotate dup abs scale
	} bind def
/endgate { /hlevel hlevel 1 sub def grestore defColor aload pop cRedef
	scb end end} bind def

/hlevel 0 def
/tmpa [1 0 0 1 0 0] def
/gar {8 8 true tmpa {<c0 c0 00 00 0c 0c 00 00>} imagemask} bind
{8 8 true tmpa {<30 70 60 02 03 07 06 20>} imagemask} bind
{8 8 true tmpa {<0c 1e 1e 0c c0 e1 e1 c0>} imagemask} bind
{8 8 true tmpa {<0f 0f 0f 0f f0 f0 f0 f0>} imagemask} bind
{8 8 true tmpa {<3f f3 e1 e1 f3 3f 1e 1e>} imagemask} bind
{8 8 true tmpa {<df cf 8f 9f fd fc f8 f9>} imagemask} bind
{8 8 true tmpa {<ff 3f 3f ff ff f3 f3 ff>} imagemask} bind 7 array astore def
/ppaint { gsave clip tmpa dup setmatrix pathbbox neg exch neg 4 2 roll
  neg 4 -1 roll 2 copy gt {exch} if 8 div ceiling 8 mul 4 2 roll neg 2 copy
  gt {exch} if 8 div ceiling 8 mul 3 -1 roll -8 5 -1 roll
  { 3 index exch 5 exch put dup -8 3 index { 3 index
  exch 4 exch put 3 index exec } for } for pop pop pop pop grestore } bind def
/setstyles {
  currentlinewidth mul setlinewidth /style exch def
  style 1 and 0 gt not {closepath} if
  style 1024 and 0 gt {2 setlinecap} if
  style 2 and 0 gt {currentlinewidth 4 mul dup 2 array astore 0 setdash} if
  style 4 and 0 gt {0.5 currentlinewidth 4 mul 2 array astore 0 setdash} if
  gsave style 16 and 0 gt { style 224 and -5 bitshift style 256 and 0 gt {
  7 exch sub 8 div dup 1 exch sub currentrgbcolor 3 array astore
  {3 copy mul add 4 1 roll pop} forall pop pop setrgbcolor eofill}
  {dup 7 lt {gar exch get ppaint} {pop eofill} ifelse} ifelse}
  {style 256 and 0 gt {1 setgray eofill} if} ifelse grestore style 8 and 0 gt 
  style 512 eq or {newpath} {stroke} ifelse grestore} def     

/polygon { gsave /num exch def moveto num 1 sub {lineto} repeat setstyles } def
/xcarc   { gsave newpath arc setstyles } def
/elb { matrix currentmatrix 7 -1 roll 7 -1 roll translate 5 1 roll 4 -1 roll
	3 index div 1 scale } def
/ele { 0 4 1 roll 0 4 1 roll } bind def
/ellipse { gsave elb newpath ele arc setmatrix setstyles } def
/pellip  { elb ele arc setmatrix } def
/nellip  { elb ele arcn setmatrix } def
/spline  { gsave moveto curveto setstyles } def
/polyc   { {lineto} repeat } bind def
/beginpath { gsave moveto } bind def
/endpath { setstyles } bind def
/bop	 { 1 setlinecap 0 setlinejoin 6 setmiterlimit 0 0 0 scb cRedef } def
/psinsertion {/PSobj save def /showpage {} def /setpagedevice {pop} def bop
	rotate translate dup scale} def
/end_insert {PSobj restore} def
/setpagemat {/pagemat matrix currentmatrix def} def
/inchscale  {setpagemat 0.375 mul dup scale} def
/cmscale    {setpagemat 0.35433071 mul dup scale} def

%%EndResource
%%EndProlog

% XCircuit output starts here.

%%BeginSetup

/generic::dot {
% trivial
begingate
248 1.000 0 0 6 0.000 360.000 xcarc
1.000 0.000 0.000 scb
(x) {/Times-Roman cf} 2 29 0 1.000 0 0 pinlabel
endgate
} def

/liec_dig::relay_coil {
begingate
1 1.000 0 0 32 0.000 360.000 xcarc
1 1.000 -64 0 -32 0 2 polygon
1 1.000 32 0 64 0 2 polygon
endgate
} def

/liec_dig::no_contact {
begingate
1 1.000 -64 0 -16 0 2 polygon
1 1.000 -16 32 -16 -32 2 polygon
1 1.000 16 0 64 0 2 polygon
1 1.000 16 32 16 -32 2 polygon
endgate
} def

/junk::switch_pressure {
begingate
1 6.000 16 -96 16 -192 2 polygon
0.824 0.706 0.549 scb
240 1.000 -144 192 -144 64 160 64 160 192 4 polygon
sce
0 1.000 -144 192 -144 64 160 64 160 192 4 polygon
0.604 0.604 0.604 scb
241 1.000 -96 128 16 0.000 360.000 xcarc
sce
1 1.000 -96 128 16 0.000 360.000 xcarc
1 1.000 -88 140 -108 120 2 polygon
1 1.000 -84 136 -104 116 2 polygon
0.604 0.604 0.604 scb
241 1.000 16 128 16 0.000 360.000 xcarc
sce
1 1.000 16 128 16 0.000 360.000 xcarc
1 1.000 24 140 4 120 2 polygon
1 1.000 28 136 8 116 2 polygon
0.604 0.604 0.604 scb
241 1.000 128 128 16 0.000 360.000 xcarc
sce
1 1.000 128 128 16 0.000 360.000 xcarc
1 1.000 136 140 116 120 2 polygon
1 1.000 140 136 120 116 2 polygon
(Com) {/Helvetica cf} 2 16 0 1.000 -136 152 label
(NC) {/Helvetica cf} 2 16 0 1.000 -8 152 label
(NO) {/Helvetica cf} 2 16 0 1.000 96 152 label
0.800 0.800 0.800 scb
497 1.000 -112 64 -128 48 -256 48 -256 -16 272 -16 272 48 144 48 128 64 
8 polygon
sce
1 1.000 -112 64 -128 48 -256 48 -256 -16 272 -16 272 48 144 48 128 64 8 polygon
1 1.000 -112 64 128 64 2 polygon
1 1.000 -128 48 144 48 2 polygon
0.800 0.800 0.800 scb
497 1.000 -240 -16 -240 -32 -256 -32 -256 -80 272 -80 272 -32 256 -32 256 -16 
-240 -16 9 polygon
sce
1 1.000 -240 -16 -240 -32 -256 -32 -256 -80 272 -80 272 -32 256 -32 256 -16 
-240 -16 9 polygon
0.604 0.604 0.604 scb
496 1.000 -16 -80 -16 -96 48 -96 48 -80 4 polygon
sce
0 1.000 -16 -80 -16 -96 48 -96 48 -80 4 polygon
1 1.000 -240 -32 256 -32 2 polygon
endgate
} def

/liec_exp::switch5 {
begingate
1.000 0.000 0.000 scb
241 1.000 -8 16 -8 32 -16 32 -16 40 16 40 16 32 8 32 8 16 -8 16 9 polygon
0.604 0.604 0.604 scb
240 1.000 -16 16 -16 -32 16 -32 16 16 4 polygon
sce
1 2.000 -8 -32 -8 -40 -16 -48 3 polygon
1 2.000 8 -32 8 -40 16 -48 3 polygon
0 1.000 -16 16 -16 -32 16 -32 16 16 4 polygon
endgate
} def

/::jumper {
% trivial
begingate
1 1.000 0 0 10 -90.000 90.000 xcarc
1 1.000 0 10 0 16 2 polygon
1 1.000 0 -10 0 -16 2 polygon
1.000 0.000 0.000 scb
(a) {/Times-Roman cf} 2 1 0 1.000 0 16 pinlabel
(a) {/Times-Roman cf} 2 13 0 1.000 0 -16 pinlabel
endgate
} def

/liec_exp::lamp {
begingate
1 1.000 0 22 32 0.000 360.000 xcarc
1.000 0 0 -40 generic::dot
1 1.000 -8 -8 -8 16 2 polygon
1 1.000 8 -8 8 16 2 polygon
1 0.250 32 48 -32 48 8 16 -8 16 spline
0.800 0.800 0.800 scb
241 1.000 -24 0 -16 -8 -16 -40 16 -40 16 -8 24 0 8 -8 -8 -8 -24 0 9 polygon
sce
1 1.000 -24 0 -16 -8 -16 -40 16 -40 16 -8 24 0 6 polygon
1 1.000 16 -8 -16 -16 2 polygon
1 1.000 16 -16 -16 -24 2 polygon
1 1.000 16 -24 -16 -32 2 polygon
1 1.000 16 -32 -16 -40 2 polygon
endgate
} def

/liec_exp::lamp_socket {
begingate
0.824 0.706 0.549 scb
241 1.000 -24 32 -24 8 -32 0 -88 -8 -88 -16 88 -16 88 -8 32 0 24 8 24 32 -24 32 
11 polygon
sce
1 1.000 -88 -8 -88 -16 88 -16 88 -8 32 0 24 8 24 32 -24 32 -24 8 -32 0 -88 -8 
11 polygon
1 2.000 -48 -24 -32 -24 2 polygon
1 2.000 -40 -24 -40 -16 2 polygon
1 2.000 32 -24 48 -24 2 polygon
1 2.000 40 -24 40 -16 2 polygon
1 2.000 -40 -32 -40 -32 -32 -24 -48 -24 spline
1 2.000 40 -32 40 -32 48 -24 32 -24 spline
endgate
} def

/liec_dig::nc_contact {
begingate
1.000 0 0 0 liec_dig::no_contact
1 1.000 32 32 -32 -32 2 polygon
endgate
} def


%%EndSetup

%%Page: 04330.eps 1
%%PageOrientation: Portrait
/pgsave save def bop
0.7500 inchscale
2.6000 setlinewidth 1104 1088 translate

0.800 0.800 0.800 scb
240 1.000 -352 160 -352 -320 256 -320 256 160 4 polygon
sce
(PLC) {/Helvetica-Bold cf} 2 16 0 1.000 -80 -80 label
1 1.000 -320 112 16 0.000 360.000 xcarc
1 1.000 -312 124 -332 104 2 polygon
1 1.000 -308 120 -328 100 2 polygon
1 1.000 -320 48 16 0.000 360.000 xcarc
1 1.000 -312 60 -332 40 2 polygon
1 1.000 -308 56 -328 36 2 polygon
1 1.000 -320 -16 16 0.000 360.000 xcarc
1 1.000 -312 -4 -332 -24 2 polygon
1 1.000 -308 -8 -328 -28 2 polygon
1 1.000 -320 -80 16 0.000 360.000 xcarc
1 1.000 -312 -68 -332 -88 2 polygon
1 1.000 -308 -72 -328 -92 2 polygon
1 1.000 -320 -144 16 0.000 360.000 xcarc
1 1.000 -312 -132 -332 -152 2 polygon
1 1.000 -308 -136 -328 -156 2 polygon
1 1.000 -320 -208 16 0.000 360.000 xcarc
1 1.000 -312 -196 -332 -216 2 polygon
1 1.000 -308 -200 -328 -220 2 polygon
1 1.000 -320 -272 16 0.000 360.000 xcarc
1 1.000 -312 -260 -332 -280 2 polygon
1 1.000 -308 -264 -328 -284 2 polygon
(X1) {/Courier cf} 2 16 0 1.000 -272 96 label
(X2) {/Courier cf} 2 16 0 1.000 -272 32 label
(X3) {/Courier cf} 2 16 0 1.000 -272 -32 label
(X4) {/Courier cf} 2 16 0 1.000 -272 -96 label
(X5) {/Courier cf} 2 16 0 1.000 -272 -160 label
(X6) {/Courier cf} 2 16 0 1.000 -272 -224 label
1 1.000 -160 128 16 0.000 360.000 xcarc
1 1.000 -152 140 -172 120 2 polygon
1 1.000 -148 136 -168 116 2 polygon
1 1.000 64 128 16 0.000 360.000 xcarc
1 1.000 72 140 52 120 2 polygon
1 1.000 76 136 56 116 2 polygon
(L1) {/Helvetica cf} 2 16 0 1.000 -176 80 label
(L2) {/Helvetica cf} 2 16 0 1.000 40 80 label
1 1.000 224 112 16 0.000 360.000 xcarc
1 1.000 232 124 212 104 2 polygon
1 1.000 236 120 216 100 2 polygon
1 1.000 224 48 16 0.000 360.000 xcarc
1 1.000 232 60 212 40 2 polygon
1 1.000 236 56 216 36 2 polygon
1 1.000 224 -16 16 0.000 360.000 xcarc
1 1.000 232 -4 212 -24 2 polygon
1 1.000 236 -8 216 -28 2 polygon
1 1.000 224 -80 16 0.000 360.000 xcarc
1 1.000 232 -68 212 -88 2 polygon
1 1.000 236 -72 216 -92 2 polygon
1 1.000 224 -144 16 0.000 360.000 xcarc
1 1.000 232 -132 212 -152 2 polygon
1 1.000 236 -136 216 -156 2 polygon
1 1.000 224 -208 16 0.000 360.000 xcarc
1 1.000 232 -196 212 -216 2 polygon
1 1.000 236 -200 216 -220 2 polygon
1 1.000 224 -272 16 0.000 360.000 xcarc
1 1.000 232 -260 212 -280 2 polygon
1 1.000 236 -264 216 -284 2 polygon
(Y1) {/Courier cf} 2 16 0 1.000 128 96 label
(Y2) {/Courier cf} 2 16 0 1.000 128 32 label
(Y3) {/Courier cf} 2 16 0 1.000 128 -32 label
(Y4) {/Courier cf} 2 16 0 1.000 128 -96 label
(Y5) {/Courier cf} 2 16 0 1.000 128 -160 label
(Y6) {/Courier cf} 2 16 0 1.000 128 -224 label
(Programming) {/Helvetica cf} 2 16 0 0.500 -96 -260 label
(port) {/Helvetica cf} 2 16 0 0.500 -56 -308 label
240 1.000 -80 -272 -80 -288 0 -288 0 -272 4 polygon
1 1.000 -288 112 8 0.000 360.000 xcarc
1 1.000 -288 48 8 0.000 360.000 xcarc
1 1.000 -288 -16 8 0.000 360.000 xcarc
1 1.000 -288 -80 8 0.000 360.000 xcarc
1 1.000 -288 -144 8 0.000 360.000 xcarc
1 1.000 -288 -208 8 0.000 360.000 xcarc
1 1.000 192 112 8 0.000 360.000 xcarc
1 1.000 192 48 8 0.000 360.000 xcarc
1 1.000 192 -16 8 0.000 360.000 xcarc
1 1.000 192 -80 8 0.000 360.000 xcarc
1 1.000 192 -144 8 0.000 360.000 xcarc
1 1.000 192 -208 8 0.000 360.000 xcarc
0 2.000 -352 160 -352 -320 256 -320 256 160 4 polygon
(Common) {/Courier cf} 2 16 0 1.000 -296 -288 label
(Source) {/Courier cf} 2 16 0 1.000 56 -288 label
1 1.000 -160 144 -160 192 -544 192 3 polygon
1 1.000 64 144 64 192 448 192 3 polygon
1 1.000 -384 112 -336 112 2 polygon
1.000 0 -160 192 generic::dot
0.000 1.000 1.000 scb
240 1.000 -352 -448 -352 -832 256 -832 256 -448 4 polygon
sce
0 2.000 -352 -448 -352 -832 256 -832 256 -448 4 polygon
1 3.000 0 -320 160 -368 160 -448 -16 -288 spline
1 1.000 -320 -472 -320 -792 2 polygon
1 1.000 224 -472 224 -792 2 polygon
1.000 0 160 -544 liec_dig::relay_coil
1.000 0 -224 -544 liec_dig::no_contact
(Personal) {/Helvetica-Bold cf} 2 16 0 1.000 304 -568 label
(computer) {/Helvetica-Bold cf} 2 16 0 1.000 304 -608 label
(display) {/Helvetica-Bold cf} 2 16 0 1.000 304 -648 label
1.000 0 -224 -688 liec_dig::no_contact
0.500 0 -560 -144 junk::switch_pressure
1 1.000 -488 -80 -336 -80 2 polygon
(Pressure switch) {/Helvetica cf} 2 16 0 0.700 -656 -144 label
-1.000 270 -640 80 liec_exp::switch5
1.000 0 -800 112 generic::dot
1 1.000 -320 -256 -320 -240 16 -240 16 128 48 128 5 polygon
1 1.000 -144 128 -112 128 -112 -160 0 -160 4 polygon
1.000 270 16 -160 ::jumper
1 1.000 32 -160 80 -160 80 -240 224 -240 224 -256 5 polygon
(120 VAC "line" power) {/Helvetica cf} 2 16 0 1.000 -240 352 label
1 1.000 -160 192 -160 320 2 polygon
1 1.000 64 192 64 320 2 polygon
1.000 0 64 192 generic::dot
(1) {ss} (L) {/Times-Roman cf} 4 16 0 1.000 -208 288 label
(2) {ss} (L) {/Times-Roman cf} 4 16 0 1.000 80 288 label
1.000 0 448 32 liec_exp::lamp
1.000 0 448 -16 liec_exp::lamp_socket
1 1.000 240 -144 400 -144 400 -48 408 -32 4 polygon
1 1.000 488 -32 504 -48 608 -48 608 192 448 192 5 polygon
1 1.000 -160 -688 -112 -688 -112 -544 3 polygon
1 1.000 -160 -544 -112 -544 2 polygon
1 1.000 -112 -544 -64 -544 2 polygon
1 1.000 -800 112 -592 112 -592 96 3 polygon
1 1.000 -592 64 -592 48 -512 48 -512 112 -384 112 5 polygon
1 1.000 -544 192 -800 192 -800 112 3 polygon
1 1.000 -800 112 -800 -80 -616 -80 3 polygon
(X4) {/Courier cf} 2 16 0 1.000 -240 -496 label
(X1) {/Courier cf} 2 16 0 1.000 -16 -496 label
(Y5) {/Courier cf} 2 16 0 1.000 144 -496 label
(Y5) {/Courier cf} 2 16 0 1.000 -240 -640 label
1 3.000 -632 -352 -552 -352 -552 -240 3 polygon
1 1.000 -616 -336 -648 -368 -632 -368 -632 -336 spline
(Impulse tube connects) {/Helvetica cf} 2 16 0 0.700 -848 -280 label
(to process vessel) {/Helvetica cf} 2 16 0 0.700 -824 -312 label
1.000 0.000 0.000 scb
496 1.000 -48 -512 -48 -576 48 -576 48 -512 4 polygon
sce
1.000 0 0 -544 liec_dig::nc_contact
(Alarm reset pushbutton) {/Helvetica cf} 2 16 0 0.700 -768 136 label
(High pressure) {/Helvetica cf} 2 16 0 0.700 360 136 label
(alarm lamp) {/Helvetica cf} 2 16 0 0.700 376 104 label
(\(NO contacts\)) {/Helvetica-Oblique cf} 2 16 0 0.500 -744 40 label
(Trip point = 270 PSI) {/Helvetica-Oblique cf} 2 16 0 0.500 -648 -32 label
(\(Ladder Diagram program\)) {/Helvetica cf} 2 16 0 0.700 280 -704 label
1 1.000 64 -544 96 -544 2 polygon
1 1.000 -288 -544 -320 -544 2 polygon
1 1.000 -288 -688 -320 -688 2 polygon
(< 270 PSI) {/Helvetica-Bold cf} 2 16 0 1.000 -832 -368 label
pgsave restore showpage

%%Trailer
XCIRCsave restore
%%EOF
