%!PS-Adobe-3.0 EPSF-3.0
%%Title: plc_073.eps
%%Creator: XCircuit v3.6 rev164
%%CreationDate: Fri Jul 29 03:20:05 2011
%%Pages: 1
%%BoundingBox: 68 68 485 267
%%DocumentNeededResources: font Helvetica Helvetica-Oblique Times-Roman Symbol 
%%EndComments
%%BeginProlog
%
%  PostScript prolog for output from xcircuit
%  Version: 3.3
%
%  Electrical circuit (and otherwise general) drawing program
%
%  Written by Tim Edwards 8/5/93--7/13/05  (tim.edwards@multigig.com)
%  The Johns Hopkins University (1993-2004)
%  MultiGiG, Inc. (2004-present)
%
%%BeginResource: procset XCIRCproc 3.3 0
%
% supporting definitions --- these are the primary xcircuit types.

/XCIRCsave save def
/topmat matrix currentmatrix def

/fontslant { /slant exch def [1 0 slant 1 0 0] 
    exch findfont exch makefont dup length dict /ndict exch def
    { 1 index /FID ne { ndict 3 1 roll put } { pop pop } ifelse } forall
    ndict definefont pop} def
/ul { dup type /stringtype eq showflag 1 eq and { gsave 
   currentpoint topmat setmatrix 0 0 moveto 2 index stringwidth pop (_)
   false charpath flattenpath pathbbox grestore exch pop 1 index
   sub setlinewidth exch pop currentpoint 3 -1 roll add moveto 0
   rlineto stroke moveto } if } def
/ol { dup type /stringtype eq showflag 1 eq and { gsave gsave
   currentpoint topmat setmatrix 2 index stringwidth pop 3 index
   true charpath flattenpath pathbbox grestore exch pop
   exch pop topmat setmatrix (_) true charpath pathbbox grestore
   exch pop 1 index sub setlinewidth exch pop currentpoint
   exch 4 1 roll exch sub add moveto pop 0 rlineto stroke
   moveto } if } def
/stW { gsave currentpoint newpath moveto true charpath flattenpath
	pathbbox pop exch pop sub grestore } def
/Ts {mark Tabs aload pop counttomark 1 add array astore /Tabs exch def Tabs
	0 currentpoint pop put} def
/Tbn {mark Tabs aload pop counttomark dup 2 add 1 roll cleartomark 1 sub} def
/Tb { 0 1 Tbn {Tabs exch get dup currentpoint pop lt
	{currentpoint exch pop moveto exit} {pop} ifelse } for } def
/Tf { Tbn -1 0 {Tabs exch get dup currentpoint pop gt
	{currentpoint exch pop moveto exit} {pop} ifelse } for } def
/qS { (aa) stW (a a) stW sub 4 div 0 Kn } def
/hS { qS qS } def
/pspc 0 def
/cf0 { scalefont setfont } bind def
/Kn { dup kY add /kY exch def rmoveto } bind def
/ss { /fscale fscale 0.67 mul def currentfont 0.67 cf0 0 fscale0 fscale mul
	0.33 mul neg Kn} def
/Ss { /fscale fscale 0.67 mul def currentfont 0.67 cf0 0 fscale0 fscale mul
	0.67 mul Kn } def
/ns { 0 kY neg Kn /kY 0 def /fscale 1.0 def xfont0 1.0 cf0 } def
/CR { ns 0 /Bline Bline fscale0 neg add def Bline moveto } def
/cf { dup type /realtype ne {1.0} if exch findfont exch kY 0 eq
	{ 40 mul dup /fscale0 exch def cf0 /xfont0 currentfont def}
	{fscale0 mul fscale mul cf0} ifelse } def
/ctmk { counttomark dup 2 add -1 roll pop } bind def
/label { gsave translate 0 0 moveto dup scale neg /rotval exch def
	/just exch def just 384 and 0 gt {/mshow {pop} def} {/mshow {show}
	def} ifelse just 16 and 0 gt {gsave rotval rotate 0 1 dtransform
	gsave pagemat setmatrix idtransform exch grestore 1 0 dtransform
	gsave pagemat setmatrix idtransform exch grestore dup abs 1e-9 lt
	{pop mul 0 gt} {3 1 roll pop pop 0 lt} ifelse grestore {-1 /rotval
	rotval neg def /just just dup 3 and 1 ne {3 xor} if def} {1} ifelse
	exch -1e-9 lt {-1 /rotval rotval neg def /just just dup 12 and
	4 ne {12 xor} if def} {1} ifelse scale } if /showflag 0 def
	/fspc pspc def /Bline 0 def /Tabs 0 array def /fscale 1.0 def
	/kY 0 def gsave dup 1 add copy 0 exch 1 0 dtransform exch atan rotate
	{exch dup type /stringtype eq {true charpath flattenpath} {dup type
	/arraytype eq {exec} {12 string cvs true charpath flattenpath} ifelse}
	ifelse} repeat pop pathbbox grestore 3 -1 roll pop 3 1 roll just
	1 and 0 gt {just 2 and 0 gt {exch pop neg fspc sub} {exch sub 0.5
	mul neg} ifelse} {pop neg fspc add} ifelse exch Bline exch just 4
	and 0 gt {just 8 and 0 gt {exch pop neg fspc sub} {add 0.5 mul neg}
	ifelse} {pop neg fspc add} ifelse rotval rotate Kn currentpoint
	translate /showflag 1 def /Bline 0 def /Tabs 0 array def /fscale
	1.0 def /kY 0 def {dup type /stringtype eq {mshow} {dup type
	/arraytype eq {exec} {12 string cvs mshow} ifelse} ifelse} repeat
	grestore } def
/pinlabel { 4 index 32 and 0 ne hlevel 0 eq or { /pspc 10 def label
	/pspc 0 def } { pop pop pop pop pop {pop} repeat } ifelse } def
/pinglobal { pinlabel } def
/infolabel { pinlabel } def
/graphic { gsave 4 index cvx exec /DataSource get resetfile translate
	0 0 moveto neg rotate dup scale cvx exec image grestore } def

/scb { setrgbcolor } bind def  /sce { defColor aload pop scb } bind def
/cRedef {/defColor currentcolor 3 array astore def} def
/begingate {dup type /dicttype ne {1 dict} if begin	% default params
	dup type /dicttype ne {1 dict} if begin		% instanced params
	/hlevel hlevel 1 add def /defColor currentcolor sce 3 array
	astore def gsave sce translate 0 0 moveto neg rotate dup abs scale
	} bind def
/endgate { /hlevel hlevel 1 sub def grestore defColor aload pop cRedef
	scb end end} bind def

/hlevel 0 def
/tmpa [1 0 0 1 0 0] def
/gar {8 8 true tmpa {<c0 c0 00 00 0c 0c 00 00>} imagemask} bind
{8 8 true tmpa {<30 70 60 02 03 07 06 20>} imagemask} bind
{8 8 true tmpa {<0c 1e 1e 0c c0 e1 e1 c0>} imagemask} bind
{8 8 true tmpa {<0f 0f 0f 0f f0 f0 f0 f0>} imagemask} bind
{8 8 true tmpa {<3f f3 e1 e1 f3 3f 1e 1e>} imagemask} bind
{8 8 true tmpa {<df cf 8f 9f fd fc f8 f9>} imagemask} bind
{8 8 true tmpa {<ff 3f 3f ff ff f3 f3 ff>} imagemask} bind 7 array astore def
/ppaint { gsave clip tmpa dup setmatrix pathbbox neg exch neg 4 2 roll
  neg 4 -1 roll 2 copy gt {exch} if 8 div ceiling 8 mul 4 2 roll neg 2 copy
  gt {exch} if 8 div ceiling 8 mul 3 -1 roll -8 5 -1 roll
  { 3 index exch 5 exch put dup -8 3 index { 3 index
  exch 4 exch put 3 index exec } for } for pop pop pop pop grestore } bind def
/setstyles {
  currentlinewidth mul setlinewidth /style exch def
  style 1 and 0 gt not {closepath} if
  style 1024 and 0 gt {2 setlinecap} if
  style 2 and 0 gt {currentlinewidth 4 mul dup 2 array astore 0 setdash} if
  style 4 and 0 gt {0.5 currentlinewidth 4 mul 2 array astore 0 setdash} if
  gsave style 16 and 0 gt { style 224 and -5 bitshift style 256 and 0 gt {
  7 exch sub 8 div dup 1 exch sub currentrgbcolor 3 array astore
  {3 copy mul add 4 1 roll pop} forall pop pop setrgbcolor eofill}
  {dup 7 lt {gar exch get ppaint} {pop eofill} ifelse} ifelse}
  {style 256 and 0 gt {1 setgray eofill} if} ifelse grestore style 8 and 0 gt 
  style 512 eq or {newpath} {stroke} ifelse grestore} def     

/polygon { gsave /num exch def moveto num 1 sub {lineto} repeat setstyles } def
/xcarc   { gsave newpath arc setstyles } def
/elb { matrix currentmatrix 7 -1 roll 7 -1 roll translate 5 1 roll 4 -1 roll
	3 index div 1 scale } def
/ele { 0 4 1 roll 0 4 1 roll } bind def
/ellipse { gsave elb newpath ele arc setmatrix setstyles } def
/pellip  { elb ele arc setmatrix } def
/nellip  { elb ele arcn setmatrix } def
/spline  { gsave moveto curveto setstyles } def
/polyc   { {lineto} repeat } bind def
/beginpath { gsave moveto } bind def
/endpath { setstyles } bind def
/bop	 { 1 setlinecap 0 setlinejoin 6 setmiterlimit 0 0 0 scb cRedef } def
/psinsertion {/PSobj save def /showpage {} def /setpagedevice {pop} def bop
	rotate translate dup scale} def
/end_insert {PSobj restore} def
/setpagemat {/pagemat matrix currentmatrix def} def
/inchscale  {setpagemat 0.375 mul dup scale} def
/cmscale    {setpagemat 0.35433071 mul dup scale} def

%%EndResource
%%EndProlog

% XCircuit output starts here.

%%BeginSetup

/analog::resistor {
begingate
1 1.000 0 64 0 36 2 polygon
1 1.000 0 -64 0 -36 2 polygon
1 1.000 0 -36 14 -30 -14 -18 14 -6 -14 6 14 18 -14 30 0 36 8 polygon
1.000 0.000 0.000 scb
(r.1) {/Times-Roman cf} 2 9 0 1.000 0 64 pinlabel
(r.2) {/Times-Roman cf} 2 13 0 1.000 0 -64 pinlabel
0.180 0.545 0.341 scb
(spice:R%i %pr.1 %pr.2 1.0K) {/Times-Roman cf} 2 0 0 1.000 -208 -160 infolabel
(sim:r %pr.1 %pr.2) {/Times-Roman cf} 2 0 0 1.000 -208 -208 infolabel
endgate
} def

/liec_exp::switch1 {
begingate
0.824 0.706 0.549 scb
240 1.000 -112 0 -112 -64 112 -64 112 0 4 polygon
sce
1 3.000 -144 0 144 0 2 polygon
0 1.000 -112 0 -112 -64 112 -64 112 0 4 polygon
0.604 0.604 0.604 scb
241 1.000 -64 -32 16 0.000 360.000 xcarc
sce
1 1.000 -64 -32 16 0.000 360.000 xcarc
1 1.000 -52 -22 -76 -42 2 polygon
0.604 0.604 0.604 scb
241 1.000 64 -32 16 0.000 360.000 xcarc
sce
1 1.000 64 -32 16 0.000 360.000 xcarc
1 1.000 76 -22 52 -42 2 polygon
1 1.000 -16 24 16 24 48 0 -48 0 spline
1 1.000 -20 16 -36 56 -22 62 -4 18 4 polygon
endgate
} def

/junk::switch_pressure {
begingate
1 6.000 16 -96 16 -192 2 polygon
0.824 0.706 0.549 scb
240 1.000 -144 192 -144 64 160 64 160 192 4 polygon
sce
0 1.000 -144 192 -144 64 160 64 160 192 4 polygon
0.604 0.604 0.604 scb
241 1.000 -96 128 16 0.000 360.000 xcarc
sce
1 1.000 -96 128 16 0.000 360.000 xcarc
1 1.000 -88 140 -108 120 2 polygon
1 1.000 -84 136 -104 116 2 polygon
0.604 0.604 0.604 scb
241 1.000 16 128 16 0.000 360.000 xcarc
sce
1 1.000 16 128 16 0.000 360.000 xcarc
1 1.000 24 140 4 120 2 polygon
1 1.000 28 136 8 116 2 polygon
0.604 0.604 0.604 scb
241 1.000 128 128 16 0.000 360.000 xcarc
sce
1 1.000 128 128 16 0.000 360.000 xcarc
1 1.000 136 140 116 120 2 polygon
1 1.000 140 136 120 116 2 polygon
(Com) {/Helvetica cf} 2 16 0 1.000 -136 152 label
(NC) {/Helvetica cf} 2 16 0 1.000 -8 152 label
(NO) {/Helvetica cf} 2 16 0 1.000 96 152 label
0.800 0.800 0.800 scb
497 1.000 -112 64 -128 48 -256 48 -256 -16 272 -16 272 48 144 48 128 64 
8 polygon
sce
1 1.000 -112 64 -128 48 -256 48 -256 -16 272 -16 272 48 144 48 128 64 8 polygon
1 1.000 -112 64 128 64 2 polygon
1 1.000 -128 48 144 48 2 polygon
0.800 0.800 0.800 scb
497 1.000 -240 -16 -240 -32 -256 -32 -256 -80 272 -80 272 -32 256 -32 256 -16 
-240 -16 9 polygon
sce
1 1.000 -240 -16 -240 -32 -256 -32 -256 -80 272 -80 272 -32 256 -32 256 -16 
-240 -16 9 polygon
0.604 0.604 0.604 scb
496 1.000 -16 -80 -16 -96 48 -96 48 -80 4 polygon
sce
0 1.000 -16 -80 -16 -96 48 -96 48 -80 4 polygon
1 1.000 -240 -32 256 -32 2 polygon
endgate
} def

/liec_smi::diode {
begingate
248 1.000 -18 -16 0 16 18 -16 3 polygon
1 1.000 0 -48 0 -16 2 polygon
1 1.000 0 48 0 16 2 polygon
1 1.000 -18 16 18 16 2 polygon
1.000 0.000 0.000 scb
(d.m) {/Times-Roman cf} 2 9 0 1.000 0 48 pinlabel
(d.p) {/Times-Roman cf} 2 13 0 1.000 0 -48 pinlabel
endgate
} def

/generic::arrowhead {
% nonetwork
begingate
8 -28 beginpath
3 -18 3 -15 0 0 curveto
-3 -15 -3 -18 -8 -28 curveto
-2 -26 2 -26 8 -28 curveto
249 
1.000 endpath
endgate
} def

/analog::npn {
begingate
1 1.000 -48 0 -64 0 2 polygon
1 1.000 -48 48 -48 -48 2 polygon
1 1.000 0 48 -48 22 2 polygon
1 1.000 0 48 0 64 2 polygon
1 1.000 0 -48 -48 -22 2 polygon
1 1.000 0 -48 0 -64 2 polygon
1.000 120 0 -48 generic::arrowhead
1.000 0.000 0.000 scb
(C) {/Times-Roman cf} 2 9 0 1.000 0 64 pinlabel
(B) {/Times-Roman cf} 2 7 0 1.000 -64 0 pinlabel
(E) {/Times-Roman cf} 2 13 0 1.000 0 -64 pinlabel
0.180 0.545 0.341 scb
(spice:Q%i %pC %pB %pE npn) {/Times-Roman cf} 2 4 0 1.000 -244 -139 infolabel
(sim:b %pB %pE %pC) {/Times-Roman cf} 2 4 0 1.000 -244 -187 infolabel
endgate
} def

/analog::source {
% hidden
begingate
1 1.000 0 0 32 0.000 360.000 xcarc
1 1.000 0 32 0 64 2 polygon
1 1.000 0 -32 0 -64 2 polygon
endgate
} def

/analog::vsource {
begingate
1.000 0 0 0 analog::source
(+) {/Symbol cf} 2 5 0 1.000 0 14 label
(-) {/Symbol cf} 2 5 0 1.000 0 -22 label
1.000 0.000 0.000 scb
(v.p) {/Times-Roman cf} 2 9 0 1.000 0 64 pinlabel
(v.m) {/Times-Roman cf} 2 13 0 1.000 0 -64 pinlabel
endgate
} def

/generic::dot {
% trivial
begingate
248 1.000 0 0 6 0.000 360.000 xcarc
1.000 0.000 0.000 scb
(x) {/Times-Roman cf} 2 29 0 1.000 0 0 pinlabel
endgate
} def


%%EndSetup

%%Page: 04330.eps 1
%%PageOrientation: Portrait
/pgsave save def bop
% 32.00 8.00 gridspace
0.6500 inchscale
2.6000 setlinewidth 1575 461 translate

0.824 0.706 0.549 scb
496 1.000 -1280 528 -1280 48 -400 48 -400 528 4 polygon
sce
0 1.000 -1280 528 -1280 48 -400 48 -400 528 4 polygon
0.800 0.800 0.800 scb
240 1.000 -1280 528 -1280 48 -1056 48 -1056 528 4 polygon
sce
0 1.000 -1280 528 -1280 48 -1056 48 -1056 528 4 polygon
(Power) {/Helvetica cf} 2 16 0 1.000 -1232 480 label
(supply) {/Helvetica cf} 2 16 0 1.000 -1232 440 label
1 1.000 -1248 80 16 0.000 360.000 xcarc
1 1.000 -1240 92 -1260 72 2 polygon
1 1.000 -1236 88 -1256 68 2 polygon
1 1.000 -1248 128 16 0.000 360.000 xcarc
1 1.000 -1240 140 -1260 120 2 polygon
1 1.000 -1236 136 -1256 116 2 polygon
1 1.000 -1248 176 16 0.000 360.000 xcarc
1 1.000 -1240 188 -1260 168 2 polygon
1 1.000 -1236 184 -1256 164 2 polygon
(L1) {/Helvetica cf} 2 16 0 0.700 -1224 168 label
(Gnd) {/Helvetica cf} 2 16 0 0.700 -1224 72 label
0.604 0.604 0.604 scb
240 1.000 -1040 528 -1040 48 -912 48 -912 528 4 polygon
sce
0 1.000 -1040 528 -1040 48 -912 48 -912 528 4 polygon
(Processor) {/Helvetica cf} 2 16 0 0.500 -1024 496 label
0 1.000 -1016 464 -1016 448 -936 448 -936 464 4 polygon
0 1.000 -1016 432 -1016 416 -936 416 -936 432 4 polygon
1 1.000 -1008 368 16 0.000 360.000 xcarc
1 1.000 -944 368 16 0.000 360.000 xcarc
1 1.000 -1008 72 -1008 120 -944 120 -944 72 -960 72 -960 64 -992 64 -992 72 
-1008 72 9 polygon
(L2/N) {/Helvetica cf} 2 16 0 0.700 -1224 120 label
0.898 0.898 0.898 scb
496 1.000 -400 528 -400 48 -896 48 -896 528 4 polygon
sce
1 1.000 -480 352 16 0.000 360.000 xcarc
1 1.000 -472 364 -492 344 2 polygon
1 1.000 -468 360 -488 340 2 polygon
1 1.000 -480 416 16 0.000 360.000 xcarc
1 1.000 -472 428 -492 408 2 polygon
1 1.000 -468 424 -488 404 2 polygon
1 1.000 -480 80 16 0.000 360.000 xcarc
1 1.000 -472 92 -492 72 2 polygon
1 1.000 -468 88 -488 68 2 polygon
0.800 0.800 0.800 scb
496 1.000 -864 384 -864 224 -672 224 -672 384 4 polygon
sce
1.000 90 -608 416 analog::resistor
1 1.000 -544 416 -496 416 2 polygon
1 1.000 -672 416 -704 416 -704 352 3 polygon
1 1.000 -704 256 -704 80 -496 80 3 polygon
(Ch1) {/Helvetica cf} 2 16 0 0.500 -536 424 label
(Com) {/Helvetica cf} 2 16 0 0.500 -544 88 label
(Ch3) {/Helvetica cf} 2 16 0 0.500 -536 296 label
(Ch2) {/Helvetica cf} 2 16 0 0.500 -536 360 label
1 1.000 -480 288 16 0.000 360.000 xcarc
1 1.000 -472 300 -492 280 2 polygon
1 1.000 -468 296 -488 276 2 polygon
1 1.000 -496 352 -544 352 2 polygon
1 1.000 -496 288 -544 288 2 polygon
(...) {/Helvetica cf} 2 16 0 1.000 -576 352 label
(...) {/Helvetica cf} 2 16 0 1.000 -576 288 label
0 1.000 -896 528 -896 48 -400 48 -400 528 4 polygon
1.000 0 -160 512 liec_exp::switch1
-0.500 0 -152 160 junk::switch_pressure
1.000 180 -704 304 liec_smi::diode
1 1.000 -738 306 -754 290 2 polygon
1 1.000 -746 290 -754 290 -754 298 3 polygon
1 1.000 -750 318 -766 302 2 polygon
1 1.000 -758 302 -766 302 -766 310 3 polygon
-1.000 0 -848 304 analog::npn
1 1.000 -848 240 -848 208 -928 208 3 polygon
3 1.000 -928 208 -992 208 2 polygon
1 1.000 -848 368 -880 368 -880 320 -928 320 4 polygon
3 1.000 -928 320 -992 320 2 polygon
(Hand switch) {/Helvetica cf} 2 16 0 1.000 -272 592 label
(Pressure switch) {/Helvetica cf} 2 16 0 1.000 -304 272 label
1.000 0 176 320 analog::vsource
(DC power) {/Helvetica cf} 2 16 0 1.000 224 336 label
(supply) {/Helvetica cf} 2 16 0 1.000 256 296 label
1 1.000 -80 480 176 480 176 384 3 polygon
1 1.000 -240 480 -352 480 -352 416 -464 416 4 polygon
1 1.000 -464 352 -352 352 -352 224 -224 224 4 polygon
1 1.000 -96 224 48 224 48 480 3 polygon
1.000 0 48 480 generic::dot
1 1.000 -464 80 -352 80 -352 0 176 0 176 256 5 polygon
(PLC) {/Helvetica cf} 2 16 0 1.000 -928 560 label
(Discrete input card \(DC sinking\)) {/Helvetica cf} 2 16 0 0.750 -864 488 
label
1.000 0.000 0.000 scb
(Energizing an input channel lights the LED inside the optocoupler,) 
{/Helvetica-Oblique cf} 2 16 0 1.000 -1176 -64 label
(turning on the phototransistor, sending a "high" signal to the PLC's) 
{/Helvetica-Oblique cf} 2 16 0 1.000 -1176 -112 label
(microprocessor, setting \(1\) that bit in the PLC's input register.) 
{/Helvetica-Oblique cf} 2 16 0 1.000 -1176 -160 label
sce
(Optocoupler) {/Helvetica cf} 2 16 0 0.500 -832 392 label
pgsave restore showpage

%%Trailer
XCIRCsave restore
%%EOF
