%!PS-Adobe-3.0 EPSF-3.0
%%Title: plc_008.eps
%%Creator: XCircuit v3.4 rev27
%%CreationDate: Sat Mar  7 17:02:09 2009
%%Pages: 1
%%BoundingBox: 68 68 489 380
%%DocumentNeededResources: font Helvetica 
%%EndComments
%%BeginProlog
%
%  PostScript prolog for output from xcircuit
%  Version: 3.3
%
%  Electrical circuit (and otherwise general) drawing program
%
%  Written by Tim Edwards 8/5/93--7/13/05  (tim.edwards@multigig.com)
%  The Johns Hopkins University (1993-2004)
%  MultiGiG, Inc. (2004-present)
%
%%BeginResource: procset XCIRCproc 3.3 0
%
% supporting definitions --- these are the primary xcircuit types.

/XCIRCsave save def
/topmat matrix currentmatrix def

/fontslant { /slant exch def [1 0 slant 1 0 0] 
    exch findfont exch makefont dup length dict /ndict exch def
    { 1 index /FID ne { ndict 3 1 roll put } { pop pop } ifelse } forall
    ndict definefont pop} def
/ul { dup type /stringtype eq showflag 1 eq and { gsave 
   currentpoint topmat setmatrix 0 0 moveto 2 index stringwidth pop (_)
   false charpath flattenpath pathbbox grestore exch pop 1 index
   sub setlinewidth exch pop currentpoint 3 -1 roll add moveto 0
   rlineto stroke moveto } if } def
/ol { dup type /stringtype eq showflag 1 eq and { gsave gsave
   currentpoint topmat setmatrix 2 index stringwidth pop 3 index
   true charpath flattenpath pathbbox grestore exch pop
   exch pop topmat setmatrix (_) true charpath pathbbox grestore
   exch pop 1 index sub setlinewidth exch pop currentpoint
   exch 4 1 roll exch sub add moveto pop 0 rlineto stroke
   moveto } if } def
/stW { gsave currentpoint newpath moveto true charpath flattenpath
	pathbbox pop exch pop sub grestore } def
/Ts {mark Tabs aload pop counttomark 1 add array astore /Tabs exch def Tabs
	0 currentpoint pop put} def
/Tbn {mark Tabs aload pop counttomark dup 2 add 1 roll cleartomark 1 sub} def
/Tb { 0 1 Tbn {Tabs exch get dup currentpoint pop lt
	{currentpoint exch pop moveto exit} {pop} ifelse } for } def
/Tf { Tbn -1 0 {Tabs exch get dup currentpoint pop gt
	{currentpoint exch pop moveto exit} {pop} ifelse } for } def
/qS { (aa) stW (a a) stW sub 4 div 0 Kn } def
/hS { qS qS } def
/pspc 0 def
/cf0 { scalefont setfont } bind def
/Kn { dup kY add /kY exch def rmoveto } bind def
/ss { /fscale fscale 0.67 mul def currentfont 0.67 cf0 0 fscale0 fscale mul
	0.33 mul neg Kn} def
/Ss { /fscale fscale 0.67 mul def currentfont 0.67 cf0 0 fscale0 fscale mul
	0.67 mul Kn } def
/ns { 0 kY neg Kn /kY 0 def /fscale 1.0 def xfont0 1.0 cf0 } def
/CR { ns 0 /Bline Bline fscale0 neg add def Bline moveto } def
/cf { dup type /realtype ne {1.0} if exch findfont exch kY 0 eq
	{ 40 mul dup /fscale0 exch def cf0 /xfont0 currentfont def}
	{fscale0 mul fscale mul cf0} ifelse } def
/ctmk { counttomark dup 2 add -1 roll pop } bind def
/label { gsave translate 0 0 moveto dup scale neg /rotval exch def
	/just exch def just 384 and 0 gt {/mshow {pop} def} {/mshow {show}
	def} ifelse just 16 and 0 gt {gsave rotval rotate 0 1 dtransform
	gsave pagemat setmatrix idtransform exch grestore 1 0 dtransform
	gsave pagemat setmatrix idtransform exch grestore dup abs 1e-9 lt
	{pop mul 0 gt} {3 1 roll pop pop 0 lt} ifelse grestore {-1 /rotval
	rotval neg def /just just dup 3 and 1 ne {3 xor} if def} {1} ifelse
	exch -1e-9 lt {-1 /rotval rotval neg def /just just dup 12 and
	4 ne {12 xor} if def} {1} ifelse scale } if /showflag 0 def
	/fspc pspc def /Bline 0 def /Tabs 0 array def /fscale 1.0 def
	/kY 0 def gsave dup 1 add copy 0 exch 1 0 dtransform exch atan rotate
	{exch dup type /stringtype eq {true charpath flattenpath} {dup type
	/arraytype eq {exec} {12 string cvs true charpath flattenpath} ifelse}
	ifelse} repeat pop pathbbox grestore 3 -1 roll pop 3 1 roll just
	1 and 0 gt {just 2 and 0 gt {exch pop neg fspc sub} {exch sub 0.5
	mul neg} ifelse} {pop neg fspc add} ifelse exch Bline exch just 4
	and 0 gt {just 8 and 0 gt {exch pop neg fspc sub} {add 0.5 mul neg}
	ifelse} {pop neg fspc add} ifelse rotval rotate Kn currentpoint
	translate /showflag 1 def /Bline 0 def /Tabs 0 array def /fscale
	1.0 def /kY 0 def {dup type /stringtype eq {mshow} {dup type
	/arraytype eq {exec} {12 string cvs mshow} ifelse} ifelse} repeat
	grestore } def
/pinlabel { 4 index 32 and 0 ne hlevel 0 eq or { /pspc 10 def label
	/pspc 0 def } { pop pop pop pop pop {pop} repeat } ifelse } def
/pinglobal { pinlabel } def
/infolabel { pinlabel } def
/graphic { gsave 4 index cvx exec /DataSource get resetfile translate
	0 0 moveto neg rotate dup scale cvx exec image grestore } def

/scb { setrgbcolor } bind def  /sce { defColor aload pop scb } bind def
/cRedef {/defColor currentcolor 3 array astore def} def
/begingate {dup type /dicttype ne {1 dict} if begin	% default params
	dup type /dicttype ne {1 dict} if begin		% instanced params
	/hlevel hlevel 1 add def /defColor currentcolor sce 3 array
	astore def gsave sce translate 0 0 moveto neg rotate dup abs scale
	} bind def
/endgate { /hlevel hlevel 1 sub def grestore defColor aload pop cRedef
	scb end end} bind def

/hlevel 0 def
/tmpa [1 0 0 1 0 0] def
/gar {8 8 true tmpa {<c0 c0 00 00 0c 0c 00 00>} imagemask} bind
{8 8 true tmpa {<30 70 60 02 03 07 06 20>} imagemask} bind
{8 8 true tmpa {<0c 1e 1e 0c c0 e1 e1 c0>} imagemask} bind
{8 8 true tmpa {<0f 0f 0f 0f f0 f0 f0 f0>} imagemask} bind
{8 8 true tmpa {<3f f3 e1 e1 f3 3f 1e 1e>} imagemask} bind
{8 8 true tmpa {<df cf 8f 9f fd fc f8 f9>} imagemask} bind
{8 8 true tmpa {<ff 3f 3f ff ff f3 f3 ff>} imagemask} bind 7 array astore def
/ppaint { gsave clip tmpa dup setmatrix pathbbox neg exch neg 4 2 roll
  neg 4 -1 roll 2 copy gt {exch} if 8 div ceiling 8 mul 4 2 roll neg 2 copy
  gt {exch} if 8 div ceiling 8 mul 3 -1 roll -8 5 -1 roll
  { 3 index exch 5 exch put dup -8 3 index { 3 index
  exch 4 exch put 3 index exec } for } for pop pop pop pop grestore } bind def
/setstyles {
  currentlinewidth mul setlinewidth /style exch def
  style 1 and 0 gt not {closepath} if
  style 1024 and 0 gt {2 setlinecap} if
  style 2 and 0 gt {currentlinewidth 4 mul dup 2 array astore 0 setdash} if
  style 4 and 0 gt {0.5 currentlinewidth 4 mul 2 array astore 0 setdash} if
  gsave style 16 and 0 gt { style 224 and -5 bitshift style 256 and 0 gt {
  7 exch sub 8 div dup 1 exch sub currentrgbcolor 3 array astore
  {3 copy mul add 4 1 roll pop} forall pop pop setrgbcolor eofill}
  {dup 7 lt {gar exch get ppaint} {pop eofill} ifelse} ifelse}
  {style 256 and 0 gt {1 setgray eofill} if} ifelse grestore style 8 and 0 gt 
  style 512 eq or {newpath} {stroke} ifelse grestore} def     

/polygon { gsave /num exch def moveto num 1 sub {lineto} repeat setstyles } def
/xcarc   { gsave newpath arc setstyles } def
/elb { matrix currentmatrix 7 -1 roll 7 -1 roll translate 5 1 roll 4 -1 roll
	3 index div 1 scale } def
/ele { 0 4 1 roll 0 4 1 roll } bind def
/ellipse { gsave elb newpath ele arc setmatrix setstyles } def
/pellip  { elb ele arc setmatrix } def
/nellip  { elb ele arcn setmatrix } def
/spline  { gsave moveto curveto setstyles } def
/polyc   { {lineto} repeat } bind def
/beginpath { gsave moveto } bind def
/endpath { setstyles } bind def
/bop	 { 1 setlinecap 0 setlinejoin 6 setmiterlimit 0 0 0 scb cRedef } def
/psinsertion {/PSobj save def /showpage {} def /setpagedevice {pop} def bop
	rotate translate dup scale} def
/end_insert {PSobj restore} def
/setpagemat {/pagemat matrix currentmatrix def} def
/inchscale  {setpagemat 0.375 mul dup scale} def
/cmscale    {setpagemat 0.35433071 mul dup scale} def

%%EndResource
%%EndProlog

% XCircuit output starts here.

%%BeginSetup


%%EndSetup

%%Page: 04330.eps 1
%%PageOrientation: Portrait
/pgsave save def bop
% 32.00 8.00 gridspace
0.6500 inchscale
2.6000 setlinewidth 1575 487 translate

0.824 0.706 0.549 scb
240 1.00 -384 288 -384 -192 416 -192 416 288 4 polygon
sce
0 1.00 -384 288 -384 -192 416 -192 416 288 4 polygon
0.824 0.706 0.549 scb
240 1.00 -1280 1056 -1280 576 -480 576 -480 1056 4 polygon
sce
0 1.00 -1280 1056 -1280 576 -480 576 -480 1056 4 polygon
0.800 0.800 0.800 scb
240 1.00 -1280 1056 -1280 576 -1056 576 -1056 1056 4 polygon
sce
0 1.00 -1280 1056 -1280 576 -1056 576 -1056 1056 4 polygon
(Power) {/Helvetica cf} 2 16 0 1.00 -1232 1008 label
(supply) {/Helvetica cf} 2 16 0 1.00 -1232 968 label
1 1.00 -1248 608 16 0.00 360.00 xcarc
1 1.00 -1240 620 -1260 600 2 polygon
1 1.00 -1236 616 -1256 596 2 polygon
1 1.00 -1248 656 16 0.00 360.00 xcarc
1 1.00 -1240 668 -1260 648 2 polygon
1 1.00 -1236 664 -1256 644 2 polygon
1 1.00 -1248 704 16 0.00 360.00 xcarc
1 1.00 -1240 716 -1260 696 2 polygon
1 1.00 -1236 712 -1256 692 2 polygon
(L1) {/Helvetica cf} 2 16 0 0.70 -1224 696 label
(Gnd) {/Helvetica cf} 2 16 0 0.70 -1224 600 label
0.604 0.604 0.604 scb
240 1.00 -1040 1056 -1040 576 -912 576 -912 1056 4 polygon
sce
0 1.00 -1040 1056 -1040 576 -912 576 -912 1056 4 polygon
(Processor) {/Helvetica cf} 2 16 0 0.50 -1024 1024 label
0 1.00 -1016 992 -1016 976 -936 976 -936 992 4 polygon
0 1.00 -1016 960 -1016 944 -936 944 -936 960 4 polygon
1 1.00 -1008 896 16 0.00 360.00 xcarc
1 1.00 -944 896 16 0.00 360.00 xcarc
1 1.00 -1008 600 -1008 648 -944 648 -944 600 -960 600 -960 592 -992 592 -992 
600 -1008 600 9 polygon
0.604 0.604 0.604 scb
240 1.00 -896 1056 -896 576 -768 576 -768 1056 4 polygon
sce
0 1.00 -896 1056 -896 576 -768 576 -768 1056 4 polygon
1 1.00 -864 848 16 0.00 360.00 xcarc
1 1.00 -856 860 -876 840 2 polygon
1 1.00 -852 856 -872 836 2 polygon
1 1.00 -864 896 16 0.00 360.00 xcarc
1 1.00 -856 908 -876 888 2 polygon
1 1.00 -852 904 -872 884 2 polygon
1 1.00 -864 944 16 0.00 360.00 xcarc
1 1.00 -856 956 -876 936 2 polygon
1 1.00 -852 952 -872 932 2 polygon
1 1.00 -864 704 16 0.00 360.00 xcarc
1 1.00 -856 716 -876 696 2 polygon
1 1.00 -852 712 -872 692 2 polygon
1 1.00 -864 752 16 0.00 360.00 xcarc
1 1.00 -856 764 -876 744 2 polygon
1 1.00 -852 760 -872 740 2 polygon
1 1.00 -864 800 16 0.00 360.00 xcarc
1 1.00 -856 812 -876 792 2 polygon
1 1.00 -852 808 -872 788 2 polygon
1 1.00 -864 608 16 0.00 360.00 xcarc
1 1.00 -856 620 -876 600 2 polygon
1 1.00 -852 616 -872 596 2 polygon
1 1.00 -864 656 16 0.00 360.00 xcarc
1 1.00 -856 668 -876 648 2 polygon
1 1.00 -852 664 -872 644 2 polygon
1 1.00 -800 680 16 0.00 360.00 xcarc
1 1.00 -792 692 -812 672 2 polygon
1 1.00 -788 688 -808 668 2 polygon
(Digital) {/Helvetica cf} 2 16 0 0.70 -872 1024 label
(inputs) {/Helvetica cf} 2 16 0 0.70 -864 992 label
1 1.00 -832 944 8 0.00 360.00 xcarc
1 1.00 -832 896 8 0.00 360.00 xcarc
1 1.00 -832 848 8 0.00 360.00 xcarc
1 1.00 -832 800 8 0.00 360.00 xcarc
1 1.00 -832 752 8 0.00 360.00 xcarc
1 1.00 -832 704 8 0.00 360.00 xcarc
1 1.00 -832 656 8 0.00 360.00 xcarc
1 1.00 -832 608 8 0.00 360.00 xcarc
1 1.00 -800 872 16 0.00 360.00 xcarc
1 1.00 -792 884 -812 864 2 polygon
1 1.00 -788 880 -808 860 2 polygon
0.604 0.604 0.604 scb
240 1.00 -752 1056 -752 576 -624 576 -624 1056 4 polygon
sce
0 1.00 -752 1056 -752 576 -624 576 -624 1056 4 polygon
1 1.00 -720 848 16 0.00 360.00 xcarc
1 1.00 -712 860 -732 840 2 polygon
1 1.00 -708 856 -728 836 2 polygon
1 1.00 -720 896 16 0.00 360.00 xcarc
1 1.00 -712 908 -732 888 2 polygon
1 1.00 -708 904 -728 884 2 polygon
1 1.00 -720 944 16 0.00 360.00 xcarc
1 1.00 -712 956 -732 936 2 polygon
1 1.00 -708 952 -728 932 2 polygon
1 1.00 -720 704 16 0.00 360.00 xcarc
1 1.00 -712 716 -732 696 2 polygon
1 1.00 -708 712 -728 692 2 polygon
1 1.00 -720 752 16 0.00 360.00 xcarc
1 1.00 -712 764 -732 744 2 polygon
1 1.00 -708 760 -728 740 2 polygon
1 1.00 -720 800 16 0.00 360.00 xcarc
1 1.00 -712 812 -732 792 2 polygon
1 1.00 -708 808 -728 788 2 polygon
1 1.00 -720 608 16 0.00 360.00 xcarc
1 1.00 -712 620 -732 600 2 polygon
1 1.00 -708 616 -728 596 2 polygon
1 1.00 -720 656 16 0.00 360.00 xcarc
1 1.00 -712 668 -732 648 2 polygon
1 1.00 -708 664 -728 644 2 polygon
1 1.00 -656 680 16 0.00 360.00 xcarc
1 1.00 -648 692 -668 672 2 polygon
1 1.00 -644 688 -664 668 2 polygon
(Digital) {/Helvetica cf} 2 16 0 0.70 -728 1024 label
1 1.00 -688 944 8 0.00 360.00 xcarc
1 1.00 -688 896 8 0.00 360.00 xcarc
1 1.00 -688 848 8 0.00 360.00 xcarc
1 1.00 -688 800 8 0.00 360.00 xcarc
1 1.00 -688 752 8 0.00 360.00 xcarc
1 1.00 -688 704 8 0.00 360.00 xcarc
1 1.00 -688 656 8 0.00 360.00 xcarc
1 1.00 -688 608 8 0.00 360.00 xcarc
1 1.00 -656 872 16 0.00 360.00 xcarc
1 1.00 -648 884 -668 864 2 polygon
1 1.00 -644 880 -664 860 2 polygon
(outputs) {/Helvetica cf} 2 16 0 0.70 -728 992 label
0.604 0.604 0.604 scb
240 1.00 -608 1056 -608 576 -480 576 -480 1056 4 polygon
sce
0 1.00 -608 1056 -608 576 -480 576 -480 1056 4 polygon
1 1.00 -576 704 16 0.00 360.00 xcarc
1 1.00 -568 716 -588 696 2 polygon
1 1.00 -564 712 -584 692 2 polygon
1 1.00 -576 752 16 0.00 360.00 xcarc
1 1.00 -568 764 -588 744 2 polygon
1 1.00 -564 760 -584 740 2 polygon
1 1.00 -576 608 16 0.00 360.00 xcarc
1 1.00 -568 620 -588 600 2 polygon
1 1.00 -564 616 -584 596 2 polygon
1 1.00 -576 656 16 0.00 360.00 xcarc
1 1.00 -568 668 -588 648 2 polygon
1 1.00 -564 664 -584 644 2 polygon
0.800 0.800 0.800 scb
240 1.00 -384 288 -384 -192 -160 -192 -160 288 4 polygon
sce
0 1.00 -384 288 -384 -192 -160 -192 -160 288 4 polygon
(Power) {/Helvetica cf} 2 16 0 1.00 -336 240 label
(supply) {/Helvetica cf} 2 16 0 1.00 -336 200 label
1 1.00 -352 -160 16 0.00 360.00 xcarc
1 1.00 -344 -148 -364 -168 2 polygon
1 1.00 -340 -152 -360 -172 2 polygon
1 1.00 -352 -112 16 0.00 360.00 xcarc
1 1.00 -344 -100 -364 -120 2 polygon
1 1.00 -340 -104 -360 -124 2 polygon
1 1.00 -352 -64 16 0.00 360.00 xcarc
1 1.00 -344 -52 -364 -72 2 polygon
1 1.00 -340 -56 -360 -76 2 polygon
(L1) {/Helvetica cf} 2 16 0 0.70 -328 -72 label
(Gnd) {/Helvetica cf} 2 16 0 0.70 -328 -168 label
0.604 0.604 0.604 scb
240 1.00 0 288 0 -192 128 -192 128 288 4 polygon
sce
0 1.00 0 288 0 -192 128 -192 128 288 4 polygon
1 1.00 32 80 16 0.00 360.00 xcarc
1 1.00 40 92 20 72 2 polygon
1 1.00 44 88 24 68 2 polygon
1 1.00 32 128 16 0.00 360.00 xcarc
1 1.00 40 140 20 120 2 polygon
1 1.00 44 136 24 116 2 polygon
1 1.00 32 176 16 0.00 360.00 xcarc
1 1.00 40 188 20 168 2 polygon
1 1.00 44 184 24 164 2 polygon
1 1.00 32 -64 16 0.00 360.00 xcarc
1 1.00 40 -52 20 -72 2 polygon
1 1.00 44 -56 24 -76 2 polygon
1 1.00 32 -16 16 0.00 360.00 xcarc
1 1.00 40 -4 20 -24 2 polygon
1 1.00 44 -8 24 -28 2 polygon
1 1.00 32 32 16 0.00 360.00 xcarc
1 1.00 40 44 20 24 2 polygon
1 1.00 44 40 24 20 2 polygon
1 1.00 32 -160 16 0.00 360.00 xcarc
1 1.00 40 -148 20 -168 2 polygon
1 1.00 44 -152 24 -172 2 polygon
1 1.00 32 -112 16 0.00 360.00 xcarc
1 1.00 40 -100 20 -120 2 polygon
1 1.00 44 -104 24 -124 2 polygon
1 1.00 96 -88 16 0.00 360.00 xcarc
1 1.00 104 -76 84 -96 2 polygon
1 1.00 108 -80 88 -100 2 polygon
(Digital) {/Helvetica cf} 2 16 0 0.70 24 256 label
1 1.00 64 176 8 0.00 360.00 xcarc
1 1.00 64 128 8 0.00 360.00 xcarc
1 1.00 64 80 8 0.00 360.00 xcarc
1 1.00 64 32 8 0.00 360.00 xcarc
1 1.00 64 -16 8 0.00 360.00 xcarc
1 1.00 64 -64 8 0.00 360.00 xcarc
1 1.00 64 -112 8 0.00 360.00 xcarc
1 1.00 64 -160 8 0.00 360.00 xcarc
1 1.00 96 104 16 0.00 360.00 xcarc
1 1.00 104 116 84 96 2 polygon
1 1.00 108 112 88 92 2 polygon
(outputs) {/Helvetica cf} 2 16 0 0.70 24 224 label
0.604 0.604 0.604 scb
240 1.00 144 288 144 -192 272 -192 272 288 4 polygon
sce
0 1.00 144 288 144 -192 272 -192 272 288 4 polygon
1 1.00 168 48 16 0.00 360.00 xcarc
1 1.00 176 60 156 40 2 polygon
1 1.00 180 56 160 36 2 polygon
1 1.00 168 112 16 0.00 360.00 xcarc
1 1.00 176 124 156 104 2 polygon
1 1.00 180 120 160 100 2 polygon
1 1.00 168 176 16 0.00 360.00 xcarc
1 1.00 176 188 156 168 2 polygon
1 1.00 180 184 160 164 2 polygon
1 1.00 208 88 16 0.00 360.00 xcarc
1 1.00 216 100 196 80 2 polygon
1 1.00 220 96 200 76 2 polygon
1 1.00 208 152 16 0.00 360.00 xcarc
1 1.00 216 164 196 144 2 polygon
1 1.00 220 160 200 140 2 polygon
1 1.00 168 -16 16 0.00 360.00 xcarc
1 1.00 176 -4 156 -24 2 polygon
1 1.00 180 -8 160 -28 2 polygon
1 1.00 208 -40 16 0.00 360.00 xcarc
1 1.00 216 -28 196 -48 2 polygon
1 1.00 220 -32 200 -52 2 polygon
1 1.00 208 24 16 0.00 360.00 xcarc
1 1.00 216 36 196 16 2 polygon
1 1.00 220 32 200 12 2 polygon
(inputs) {/Helvetica cf} 2 16 0 0.70 176 224 label
(Analog) {/Helvetica cf} 2 16 0 0.70 168 256 label
1 1.00 248 112 16 0.00 360.00 xcarc
1 1.00 256 124 236 104 2 polygon
1 1.00 260 120 240 100 2 polygon
1 1.00 248 176 16 0.00 360.00 xcarc
1 1.00 256 188 236 168 2 polygon
1 1.00 260 184 240 164 2 polygon
1 1.00 248 -16 16 0.00 360.00 xcarc
1 1.00 256 -4 236 -24 2 polygon
1 1.00 260 -8 240 -28 2 polygon
1 1.00 248 48 16 0.00 360.00 xcarc
1 1.00 256 60 236 40 2 polygon
1 1.00 260 56 240 36 2 polygon
0.604 0.604 0.604 scb
240 1.00 288 288 288 -192 416 -192 416 288 4 polygon
sce
0 1.00 288 288 288 -192 416 -192 416 288 4 polygon
1 1.00 312 48 16 0.00 360.00 xcarc
1 1.00 320 60 300 40 2 polygon
1 1.00 324 56 304 36 2 polygon
1 1.00 312 112 16 0.00 360.00 xcarc
1 1.00 320 124 300 104 2 polygon
1 1.00 324 120 304 100 2 polygon
1 1.00 312 176 16 0.00 360.00 xcarc
1 1.00 320 188 300 168 2 polygon
1 1.00 324 184 304 164 2 polygon
1 1.00 352 88 16 0.00 360.00 xcarc
1 1.00 360 100 340 80 2 polygon
1 1.00 364 96 344 76 2 polygon
1 1.00 352 152 16 0.00 360.00 xcarc
1 1.00 360 164 340 144 2 polygon
1 1.00 364 160 344 140 2 polygon
1 1.00 312 -16 16 0.00 360.00 xcarc
1 1.00 320 -4 300 -24 2 polygon
1 1.00 324 -8 304 -28 2 polygon
1 1.00 352 -40 16 0.00 360.00 xcarc
1 1.00 360 -28 340 -48 2 polygon
1 1.00 364 -32 344 -52 2 polygon
1 1.00 352 24 16 0.00 360.00 xcarc
1 1.00 360 36 340 16 2 polygon
1 1.00 364 32 344 12 2 polygon
(Analog) {/Helvetica cf} 2 16 0 0.70 312 256 label
1 1.00 392 112 16 0.00 360.00 xcarc
1 1.00 400 124 380 104 2 polygon
1 1.00 404 120 384 100 2 polygon
1 1.00 392 176 16 0.00 360.00 xcarc
1 1.00 400 188 380 168 2 polygon
1 1.00 404 184 384 164 2 polygon
1 1.00 392 -16 16 0.00 360.00 xcarc
1 1.00 400 -4 380 -24 2 polygon
1 1.00 404 -8 384 -28 2 polygon
1 1.00 392 48 16 0.00 360.00 xcarc
1 1.00 400 60 380 40 2 polygon
1 1.00 404 56 384 36 2 polygon
(Remote) {/Helvetica cf} 2 16 0 0.70 -592 1024 label
(I/O) {/Helvetica cf} 2 16 0 0.70 -560 992 label
(interace) {/Helvetica cf} 2 16 0 0.70 -592 960 label
(outputs) {/Helvetica cf} 2 16 0 0.70 308 224 label
0.604 0.604 0.604 scb
240 1.00 -144 288 -144 -192 -16 -192 -16 288 4 polygon
sce
0 1.00 -144 288 -144 -192 -16 -192 -16 288 4 polygon
1 1.00 -112 -64 16 0.00 360.00 xcarc
1 1.00 -104 -52 -124 -72 2 polygon
1 1.00 -100 -56 -120 -76 2 polygon
1 1.00 -112 -16 16 0.00 360.00 xcarc
1 1.00 -104 -4 -124 -24 2 polygon
1 1.00 -100 -8 -120 -28 2 polygon
1 1.00 -112 -160 16 0.00 360.00 xcarc
1 1.00 -104 -148 -124 -168 2 polygon
1 1.00 -100 -152 -120 -172 2 polygon
1 1.00 -112 -112 16 0.00 360.00 xcarc
1 1.00 -104 -100 -124 -120 2 polygon
1 1.00 -100 -104 -120 -124 2 polygon
(Remote) {/Helvetica cf} 2 16 0 0.70 -128 256 label
(I/O) {/Helvetica cf} 2 16 0 0.70 -96 224 label
(interace) {/Helvetica cf} 2 16 0 0.70 -128 192 label
1 1.00 -528 752 -544 688 -512 688 -560 752 spline
1 1.00 -528 704 -560 688 -512 688 -560 704 spline
1 1.00 -528 656 -560 688 -512 688 -560 656 spline
1 1.00 -560 688 -512 608 -560 608 -512 688 spline
1 1.00 -160 -16 -144 -80 -176 -80 -128 -16 spline
1 1.00 -160 -64 -128 -80 -176 -80 -128 -64 spline
1 1.00 -160 -112 -128 -80 -176 -80 -128 -112 spline
1 1.00 -128 -80 -176 -160 -128 -160 -176 -80 spline
1 6.00 -512 -80 -176 672 -512 688 -176 -80 spline
(L2/N) {/Helvetica cf} 2 16 0 0.70 -1224 648 label
(L2/N) {/Helvetica cf} 2 16 0 0.70 -328 -120 label
(Host PLC \(base unit\)) {/Helvetica cf} 2 16 0 1.00 -1080 520 label
(Remote I/O rack) {/Helvetica cf} 2 16 0 1.00 -104 312 label
(Network) {/Helvetica cf} 2 16 0 1.00 -336 576 label
(cable) {/Helvetica cf} 2 16 0 1.00 -312 536 label
pgsave restore showpage

%%Trailer
XCIRCsave restore
%%EOF
