%!PS-Adobe-3.0 EPSF-3.0
%%Title: plc_011.eps
%%Creator: XCircuit v3.6 rev164
%%CreationDate: Thu May 13 03:36:53 2010
%%Pages: 1
%%BoundingBox: 68 68 391 256
%%DocumentNeededResources: font Helvetica Helvetica-Oblique Times-Roman 
%%EndComments
%%BeginProlog
%
%  PostScript prolog for output from xcircuit
%  Version: 3.3
%
%  Electrical circuit (and otherwise general) drawing program
%
%  Written by Tim Edwards 8/5/93--7/13/05  (tim.edwards@multigig.com)
%  The Johns Hopkins University (1993-2004)
%  MultiGiG, Inc. (2004-present)
%
%%BeginResource: procset XCIRCproc 3.3 0
%
% supporting definitions --- these are the primary xcircuit types.

/XCIRCsave save def
/topmat matrix currentmatrix def

/fontslant { /slant exch def [1 0 slant 1 0 0] 
    exch findfont exch makefont dup length dict /ndict exch def
    { 1 index /FID ne { ndict 3 1 roll put } { pop pop } ifelse } forall
    ndict definefont pop} def
/ul { dup type /stringtype eq showflag 1 eq and { gsave 
   currentpoint topmat setmatrix 0 0 moveto 2 index stringwidth pop (_)
   false charpath flattenpath pathbbox grestore exch pop 1 index
   sub setlinewidth exch pop currentpoint 3 -1 roll add moveto 0
   rlineto stroke moveto } if } def
/ol { dup type /stringtype eq showflag 1 eq and { gsave gsave
   currentpoint topmat setmatrix 2 index stringwidth pop 3 index
   true charpath flattenpath pathbbox grestore exch pop
   exch pop topmat setmatrix (_) true charpath pathbbox grestore
   exch pop 1 index sub setlinewidth exch pop currentpoint
   exch 4 1 roll exch sub add moveto pop 0 rlineto stroke
   moveto } if } def
/stW { gsave currentpoint newpath moveto true charpath flattenpath
	pathbbox pop exch pop sub grestore } def
/Ts {mark Tabs aload pop counttomark 1 add array astore /Tabs exch def Tabs
	0 currentpoint pop put} def
/Tbn {mark Tabs aload pop counttomark dup 2 add 1 roll cleartomark 1 sub} def
/Tb { 0 1 Tbn {Tabs exch get dup currentpoint pop lt
	{currentpoint exch pop moveto exit} {pop} ifelse } for } def
/Tf { Tbn -1 0 {Tabs exch get dup currentpoint pop gt
	{currentpoint exch pop moveto exit} {pop} ifelse } for } def
/qS { (aa) stW (a a) stW sub 4 div 0 Kn } def
/hS { qS qS } def
/pspc 0 def
/cf0 { scalefont setfont } bind def
/Kn { dup kY add /kY exch def rmoveto } bind def
/ss { /fscale fscale 0.67 mul def currentfont 0.67 cf0 0 fscale0 fscale mul
	0.33 mul neg Kn} def
/Ss { /fscale fscale 0.67 mul def currentfont 0.67 cf0 0 fscale0 fscale mul
	0.67 mul Kn } def
/ns { 0 kY neg Kn /kY 0 def /fscale 1.0 def xfont0 1.0 cf0 } def
/CR { ns 0 /Bline Bline fscale0 neg add def Bline moveto } def
/cf { dup type /realtype ne {1.0} if exch findfont exch kY 0 eq
	{ 40 mul dup /fscale0 exch def cf0 /xfont0 currentfont def}
	{fscale0 mul fscale mul cf0} ifelse } def
/ctmk { counttomark dup 2 add -1 roll pop } bind def
/label { gsave translate 0 0 moveto dup scale neg /rotval exch def
	/just exch def just 384 and 0 gt {/mshow {pop} def} {/mshow {show}
	def} ifelse just 16 and 0 gt {gsave rotval rotate 0 1 dtransform
	gsave pagemat setmatrix idtransform exch grestore 1 0 dtransform
	gsave pagemat setmatrix idtransform exch grestore dup abs 1e-9 lt
	{pop mul 0 gt} {3 1 roll pop pop 0 lt} ifelse grestore {-1 /rotval
	rotval neg def /just just dup 3 and 1 ne {3 xor} if def} {1} ifelse
	exch -1e-9 lt {-1 /rotval rotval neg def /just just dup 12 and
	4 ne {12 xor} if def} {1} ifelse scale } if /showflag 0 def
	/fspc pspc def /Bline 0 def /Tabs 0 array def /fscale 1.0 def
	/kY 0 def gsave dup 1 add copy 0 exch 1 0 dtransform exch atan rotate
	{exch dup type /stringtype eq {true charpath flattenpath} {dup type
	/arraytype eq {exec} {12 string cvs true charpath flattenpath} ifelse}
	ifelse} repeat pop pathbbox grestore 3 -1 roll pop 3 1 roll just
	1 and 0 gt {just 2 and 0 gt {exch pop neg fspc sub} {exch sub 0.5
	mul neg} ifelse} {pop neg fspc add} ifelse exch Bline exch just 4
	and 0 gt {just 8 and 0 gt {exch pop neg fspc sub} {add 0.5 mul neg}
	ifelse} {pop neg fspc add} ifelse rotval rotate Kn currentpoint
	translate /showflag 1 def /Bline 0 def /Tabs 0 array def /fscale
	1.0 def /kY 0 def {dup type /stringtype eq {mshow} {dup type
	/arraytype eq {exec} {12 string cvs mshow} ifelse} ifelse} repeat
	grestore } def
/pinlabel { 4 index 32 and 0 ne hlevel 0 eq or { /pspc 10 def label
	/pspc 0 def } { pop pop pop pop pop {pop} repeat } ifelse } def
/pinglobal { pinlabel } def
/infolabel { pinlabel } def
/graphic { gsave 4 index cvx exec /DataSource get resetfile translate
	0 0 moveto neg rotate dup scale cvx exec image grestore } def

/scb { setrgbcolor } bind def  /sce { defColor aload pop scb } bind def
/cRedef {/defColor currentcolor 3 array astore def} def
/begingate {dup type /dicttype ne {1 dict} if begin	% default params
	dup type /dicttype ne {1 dict} if begin		% instanced params
	/hlevel hlevel 1 add def /defColor currentcolor sce 3 array
	astore def gsave sce translate 0 0 moveto neg rotate dup abs scale
	} bind def
/endgate { /hlevel hlevel 1 sub def grestore defColor aload pop cRedef
	scb end end} bind def

/hlevel 0 def
/tmpa [1 0 0 1 0 0] def
/gar {8 8 true tmpa {<c0 c0 00 00 0c 0c 00 00>} imagemask} bind
{8 8 true tmpa {<30 70 60 02 03 07 06 20>} imagemask} bind
{8 8 true tmpa {<0c 1e 1e 0c c0 e1 e1 c0>} imagemask} bind
{8 8 true tmpa {<0f 0f 0f 0f f0 f0 f0 f0>} imagemask} bind
{8 8 true tmpa {<3f f3 e1 e1 f3 3f 1e 1e>} imagemask} bind
{8 8 true tmpa {<df cf 8f 9f fd fc f8 f9>} imagemask} bind
{8 8 true tmpa {<ff 3f 3f ff ff f3 f3 ff>} imagemask} bind 7 array astore def
/ppaint { gsave clip tmpa dup setmatrix pathbbox neg exch neg 4 2 roll
  neg 4 -1 roll 2 copy gt {exch} if 8 div ceiling 8 mul 4 2 roll neg 2 copy
  gt {exch} if 8 div ceiling 8 mul 3 -1 roll -8 5 -1 roll
  { 3 index exch 5 exch put dup -8 3 index { 3 index
  exch 4 exch put 3 index exec } for } for pop pop pop pop grestore } bind def
/setstyles {
  currentlinewidth mul setlinewidth /style exch def
  style 1 and 0 gt not {closepath} if
  style 1024 and 0 gt {2 setlinecap} if
  style 2 and 0 gt {currentlinewidth 4 mul dup 2 array astore 0 setdash} if
  style 4 and 0 gt {0.5 currentlinewidth 4 mul 2 array astore 0 setdash} if
  gsave style 16 and 0 gt { style 224 and -5 bitshift style 256 and 0 gt {
  7 exch sub 8 div dup 1 exch sub currentrgbcolor 3 array astore
  {3 copy mul add 4 1 roll pop} forall pop pop setrgbcolor eofill}
  {dup 7 lt {gar exch get ppaint} {pop eofill} ifelse} ifelse}
  {style 256 and 0 gt {1 setgray eofill} if} ifelse grestore style 8 and 0 gt 
  style 512 eq or {newpath} {stroke} ifelse grestore} def     

/polygon { gsave /num exch def moveto num 1 sub {lineto} repeat setstyles } def
/xcarc   { gsave newpath arc setstyles } def
/elb { matrix currentmatrix 7 -1 roll 7 -1 roll translate 5 1 roll 4 -1 roll
	3 index div 1 scale } def
/ele { 0 4 1 roll 0 4 1 roll } bind def
/ellipse { gsave elb newpath ele arc setmatrix setstyles } def
/pellip  { elb ele arc setmatrix } def
/nellip  { elb ele arcn setmatrix } def
/spline  { gsave moveto curveto setstyles } def
/polyc   { {lineto} repeat } bind def
/beginpath { gsave moveto } bind def
/endpath { setstyles } bind def
/bop	 { 1 setlinecap 0 setlinejoin 6 setmiterlimit 0 0 0 scb cRedef } def
/psinsertion {/PSobj save def /showpage {} def /setpagedevice {pop} def bop
	rotate translate dup scale} def
/end_insert {PSobj restore} def
/setpagemat {/pagemat matrix currentmatrix def} def
/inchscale  {setpagemat 0.375 mul dup scale} def
/cmscale    {setpagemat 0.35433071 mul dup scale} def

%%EndResource
%%EndProlog

% XCircuit output starts here.

%%BeginSetup

/analog::resistor {
begingate
1 1.000 0 64 0 36 2 polygon
1 1.000 0 -64 0 -36 2 polygon
1 1.000 0 -36 14 -30 -14 -18 14 -6 -14 6 14 18 -14 30 0 36 8 polygon
1.000 0.000 0.000 scb
(r.1) {/Times-Roman cf} 2 9 0 1.000 0 64 pinlabel
(r.2) {/Times-Roman cf} 2 13 0 1.000 0 -64 pinlabel
0.180 0.545 0.341 scb
(spice:R%i %pr.1 %pr.2 1.0K) {/Times-Roman cf} 2 0 0 1.000 -208 -160 infolabel
(sim:r %pr.1 %pr.2) {/Times-Roman cf} 2 0 0 1.000 -208 -208 infolabel
endgate
} def

/generic::arrowhead {
% nonetwork
begingate
8 -28 beginpath
3 -18 3 -15 0 0 curveto
-3 -15 -3 -18 -8 -28 curveto
-2 -26 2 -26 8 -28 curveto
249 
1.000 endpath
endgate
} def

/analog::npn {
begingate
1 1.000 -48 0 -64 0 2 polygon
1 1.000 -48 48 -48 -48 2 polygon
1 1.000 0 48 -48 22 2 polygon
1 1.000 0 48 0 64 2 polygon
1 1.000 0 -48 -48 -22 2 polygon
1 1.000 0 -48 0 -64 2 polygon
1.000 120 0 -48 generic::arrowhead
1.000 0.000 0.000 scb
(C) {/Times-Roman cf} 2 9 0 1.000 0 64 pinlabel
(B) {/Times-Roman cf} 2 7 0 1.000 -64 0 pinlabel
(E) {/Times-Roman cf} 2 13 0 1.000 0 -64 pinlabel
0.180 0.545 0.341 scb
(spice:Q%i %pC %pB %pE npn) {/Times-Roman cf} 2 4 0 1.000 -244 -139 infolabel
(sim:b %pB %pE %pC) {/Times-Roman cf} 2 4 0 1.000 -244 -187 infolabel
endgate
} def

/generic::dot {
% trivial
begingate
248 1.000 0 0 6 0.000 360.000 xcarc
1.000 0.000 0.000 scb
(x) {/Times-Roman cf} 2 29 0 1.000 0 0 pinlabel
endgate
} def

/analog::diode {
begingate
248 1.000 -18 -16 0 16 18 -16 3 polygon
1 1.000 0 -48 0 -16 2 polygon
1 1.000 0 48 0 16 2 polygon
1 1.000 -18 16 18 16 2 polygon
1.000 0.000 0.000 scb
(d.m) {/Times-Roman cf} 2 9 0 1.000 0 48 pinlabel
(d.p) {/Times-Roman cf} 2 13 0 1.000 0 -48 pinlabel
endgate
} def


%%EndSetup

%%Page: 04330.eps 1
%%PageOrientation: Portrait
/pgsave save def bop
% 32.00 8.00 gridspace
0.7000 inchscale
2.6000 setlinewidth 882 354 translate

(PLC discrete) {/Helvetica cf} 2 16 0 1.000 -248 568 label
1.000 0.000 0.000 scb
1 1.000 -160 224 -256 224 2 polygon
1 1.000 -168 232 -160 224 -168 216 3 polygon
0.800 0.800 0.800 scb
496 1.000 -48 352 -48 288 128 288 128 352 4 polygon
sce
0 1.000 -48 352 -48 288 128 288 128 352 4 polygon
0.604 0.604 0.604 scb
497 1.000 0 320 16 0.000 360.000 xcarc
sce
1 1.000 0 320 16 0.000 360.000 xcarc
1 1.000 8 332 -14 316 2 polygon
1 1.000 14 324 -8 308 2 polygon
0.604 0.604 0.604 scb
497 1.000 80 320 16 0.000 360.000 xcarc
sce
1 1.000 80 320 16 0.000 360.000 xcarc
1 1.000 88 332 66 316 2 polygon
1 1.000 94 324 72 308 2 polygon
1 1.000 -16 352 96 384 2 polygon
1 1.000 96 392 8 0.000 360.000 xcarc
(Limit switch) {/Helvetica cf} 2 16 0 1.000 -64 416 label
0.824 0.706 0.549 scb
496 1.000 176 224 176 -16 352 -16 352 224 4 polygon
sce
0 1.000 176 224 176 -16 352 -16 352 224 4 polygon
0.604 0.604 0.604 scb
497 1.000 208 160 16 0.000 360.000 xcarc
sce
1 1.000 208 160 16 0.000 360.000 xcarc
1 1.000 216 172 194 156 2 polygon
1 1.000 222 164 200 148 2 polygon
0.604 0.604 0.604 scb
497 1.000 208 48 16 0.000 360.000 xcarc
sce
1 1.000 208 48 16 0.000 360.000 xcarc
1 1.000 216 60 194 44 2 polygon
1 1.000 222 52 200 36 2 polygon
0.604 0.604 0.604 scb
497 1.000 320 152 16 0.000 360.000 xcarc
sce
1 1.000 320 152 16 0.000 360.000 xcarc
1 1.000 328 164 306 148 2 polygon
1 1.000 334 156 312 140 2 polygon
0.604 0.604 0.604 scb
497 1.000 320 104 16 0.000 360.000 xcarc
sce
1 1.000 320 104 16 0.000 360.000 xcarc
1 1.000 328 116 306 100 2 polygon
1 1.000 334 108 312 92 2 polygon
0.604 0.604 0.604 scb
497 1.000 320 56 16 0.000 360.000 xcarc
sce
1 1.000 320 56 16 0.000 360.000 xcarc
1 1.000 328 68 306 52 2 polygon
1 1.000 334 60 312 44 2 polygon
1 2.000 240 48 240 32 2 polygon
1 2.000 232 168 248 168 2 polygon
1 2.000 232 40 248 40 2 polygon
1 1.000 336 152 464 152 2 polygon
1 1.000 336 104 464 104 2 polygon
1 1.000 336 56 464 56 2 polygon
(L1) {/Helvetica cf} 2 16 0 0.700 480 144 label
(L2) {/Helvetica cf} 2 16 0 0.700 480 96 label
(Gnd) {/Helvetica cf} 2 16 0 0.700 480 48 label
(AC power) {/Helvetica cf} 2 16 0 1.000 416 192 label
(DC power) {/Helvetica cf} 2 16 0 1.000 176 288 label
(supply) {/Helvetica cf} 2 16 0 1.000 208 248 label
1.000 0.000 0.000 scb
1 1.000 16 272 16 224 -32 224 3 polygon
(current) {/Helvetica cf} 2 16 0 0.700 -248 168 label
(Sourcing) {/Helvetica-Oblique cf} 2 16 0 0.700 -256 192 label
(current) {/Helvetica cf} 2 16 0 0.700 -48 168 label
sce
1 1.000 80 304 80 160 192 160 3 polygon
0.824 0.706 0.549 scb
496 1.000 -608 608 -608 -80 -272 -80 -272 608 4 polygon
sce
0 1.000 -608 608 -608 -80 -272 -80 -272 608 4 polygon
0.604 0.604 0.604 scb
497 1.000 -304 240 16 0.000 360.000 xcarc
sce
1 1.000 -304 240 16 0.000 360.000 xcarc
1 1.000 -296 252 -318 236 2 polygon
1 1.000 -290 244 -312 228 2 polygon
0.604 0.604 0.604 scb
497 1.000 -304 -48 16 0.000 360.000 xcarc
sce
1 1.000 -304 -48 16 0.000 360.000 xcarc
1 1.000 -296 -36 -318 -52 2 polygon
1 1.000 -290 -44 -312 -60 2 polygon
1 1.000 -488 200 -504 184 2 polygon
1 1.000 -504 192 -504 184 -496 184 3 polygon
1 1.000 -496 216 -512 200 2 polygon
1 1.000 -512 208 -512 200 -504 200 3 polygon
1.000 90 -384 240 analog::resistor
0.500 90 -496 144 analog::npn
1 1.000 -544 240 -592 240 -592 -48 -320 -48 4 polygon
2 1.000 -544 272 -544 128 -448 128 -448 272 4 polygon
1 1.000 -488 40 -504 24 2 polygon
1 1.000 -504 32 -504 24 -496 24 3 polygon
1 1.000 -496 56 -512 40 2 polygon
1 1.000 -512 48 -512 40 -504 40 3 polygon
1.000 90 -384 80 analog::resistor
0.500 90 -496 -16 analog::npn
2 1.000 -544 112 -544 -32 -448 -32 -448 112 4 polygon
0.604 0.604 0.604 scb
497 1.000 -304 80 16 0.000 360.000 xcarc
sce
1 1.000 -296 92 -318 76 2 polygon
1 1.000 -290 84 -312 68 2 polygon
1 1.000 -304 80 16 0.000 360.000 xcarc
1 1.000 -544 80 -592 80 2 polygon
1.000 0 -592 80 generic::dot
1 1.000 -488 360 -504 344 2 polygon
1 1.000 -504 352 -504 344 -496 344 3 polygon
1 1.000 -496 376 -512 360 2 polygon
1 1.000 -512 368 -512 360 -504 360 3 polygon
0.500 90 -496 304 analog::npn
2 1.000 -544 432 -544 288 -448 288 -448 432 4 polygon
1 1.000 -544 400 -592 400 -592 240 3 polygon
1.000 0 -592 240 generic::dot
2 1.000 -544 592 -544 448 -448 448 -448 592 4 polygon
1 1.000 -544 560 -592 560 -592 400 3 polygon
1 1.000 -488 520 -504 504 2 polygon
1 1.000 -504 512 -504 504 -496 504 3 polygon
1 1.000 -496 536 -512 520 2 polygon
1 1.000 -512 528 -512 520 -504 520 3 polygon
0.500 90 -496 464 analog::npn
1.000 0 -592 400 generic::dot
0.604 0.604 0.604 scb
497 1.000 -304 400 16 0.000 360.000 xcarc
sce
1 1.000 -304 400 16 0.000 360.000 xcarc
1 1.000 -296 412 -318 396 2 polygon
1 1.000 -290 404 -312 388 2 polygon
1.000 90 -384 400 analog::resistor
0.604 0.604 0.604 scb
497 1.000 -304 560 16 0.000 360.000 xcarc
sce
1 1.000 -304 560 16 0.000 360.000 xcarc
1 1.000 -296 572 -318 556 2 polygon
1 1.000 -290 564 -312 548 2 polygon
1.000 90 -384 560 analog::resistor
1 1.000 192 48 80 48 80 -48 -288 -48 4 polygon
1 1.000 -288 240 0 240 0 304 3 polygon
(Ch 1) {/Helvetica cf} 2 16 0 0.750 -368 352 label
(Ch 2) {/Helvetica cf} 2 16 0 0.750 -368 192 label
(Ch 3) {/Helvetica cf} 2 16 0 0.750 -368 32 label
(Ch 0) {/Helvetica cf} 2 16 0 0.750 -368 512 label
(input card) {/Helvetica cf} 2 16 0 1.000 -224 528 label
1.000 90 -496 560 analog::diode
1.000 90 -496 400 analog::diode
1.000 90 -496 240 analog::diode
1.000 90 -496 80 analog::diode
(VDC) {/Helvetica cf} 2 16 0 0.750 -384 -32 label
1.000 0.000 0.000 scb
1 1.000 8 264 16 272 24 264 3 polygon
(Sinking) {/Helvetica-Oblique cf} 2 16 0 0.700 -48 192 label
sce
(\(sourcing\)) {/Helvetica cf} 2 16 0 1.000 -224 488 label
pgsave restore showpage

%%Trailer
XCIRCsave restore
%%EOF
