%!PS-Adobe-3.0 EPSF-3.0
%%Title: plc_064.eps
%%Creator: XCircuit v3.6 rev164
%%CreationDate: Thu Jul 21 03:26:33 2011
%%Pages: 1
%%BoundingBox: 68 68 475 398
%%DocumentNeededResources: font Helvetica Helvetica-Bold Helvetica-Oblique 
%%+ font Times-Roman Courier 
%%EndComments
%%BeginProlog
%
%  PostScript prolog for output from xcircuit
%  Version: 3.3
%
%  Electrical circuit (and otherwise general) drawing program
%
%  Written by Tim Edwards 8/5/93--7/13/05  (tim.edwards@multigig.com)
%  The Johns Hopkins University (1993-2004)
%  MultiGiG, Inc. (2004-present)
%
%%BeginResource: procset XCIRCproc 3.3 0
%
% supporting definitions --- these are the primary xcircuit types.

/XCIRCsave save def
/topmat matrix currentmatrix def

/fontslant { /slant exch def [1 0 slant 1 0 0] 
    exch findfont exch makefont dup length dict /ndict exch def
    { 1 index /FID ne { ndict 3 1 roll put } { pop pop } ifelse } forall
    ndict definefont pop} def
/ul { dup type /stringtype eq showflag 1 eq and { gsave 
   currentpoint topmat setmatrix 0 0 moveto 2 index stringwidth pop (_)
   false charpath flattenpath pathbbox grestore exch pop 1 index
   sub setlinewidth exch pop currentpoint 3 -1 roll add moveto 0
   rlineto stroke moveto } if } def
/ol { dup type /stringtype eq showflag 1 eq and { gsave gsave
   currentpoint topmat setmatrix 2 index stringwidth pop 3 index
   true charpath flattenpath pathbbox grestore exch pop
   exch pop topmat setmatrix (_) true charpath pathbbox grestore
   exch pop 1 index sub setlinewidth exch pop currentpoint
   exch 4 1 roll exch sub add moveto pop 0 rlineto stroke
   moveto } if } def
/stW { gsave currentpoint newpath moveto true charpath flattenpath
	pathbbox pop exch pop sub grestore } def
/Ts {mark Tabs aload pop counttomark 1 add array astore /Tabs exch def Tabs
	0 currentpoint pop put} def
/Tbn {mark Tabs aload pop counttomark dup 2 add 1 roll cleartomark 1 sub} def
/Tb { 0 1 Tbn {Tabs exch get dup currentpoint pop lt
	{currentpoint exch pop moveto exit} {pop} ifelse } for } def
/Tf { Tbn -1 0 {Tabs exch get dup currentpoint pop gt
	{currentpoint exch pop moveto exit} {pop} ifelse } for } def
/qS { (aa) stW (a a) stW sub 4 div 0 Kn } def
/hS { qS qS } def
/pspc 0 def
/cf0 { scalefont setfont } bind def
/Kn { dup kY add /kY exch def rmoveto } bind def
/ss { /fscale fscale 0.67 mul def currentfont 0.67 cf0 0 fscale0 fscale mul
	0.33 mul neg Kn} def
/Ss { /fscale fscale 0.67 mul def currentfont 0.67 cf0 0 fscale0 fscale mul
	0.67 mul Kn } def
/ns { 0 kY neg Kn /kY 0 def /fscale 1.0 def xfont0 1.0 cf0 } def
/CR { ns 0 /Bline Bline fscale0 neg add def Bline moveto } def
/cf { dup type /realtype ne {1.0} if exch findfont exch kY 0 eq
	{ 40 mul dup /fscale0 exch def cf0 /xfont0 currentfont def}
	{fscale0 mul fscale mul cf0} ifelse } def
/ctmk { counttomark dup 2 add -1 roll pop } bind def
/label { gsave translate 0 0 moveto dup scale neg /rotval exch def
	/just exch def just 384 and 0 gt {/mshow {pop} def} {/mshow {show}
	def} ifelse just 16 and 0 gt {gsave rotval rotate 0 1 dtransform
	gsave pagemat setmatrix idtransform exch grestore 1 0 dtransform
	gsave pagemat setmatrix idtransform exch grestore dup abs 1e-9 lt
	{pop mul 0 gt} {3 1 roll pop pop 0 lt} ifelse grestore {-1 /rotval
	rotval neg def /just just dup 3 and 1 ne {3 xor} if def} {1} ifelse
	exch -1e-9 lt {-1 /rotval rotval neg def /just just dup 12 and
	4 ne {12 xor} if def} {1} ifelse scale } if /showflag 0 def
	/fspc pspc def /Bline 0 def /Tabs 0 array def /fscale 1.0 def
	/kY 0 def gsave dup 1 add copy 0 exch 1 0 dtransform exch atan rotate
	{exch dup type /stringtype eq {true charpath flattenpath} {dup type
	/arraytype eq {exec} {12 string cvs true charpath flattenpath} ifelse}
	ifelse} repeat pop pathbbox grestore 3 -1 roll pop 3 1 roll just
	1 and 0 gt {just 2 and 0 gt {exch pop neg fspc sub} {exch sub 0.5
	mul neg} ifelse} {pop neg fspc add} ifelse exch Bline exch just 4
	and 0 gt {just 8 and 0 gt {exch pop neg fspc sub} {add 0.5 mul neg}
	ifelse} {pop neg fspc add} ifelse rotval rotate Kn currentpoint
	translate /showflag 1 def /Bline 0 def /Tabs 0 array def /fscale
	1.0 def /kY 0 def {dup type /stringtype eq {mshow} {dup type
	/arraytype eq {exec} {12 string cvs mshow} ifelse} ifelse} repeat
	grestore } def
/pinlabel { 4 index 32 and 0 ne hlevel 0 eq or { /pspc 10 def label
	/pspc 0 def } { pop pop pop pop pop {pop} repeat } ifelse } def
/pinglobal { pinlabel } def
/infolabel { pinlabel } def
/graphic { gsave 4 index cvx exec /DataSource get resetfile translate
	0 0 moveto neg rotate dup scale cvx exec image grestore } def

/scb { setrgbcolor } bind def  /sce { defColor aload pop scb } bind def
/cRedef {/defColor currentcolor 3 array astore def} def
/begingate {dup type /dicttype ne {1 dict} if begin	% default params
	dup type /dicttype ne {1 dict} if begin		% instanced params
	/hlevel hlevel 1 add def /defColor currentcolor sce 3 array
	astore def gsave sce translate 0 0 moveto neg rotate dup abs scale
	} bind def
/endgate { /hlevel hlevel 1 sub def grestore defColor aload pop cRedef
	scb end end} bind def

/hlevel 0 def
/tmpa [1 0 0 1 0 0] def
/gar {8 8 true tmpa {<c0 c0 00 00 0c 0c 00 00>} imagemask} bind
{8 8 true tmpa {<30 70 60 02 03 07 06 20>} imagemask} bind
{8 8 true tmpa {<0c 1e 1e 0c c0 e1 e1 c0>} imagemask} bind
{8 8 true tmpa {<0f 0f 0f 0f f0 f0 f0 f0>} imagemask} bind
{8 8 true tmpa {<3f f3 e1 e1 f3 3f 1e 1e>} imagemask} bind
{8 8 true tmpa {<df cf 8f 9f fd fc f8 f9>} imagemask} bind
{8 8 true tmpa {<ff 3f 3f ff ff f3 f3 ff>} imagemask} bind 7 array astore def
/ppaint { gsave clip tmpa dup setmatrix pathbbox neg exch neg 4 2 roll
  neg 4 -1 roll 2 copy gt {exch} if 8 div ceiling 8 mul 4 2 roll neg 2 copy
  gt {exch} if 8 div ceiling 8 mul 3 -1 roll -8 5 -1 roll
  { 3 index exch 5 exch put dup -8 3 index { 3 index
  exch 4 exch put 3 index exec } for } for pop pop pop pop grestore } bind def
/setstyles {
  currentlinewidth mul setlinewidth /style exch def
  style 1 and 0 gt not {closepath} if
  style 1024 and 0 gt {2 setlinecap} if
  style 2 and 0 gt {currentlinewidth 4 mul dup 2 array astore 0 setdash} if
  style 4 and 0 gt {0.5 currentlinewidth 4 mul 2 array astore 0 setdash} if
  gsave style 16 and 0 gt { style 224 and -5 bitshift style 256 and 0 gt {
  7 exch sub 8 div dup 1 exch sub currentrgbcolor 3 array astore
  {3 copy mul add 4 1 roll pop} forall pop pop setrgbcolor eofill}
  {dup 7 lt {gar exch get ppaint} {pop eofill} ifelse} ifelse}
  {style 256 and 0 gt {1 setgray eofill} if} ifelse grestore style 8 and 0 gt 
  style 512 eq or {newpath} {stroke} ifelse grestore} def     

/polygon { gsave /num exch def moveto num 1 sub {lineto} repeat setstyles } def
/xcarc   { gsave newpath arc setstyles } def
/elb { matrix currentmatrix 7 -1 roll 7 -1 roll translate 5 1 roll 4 -1 roll
	3 index div 1 scale } def
/ele { 0 4 1 roll 0 4 1 roll } bind def
/ellipse { gsave elb newpath ele arc setmatrix setstyles } def
/pellip  { elb ele arc setmatrix } def
/nellip  { elb ele arcn setmatrix } def
/spline  { gsave moveto curveto setstyles } def
/polyc   { {lineto} repeat } bind def
/beginpath { gsave moveto } bind def
/endpath { setstyles } bind def
/bop	 { 1 setlinecap 0 setlinejoin 6 setmiterlimit 0 0 0 scb cRedef } def
/psinsertion {/PSobj save def /showpage {} def /setpagedevice {pop} def bop
	rotate translate dup scale} def
/end_insert {PSobj restore} def
/setpagemat {/pagemat matrix currentmatrix def} def
/inchscale  {setpagemat 0.375 mul dup scale} def
/cmscale    {setpagemat 0.35433071 mul dup scale} def

%%EndResource
%%EndProlog

% XCircuit output starts here.

%%BeginSetup

/liec_dig::PLC1 {
begingate
0.800 0.800 0.800 scb
240 1.000 -304 240 -304 -240 304 -240 304 240 4 polygon
sce
(PLC) {/Helvetica-Bold cf} 2 16 0 1.000 -32 0 label
1 1.000 -272 192 16 0.000 360.000 xcarc
1 1.000 -264 204 -284 184 2 polygon
1 1.000 -260 200 -280 180 2 polygon
1 1.000 -272 128 16 0.000 360.000 xcarc
1 1.000 -264 140 -284 120 2 polygon
1 1.000 -260 136 -280 116 2 polygon
1 1.000 -272 64 16 0.000 360.000 xcarc
1 1.000 -264 76 -284 56 2 polygon
1 1.000 -260 72 -280 52 2 polygon
1 1.000 -272 0 16 0.000 360.000 xcarc
1 1.000 -264 12 -284 -8 2 polygon
1 1.000 -260 8 -280 -12 2 polygon
1 1.000 -272 -64 16 0.000 360.000 xcarc
1 1.000 -264 -52 -284 -72 2 polygon
1 1.000 -260 -56 -280 -76 2 polygon
1 1.000 -272 -128 16 0.000 360.000 xcarc
1 1.000 -264 -116 -284 -136 2 polygon
1 1.000 -260 -120 -280 -140 2 polygon
1 1.000 -272 -192 16 0.000 360.000 xcarc
1 1.000 -264 -180 -284 -200 2 polygon
1 1.000 -260 -184 -280 -204 2 polygon
(X1) {/Courier cf} 2 16 0 1.000 -224 176 label
(X2) {/Courier cf} 2 16 0 1.000 -224 112 label
(X3) {/Courier cf} 2 16 0 1.000 -224 48 label
(X4) {/Courier cf} 2 16 0 1.000 -224 -16 label
(X5) {/Courier cf} 2 16 0 1.000 -224 -80 label
(X6) {/Courier cf} 2 16 0 1.000 -224 -144 label
1 1.000 -112 208 16 0.000 360.000 xcarc
1 1.000 -104 220 -124 200 2 polygon
1 1.000 -100 216 -120 196 2 polygon
1 1.000 112 208 16 0.000 360.000 xcarc
1 1.000 120 220 100 200 2 polygon
1 1.000 124 216 104 196 2 polygon
(L1) {/Helvetica cf} 2 16 0 1.000 -128 160 label
(L2) {/Helvetica cf} 2 16 0 1.000 88 160 label
1 1.000 272 192 16 0.000 360.000 xcarc
1 1.000 280 204 260 184 2 polygon
1 1.000 284 200 264 180 2 polygon
1 1.000 272 128 16 0.000 360.000 xcarc
1 1.000 280 140 260 120 2 polygon
1 1.000 284 136 264 116 2 polygon
1 1.000 272 64 16 0.000 360.000 xcarc
1 1.000 280 76 260 56 2 polygon
1 1.000 284 72 264 52 2 polygon
1 1.000 272 0 16 0.000 360.000 xcarc
1 1.000 280 12 260 -8 2 polygon
1 1.000 284 8 264 -12 2 polygon
1 1.000 272 -64 16 0.000 360.000 xcarc
1 1.000 280 -52 260 -72 2 polygon
1 1.000 284 -56 264 -76 2 polygon
1 1.000 272 -128 16 0.000 360.000 xcarc
1 1.000 280 -116 260 -136 2 polygon
1 1.000 284 -120 264 -140 2 polygon
1 1.000 272 -192 16 0.000 360.000 xcarc
1 1.000 280 -180 260 -200 2 polygon
1 1.000 284 -184 264 -204 2 polygon
(Y1) {/Courier cf} 2 16 0 1.000 176 176 label
(Y2) {/Courier cf} 2 16 0 1.000 176 112 label
(Y3) {/Courier cf} 2 16 0 1.000 176 48 label
(Y4) {/Courier cf} 2 16 0 1.000 176 -16 label
(Y5) {/Courier cf} 2 16 0 1.000 176 -80 label
(Y6) {/Courier cf} 2 16 0 1.000 176 -144 label
(Programming) {/Helvetica cf} 2 16 0 0.500 -48 -180 label
(port) {/Helvetica cf} 2 16 0 0.500 -8 -228 label
240 1.000 -32 -192 -32 -208 48 -208 48 -192 4 polygon
1 1.000 -240 192 8 0.000 360.000 xcarc
1 1.000 -240 128 8 0.000 360.000 xcarc
1 1.000 -240 64 8 0.000 360.000 xcarc
1 1.000 -240 0 8 0.000 360.000 xcarc
1 1.000 -240 -64 8 0.000 360.000 xcarc
1 1.000 -240 -128 8 0.000 360.000 xcarc
1 1.000 240 192 8 0.000 360.000 xcarc
1 1.000 240 128 8 0.000 360.000 xcarc
1 1.000 240 64 8 0.000 360.000 xcarc
1 1.000 240 0 8 0.000 360.000 xcarc
1 1.000 240 -64 8 0.000 360.000 xcarc
1 1.000 240 -128 8 0.000 360.000 xcarc
0 2.000 -304 240 -304 -240 304 -240 304 240 4 polygon
(Common) {/Courier cf} 2 16 0 1.000 -248 -208 label
(Source) {/Courier cf} 2 16 0 1.000 104 -208 label
endgate
} def

/generic::dot {
% trivial
begingate
248 1.000 0 0 6 0.000 360.000 xcarc
1.000 0.000 0.000 scb
(x) {/Times-Roman cf} 2 29 0 1.000 0 0 pinlabel
endgate
} def

/liec_dig::no_contact {
begingate
1 1.000 -64 0 -16 0 2 polygon
1 1.000 -16 32 -16 -32 2 polygon
1 1.000 16 0 64 0 2 polygon
1 1.000 16 32 16 -32 2 polygon
endgate
} def

/liec_dig::nc_contact {
begingate
1.000 0 0 0 liec_dig::no_contact
1 1.000 32 32 -32 -32 2 polygon
endgate
} def

/liec_dig::relay_coil {
begingate
1 1.000 0 0 32 0.000 360.000 xcarc
1 1.000 -64 0 -32 0 2 polygon
1 1.000 32 0 64 0 2 polygon
endgate
} def


%%EndSetup

%%Page: junk.eps 1
%%PageOrientation: Portrait
/pgsave save def bop
0.7500 inchscale
2.6000 setlinewidth 880 1168 translate

1.000 0.000 0.000 scb
(1) {/Helvetica-Bold cf} 2 16 0 1.000 624 -220 label
sce
0 1.000 416 -180 416 -228 464 -228 464 -180 4 polygon
0 1.000 464 -180 464 -228 512 -228 512 -180 4 polygon
0 1.000 560 -180 560 -228 608 -228 608 -180 4 polygon
0 1.000 608 -180 608 -228 656 -228 656 -180 4 polygon
0 1.000 656 -180 656 -228 704 -228 704 -180 4 polygon
0 1.000 512 -180 512 -228 560 -228 560 -180 4 polygon
(0) {/Helvetica-Bold cf} 2 16 0 1.000 432 -220 label
(0) {/Helvetica-Bold cf} 2 16 0 1.000 480 -220 label
(0) {/Helvetica-Bold cf} 2 16 0 1.000 576 -220 label
(0) {/Helvetica-Bold cf} 2 16 0 1.000 672 -220 label
(Input register) {/Helvetica cf} 2 16 0 1.000 440 -156 label
1.000 0.000 0.000 scb
(1) {/Helvetica-Bold cf} 2 16 0 1.000 528 -220 label
sce
1.000 0 -16 -112 liec_dig::PLC1
1 1.000 -304 80 -480 80 2 polygon
1 1.000 -304 16 -480 16 2 polygon
1 1.000 -304 -48 -480 -48 2 polygon
1 1.000 -304 -112 -480 -112 2 polygon
1 1.000 -608 192 -608 -128 2 polygon
1 1.000 -608 80 -512 80 2 polygon
1.000 0 -608 80 generic::dot
1 1.000 -608 16 -512 16 2 polygon
1.000 0 -608 16 generic::dot
1 1.000 -608 -48 -512 -48 2 polygon
1.000 0 -608 -48 generic::dot
1 1.000 -608 -112 -512 -112 2 polygon
1.000 0 -608 -112 generic::dot
(L1) {/Helvetica cf} 2 16 0 1.000 -624 208 label
(X1) {/Helvetica cf} 2 16 90 0.700 672 -244 label
(X2) {/Helvetica cf} 2 16 90 0.700 625 -245 label
(X3) {/Helvetica cf} 2 16 90 0.700 577 -243 label
(X4) {/Helvetica cf} 2 16 90 0.700 528 -243 label
(X5) {/Helvetica cf} 2 16 90 0.700 480 -245 label
(X6) {/Helvetica cf} 2 16 90 0.700 433 -244 label
1 1.000 -512 -96 -480 -96 -480 -112 -512 -112 spline
1 1.000 -512 32 -480 32 -480 16 -512 16 spline
1.000 0.000 0.000 scb
497 1.000 -256 16 8 0.000 360.000 xcarc
497 1.000 -256 -112 8 0.000 360.000 xcarc
0.000 1.000 1.000 scb
496 1.000 -320 -512 -320 -912 288 -912 288 -512 4 polygon
0.000 0.000 1.000 scb
(\(Inside the PLC's memory\)) {/Helvetica-Oblique cf} 2 16 0 1.000 320 -64 
label
1 3.000 304 -96 304 -320 560 -320 560 -96 spline
1 3.000 816 -96 816 -320 560 -320 560 -96 spline
1 3.000 384 -160 0 -16 2 polygon
(\(Displayed on the editing software\)) {/Helvetica-Oblique cf} 2 16 0 1.000 
-336 -480 label
sce
0 2.000 -320 -512 -320 -912 288 -912 288 -512 4 polygon
1 1.000 -272 -528 -272 -896 2 polygon
1 1.000 240 -528 240 -896 2 polygon
(X1) {/Helvetica cf} 2 16 0 0.750 -96 -688 label
1.000 0 -208 -736 liec_dig::nc_contact
1 1.000 -144 -864 -144 -736 2 polygon
1.000 0 -80 -736 liec_dig::no_contact
1.000 0 176 -736 liec_dig::relay_coil
(X2) {/Helvetica cf} 2 16 0 0.750 -224 -560 label
(X3) {/Helvetica cf} 2 16 0 0.750 32 -560 label
(X4) {/Helvetica cf} 2 16 0 0.750 -224 -688 label
(X5) {/Helvetica cf} 2 16 0 0.750 -224 -816 label
(X6) {/Helvetica cf} 2 16 0 0.750 -96 -560 label
1.000 0 -208 -608 liec_dig::nc_contact
(X2) {/Helvetica cf} 2 16 0 0.750 32 -688 label
1.000 0.000 0.000 scb
496 1.000 0 -704 0 -768 96 -768 96 -704 4 polygon
sce
1.000 0 48 -736 liec_dig::no_contact
1.000 0.000 0.000 scb
496 1.000 -128 -576 -128 -640 -32 -640 -32 -576 4 polygon
496 1.000 0 -576 0 -640 96 -640 96 -576 4 polygon
sce
1.000 0 -80 -608 liec_dig::nc_contact
1.000 0 48 -608 liec_dig::nc_contact
1.000 0 176 -608 liec_dig::relay_coil
1.000 0.000 0.000 scb
496 1.000 -256 -832 -256 -896 -160 -896 -160 -832 4 polygon
sce
1.000 0 -208 -864 liec_dig::nc_contact
1 1.000 -304 -176 -480 -176 2 polygon
1 1.000 -608 -176 -512 -176 2 polygon
1 1.000 -304 -240 -480 -240 2 polygon
1 1.000 -608 -240 -512 -240 2 polygon
1 1.000 -608 -128 -608 -240 2 polygon
1.000 0 -608 -176 generic::dot
pgsave restore showpage

%%Trailer
XCIRCsave restore
%%EOF
