%!PS-Adobe-3.0 EPSF-3.0
%%Title: power_120.eps
%%Creator: XCircuit v3.7 rev55
%%CreationDate: Sun Jul 27 19:34:42 2014
%%Pages: 1
%%BoundingBox: 68 68 502 315
%%DocumentNeededResources: font Helvetica Helvetica-Oblique Times-Roman 
%%EndComments
%%BeginProlog
%
%  PostScript prolog for output from xcircuit
%  Version: 3.7
%
%  Electrical circuit (and otherwise general) drawing program
%
%  Written by Tim Edwards 8/5/93--11/1/10  (tim.edwards@multigig.com)
%  The Johns Hopkins University (1993-2004)
%  MultiGiG, Inc. (2004-present)
%
%%BeginResource: procset XCIRCproc 3.7 2
%
% supporting definitions --- these are the primary xcircuit types.

/XCIRCsave save def
/topmat matrix currentmatrix def

/fontslant { /slant exch def [1 0 slant 1 0 0] 
    exch findfont exch makefont dup length dict /ndict exch def
    { 1 index /FID ne { ndict 3 1 roll put } { pop pop } ifelse } forall
    ndict definefont pop} def
/ul { dup type /stringtype eq showflag 1 eq and { gsave 
   currentpoint topmat setmatrix 0 0 moveto 2 index stringwidth pop (_)
   false charpath flattenpath pathbbox grestore exch pop 1 index
   sub setlinewidth exch pop currentpoint 3 -1 roll add moveto 0
   rlineto stroke moveto } if } def
/ol { dup type /stringtype eq showflag 1 eq and { gsave gsave
   currentpoint topmat setmatrix 2 index stringwidth pop 3 index
   true charpath flattenpath pathbbox grestore exch pop
   exch pop topmat setmatrix (_) true charpath pathbbox grestore
   exch pop 1 index sub setlinewidth exch pop currentpoint
   exch 4 1 roll exch sub add moveto pop 0 rlineto stroke
   moveto } if } def
/stW { gsave currentpoint newpath moveto true charpath flattenpath
	pathbbox pop exch pop sub grestore } def
/Ts {mark Tabs aload pop counttomark 1 add array astore /Tabs exch def Tabs
	0 currentpoint pop put} def
/Tbn {mark Tabs aload pop counttomark dup 2 add 1 roll cleartomark 1 sub} def
/Tb { 0 1 Tbn {Tabs exch get dup currentpoint pop lt
	{currentpoint exch pop moveto exit} {pop} ifelse } for } def
/Tf { Tbn -1 0 {Tabs exch get dup currentpoint pop gt
	{currentpoint exch pop moveto exit} {pop} ifelse } for } def
/qS { (aa) stW (a a) stW sub 4 div 0 Kn } def
/hS { qS qS } def
/pspc 0 def
/cf0 { scalefont setfont } bind def
/Kn { dup kY add /kY exch def rmoveto } bind def
/ss { /fscale fscale 0.67 mul def currentfont 0.67 cf0 0 fscale0 fscale mul
	0.33 mul neg Kn} def
/Ss { /fscale fscale 0.67 mul def currentfont 0.67 cf0 0 fscale0 fscale mul
	0.67 mul Kn } def
/ns { 0 kY neg Kn /kY 0 def /fscale 1.0 def xfont0 1.0 cf0 } def
/CR { ns 0 /Bline Bline fscale0 neg add def Bline moveto } def
/cf { dup type /realtype ne {1.0} if exch findfont exch kY 0 eq
	{ 40 mul dup /fscale0 exch def cf0 /xfont0 currentfont def}
	{fscale0 mul fscale mul cf0} ifelse } def
/ctmk { counttomark dup 2 add -1 roll pop } bind def
/label { gsave translate 0 0 moveto dup scale neg /rotval exch def
	/just exch def just 384 and 0 gt {/mshow {pop} def} {/mshow {show}
	def} ifelse just 16 and 0 gt {gsave rotval rotate 0 1 dtransform
	gsave pagemat setmatrix idtransform exch grestore 1 0 dtransform
	gsave pagemat setmatrix idtransform exch grestore dup abs 1e-9 lt
	{pop mul 0 gt} {3 1 roll pop pop 0 lt} ifelse grestore {-1 /rotval
	rotval neg def /just just dup 3 and 1 ne {3 xor} if def} {1} ifelse
	exch -1e-9 lt {-1 /rotval rotval neg def /just just dup 12 and
	4 ne {12 xor} if def} {1} ifelse scale } if /showflag 0 def
	/fspc pspc def /Bline 0 def /Tabs 0 array def /fscale 1.0 def
	/kY 0 def gsave dup 1 add copy 0 exch 1 0 dtransform exch atan rotate
	{exch dup type /stringtype eq {true charpath flattenpath} {dup type
	/arraytype eq {exec} {12 string cvs true charpath flattenpath} ifelse}
	ifelse} repeat pop pathbbox grestore 3 -1 roll pop 3 1 roll just
	1 and 0 gt {just 2 and 0 gt {exch pop neg fspc sub} {exch sub 0.5
	mul neg} ifelse} {pop neg fspc add} ifelse exch Bline exch just 4
	and 0 gt {just 8 and 0 gt {exch pop neg fspc sub} {add 0.5 mul neg}
	ifelse} {pop neg fspc add} ifelse rotval rotate Kn currentpoint
	translate /showflag 1 def /Bline 0 def /Tabs 0 array def /fscale
	1.0 def /kY 0 def {dup type /stringtype eq {mshow} {dup type
	/arraytype eq {exec} {12 string cvs mshow} ifelse} ifelse} repeat
	grestore endclip} def
/pinlabel { 4 index 32 and 0 ne hlevel 0 eq or { /pspc 10 def label
	/pspc 0 def } { pop pop pop pop pop {pop} repeat } ifelse } def
/pinglobal { pinlabel } def
/infolabel { pinlabel } def
/graphic { gsave 4 index cvx exec /DataSource get resetfile translate 0 0
	moveto neg rotate dup scale cvx exec image grestore endclip} def

/scb { setrgbcolor } bind def  /sce { defColor aload pop scb } bind def
/cRedef {/defColor currentcolor 3 array astore def} def
/begingate {dup type /dicttype ne {1 dict} if begin	% default params
	dup type /dicttype ne {1 dict} if begin		% instanced params
	/hlevel hlevel 1 add def /defColor currentcolor sce 3 array astore
	def gsave sce translate 0 0 moveto neg rotate dup type /nametype
	eq not { dup abs currentlinewidth exch div setlinewidth } { pop }
	ifelse dup abs scale clipped 1 and 1 eq {/clipped clipped 1 add def}
	if} bind def
/endgate { /hlevel hlevel 1 sub def grestore defColor aload pop cRedef
	scb end end endclip} bind def

/hlevel 0 def
/endclip {clipped 1 and 1 eq {grestore /clipped clipped 1 sub def} if} def
/tmpa [1 0 0 1 0 0] def
/gar {8 8 true tmpa {<c0 c0 00 00 0c 0c 00 00>} imagemask} bind
{8 8 true tmpa {<30 70 60 02 03 07 06 20>} imagemask} bind
{8 8 true tmpa {<0c 1e 1e 0c c0 e1 e1 c0>} imagemask} bind
{8 8 true tmpa {<0f 0f 0f 0f f0 f0 f0 f0>} imagemask} bind
{8 8 true tmpa {<3f f3 e1 e1 f3 3f 1e 1e>} imagemask} bind
{8 8 true tmpa {<df cf 8f 9f fd fc f8 f9>} imagemask} bind
{8 8 true tmpa {<ff 3f 3f ff ff f3 f3 ff>} imagemask} bind 7 array astore def
/ppaint { gsave clip tmpa dup setmatrix pathbbox neg exch neg 4 2 roll
  neg 4 -1 roll 2 copy gt {exch} if 8 div ceiling 8 mul 4 2 roll neg 2 copy
  gt {exch} if 8 div ceiling 8 mul 3 -1 roll -8 5 -1 roll
  { 3 index exch 5 exch put dup -8 3 index { 3 index
  exch 4 exch put 3 index exec } for } for pop pop pop pop grestore } bind def
/setstyles {
  currentlinewidth mul setlinewidth /style exch def style 2048 and 0 gt
  clipped 1 and 0 eq and {clip newpath /clipped clipped 1 add def} {
  style 1 and 0 gt not {closepath} if
  style 1024 and 0 gt {2 setlinecap 0 setlinejoin} if
  style 2 and 0 gt {currentlinewidth 4 mul dup 2 array astore 0 setdash} if
  style 4 and 0 gt {0.5 currentlinewidth 4 mul 2 array astore 0 setdash} if
  gsave style 16 and 0 gt { style 224 and -5 bitshift style 256 and 0 gt {
  7 exch sub 8 div dup 1 exch sub currentrgbcolor 3 array astore
  {3 copy mul add 4 1 roll pop} forall pop pop setrgbcolor eofill}
  {dup 7 lt {gar exch get ppaint} {pop eofill} ifelse} ifelse}
  {style 256 and 0 gt {1 setgray eofill} if} ifelse grestore style 8 and 0 gt 
  style 512 eq or {newpath} {stroke} ifelse grestore endclip} ifelse} def     

/addtoy {exch dup dup 2 mul 3 add 1 roll -1 1 { 4 1 roll dup 4 1 roll add
	4 -1 roll 2 mul 1 add index 2 mul 2 add 2 roll} for pop} def
/addtoy1 {1 exch addtoy pop} def
/addtoy3 {3 exch addtoy pop} def
/addtoy4 {4 exch addtoy pop} def
/addtox {exch dup dup 2 mul 3 add 1 roll -1 1 { 4 1 roll dup 4 1 roll 3 -1 roll
	add exch 4 -1 roll 2 mul 1 add index 2 mul 2 add 2 roll} for pop} def
/addtox1 {1 exch addtox pop} def
/addtox3 {3 exch addtox pop} def
/addtox4 {4 exch addtox pop} def
/polygon { gsave /num exch def moveto num 1 sub {lineto} repeat setstyles } def
/xcarc   { gsave newpath arc setstyles } def
/elb { matrix currentmatrix 7 -1 roll 7 -1 roll translate 5 1 roll 4 -1 roll
	3 index div 1 scale } def
/ele { 0 4 1 roll 0 4 1 roll } bind def
/ellipse { gsave elb newpath ele arc setmatrix setstyles } def
/pellip  { elb ele arc setmatrix } def
/nellip  { elb ele arcn setmatrix } def
/spline  { gsave moveto curveto setstyles } def
/polyc   { {lineto} repeat } bind def
/beginpath { gsave moveto } bind def
/endpath { setstyles } bind def
/bop	 { 1 setlinecap 2 setlinejoin 6 setmiterlimit 0 0 0 scb cRedef
	/clipped 0 def} def
/psinsertion {/PSobj save def /showpage {} def /setpagedevice {pop} def bop
	rotate translate dup scale} def
/end_insert {PSobj restore} def
/setpagemat {/pagemat matrix currentmatrix def} def
/inchscale  {setpagemat 0.375 mul dup scale} def
/cmscale    {setpagemat 0.35433071 mul dup scale} def

%%EndResource
%%EndProlog

% XCircuit output starts here.

%%BeginSetup

/single_line::CT {
begingate
1 1.000 -36 32 -36 0 -16 0 -16 32 spline
1 1.000 -36 0 -36 -32 -16 -32 -16 0 spline
1 1.000 -16 -64 -16 64 2 polygon
1 1.000 -16 32 -8 32 2 polygon
1 1.000 -16 -32 -8 -32 2 polygon
1 1.000 -16 0 16 0 2 polygon
endgate
} def

/generic::dot {
% trivial
begingate
248 1.000 0 0 6 0.000 360.000 xcarc
1.000 0.000 0.000 scb
(x) {/Times-Roman cf} 2 29 0 1.000 0 0 pinlabel
endgate
} def

/generic::jumper {
% trivial
begingate
1 1.000 0 0 10 -90.000 90.000 xcarc
1 1.000 0 10 0 16 2 polygon
1 1.000 0 -10 0 -16 2 polygon
1.000 0.000 0.000 scb
(a) {/Times-Roman cf} 2 1 0 1.000 0 16 pinlabel
(a) {/Times-Roman cf} 2 13 0 1.000 0 -16 pinlabel
endgate
} def

/liec_dig::solenoid_coil {
begingate
1 1.000 -32 0 -16 32 16 -32 32 0 4 polygon
1 1.000 32 0 64 0 2 polygon
1 1.000 -64 0 -32 0 2 polygon
endgate
} def

/single_line::fuse {
begingate
0 1.000 -16 48 -16 -48 16 -48 16 48 4 polygon
1 1.000 -16 32 16 32 2 polygon
1 1.000 -16 -32 16 -32 2 polygon
1 1.000 0 -48 0 -80 2 polygon
1 1.000 0 48 0 80 2 polygon
endgate
} def

/liec_dig::no_contact {
begingate
1 1.000 -64 0 -16 0 2 polygon
1 1.000 -16 32 -16 -32 2 polygon
1 1.000 16 0 64 0 2 polygon
1 1.000 16 32 16 -32 2 polygon
endgate
} def

/generic::arrowhead {
% nonetwork
begingate
8 -28 beginpath
3 -18 3 -15 0 0 curveto
-3 -15 -3 -18 -8 -28 curveto
-2 -26 2 -26 8 -28 curveto
249 
1.000 endpath
endgate
} def

/analog::gnd {
% trivial
begingate
1 1.000 0 0 0 -32 2 polygon
1 1.000 -32 -32 32 -32 2 polygon
1 1.000 -18 -46 18 -46 2 polygon
1 1.000 -4 -60 4 -60 2 polygon
0.933 0.604 0.000 scb
(GND) {/Times-Roman cf} 2 1 0 1.000 0 0 pinglobal
endgate
} def


%%EndSetup

%%Page: power_120 1
%%PageOrientation: Portrait
/pgsave save def bop
0.5000 inchscale
2.6000 setlinewidth 1024 1072 translate

(52) {/Helvetica cf} 2 16 0 1.000 -400 208 label
0 1.000 -496 272 -496 160 -240 160 -240 272 4 polygon
1.000 0 -448 -448 single_line::CT
1.000 0 -352 -448 single_line::CT
1.000 0 -256 -448 single_line::CT
1 1.000 -272 272 -272 384 2 polygon
1 1.000 -592 384 192 384 2 polygon
-1.000 0 -272 384 generic::dot
1 1.000 -592 448 192 448 2 polygon
1 1.000 -592 512 192 512 2 polygon
-1.000 0 -368 384 generic::jumper
1 1.000 -368 368 -368 272 2 polygon
1 1.000 -368 400 -368 448 2 polygon
-1.000 0 -368 448 generic::dot
-1.000 0 -464 384 generic::jumper
-1.000 0 -464 448 generic::jumper
1 1.000 -464 432 -464 400 2 polygon
1 1.000 -464 464 -464 512 2 polygon
-1.000 0 -464 512 generic::dot
1 1.000 -464 368 -464 272 2 polygon
1 1.000 -464 -416 -432 -416 -432 -352 3 polygon
1 1.000 -464 -480 -432 -480 -432 -544 3 polygon
1 1.000 -368 -480 -336 -480 -336 -544 3 polygon
1 1.000 -368 -416 -336 -416 -336 -352 3 polygon
1 1.000 -272 -480 -240 -480 -240 -544 3 polygon
1 1.000 -272 -416 -240 -416 -240 -352 3 polygon
1 1.000 -464 -512 -464 -640 2 polygon
1 1.000 -368 -512 -368 -640 2 polygon
1 1.000 -272 -512 -272 -640 2 polygon
1.000 270 -368 -544 generic::jumper
1.000 270 -272 -544 generic::jumper
1 1.000 -432 -544 -384 -544 2 polygon
1 1.000 -352 -544 -336 -544 2 polygon
1.000 0 -336 -544 generic::dot
1 1.000 -336 -544 -288 -544 2 polygon
1 1.000 -256 -544 -240 -544 2 polygon
1.000 0 -240 -544 generic::dot
-1.000 270 -80 -448 liec_dig::solenoid_coil
1 1.000 -240 -352 -80 -352 -80 -384 3 polygon
1 1.000 -240 -544 -80 -544 -80 -512 3 polygon
1 1.000 -32 -456 48 -456 2 polygon
-1.000 270 128 -448 liec_dig::solenoid_coil
1 1.000 176 -456 256 -456 2 polygon
-1.000 270 336 -448 liec_dig::solenoid_coil
(51-3) {/Helvetica cf} 2 16 0 1.000 384 -448 label
1 1.000 384 -456 464 -456 2 polygon
1 1.000 -336 -352 -336 -304 -288 -304 3 polygon
1.000 270 -272 -304 generic::jumper
1 1.000 -256 -304 128 -304 128 -384 3 polygon
1.000 270 -272 -256 generic::jumper
1.000 270 -368 -256 generic::jumper
1 1.000 -352 -256 -288 -256 2 polygon
1 1.000 -256 -256 336 -256 336 -384 3 polygon
1 1.000 -384 -256 -432 -256 -432 -352 3 polygon
(1) {/Helvetica cf} 2 16 0 1.000 -640 496 label
(2) {/Helvetica cf} 2 16 0 1.000 -640 432 label
(3) {/Helvetica cf} 2 16 0 1.000 -640 368 label
(1) {/Helvetica cf} 2 19 0 1.000 -464 -688 label
(2) {/Helvetica cf} 2 19 0 1.000 -352 -688 label
(3) {/Helvetica cf} 2 19 0 1.000 -256 -688 label
(Bus) {/Helvetica cf} 2 16 0 1.000 224 432 label
1.000 0 -80 -544 generic::dot
1 1.000 -80 -544 128 -544 128 -512 3 polygon
1 1.000 128 -544 336 -544 336 -512 3 polygon
1.000 0 128 -544 generic::dot
496 1.000 -472 -376 -472 -392 -456 -392 -456 -376 4 polygon
496 1.000 -440 -376 -440 -392 -424 -392 -424 -376 4 polygon
496 1.000 -376 -376 -376 -392 -360 -392 -360 -376 4 polygon
496 1.000 -344 -376 -344 -392 -328 -392 -328 -376 4 polygon
496 1.000 -280 -376 -280 -392 -264 -392 -264 -376 4 polygon
496 1.000 -248 -376 -248 -392 -232 -392 -232 -376 4 polygon
1.000 0 864 400 single_line::fuse
1.000 0 864 512 generic::dot
1 1.000 864 512 864 480 2 polygon
(\(+\)) {/Helvetica cf} 2 16 0 1.000 640 496 label
-1.000 180 864 -464 single_line::fuse
-1.000 180 864 -576 generic::dot
1 1.000 864 -576 864 -544 2 polygon
(\(-\)) {/Helvetica cf} 2 16 0 1.000 640 -592 label
-1.000 270 864 192 liec_dig::solenoid_coil
1.000 90 864 32 liec_dig::no_contact
-1.000 270 864 -320 liec_dig::solenoid_coil
1.000 90 864 -192 liec_dig::no_contact
1 1.000 864 128 864 96 2 polygon
1 1.000 864 -32 864 -64 2 polygon
1.000 0 864 -48 generic::dot
1.000 0 864 112 generic::dot
1.000 90 1088 32 liec_dig::no_contact
(51-1) {/Helvetica cf} 2 16 0 1.000 912 16 label
(51-1) {/Helvetica cf} 2 16 0 1.000 1136 40 label
1 1.000 1136 32 1216 32 2 polygon
(SI) {/Helvetica cf} 2 16 0 1.000 1160 -8 label
1 1.000 864 112 1088 112 1088 96 3 polygon
1 1.000 864 -48 1088 -48 1088 -32 3 polygon
(51-1) {/Helvetica cf} 2 16 0 1.000 912 208 label
1 1.000 912 200 992 200 2 polygon
(SI) {/Helvetica cf} 2 16 0 1.000 936 160 label
(52) {/Helvetica cf} 2 16 0 1.000 912 -184 label
1 1.000 912 -192 960 -192 2 polygon
(a) {/Helvetica cf} 2 16 0 1.000 928 -224 label
(52) {/Helvetica cf} 2 16 0 1.000 912 -304 label
1 1.000 912 -312 960 -312 2 polygon
(TC) {/Helvetica cf} 2 16 0 1.000 912 -352 label
1 1.000 -464 -384 -464 160 2 polygon
1 1.000 -368 -384 -368 160 2 polygon
1 1.000 -272 -384 -272 160 2 polygon
1 1.000 864 -64 864 -128 2 polygon
1 1.000 864 320 864 256 2 polygon
1.000 0 864 288 generic::dot
1.000 0 864 -112 generic::dot
1 1.000 864 288 1376 288 2 polygon
1 1.000 864 -112 1376 -112 2 polygon
1.000 0 1376 48 generic::arrowhead
(51-2) {/Helvetica cf} 2 16 0 1.000 1328 96 label
1 1.000 1328 88 1408 88 2 polygon
-1.000 180 1376 160 generic::arrowhead
1 1.000 1376 -112 1376 32 2 polygon
1 1.000 1376 288 1376 176 2 polygon
(51-3) {/Helvetica cf} 2 16 0 1.000 1536 96 label
1 1.000 1536 88 1616 88 2 polygon
-1.000 180 1584 160 generic::arrowhead
1 1.000 1584 288 1584 176 2 polygon
1.000 0 1584 48 generic::arrowhead
1 1.000 1584 -112 1584 32 2 polygon
1.000 0 1376 288 generic::dot
1 1.000 1376 288 1584 288 2 polygon
1.000 0 1376 -112 generic::dot
1 1.000 1376 -112 1584 -112 2 polygon
0.898 0.898 0.898 scb
496 1.000 64 256 64 -112 704 -112 704 256 4 polygon
sce
(Legend:) {/Helvetica-Oblique cf} 2 16 0 1.000 80 208 label
(51 = Time-overcurrent relay) {/Helvetica-Oblique cf} 2 16 0 1.000 80 144 label
(52 = Power circuit breaker) {/Helvetica-Oblique cf} 2 16 0 1.000 80 96 label
(SI = Seal-in unit) {/Helvetica-Oblique cf} 2 16 0 1.000 80 48 label
(TC = Trip coil) {/Helvetica-Oblique cf} 2 16 0 1.000 80 0 label
(a = Form-A contact, closed when) {/Helvetica-Oblique cf} 2 16 0 1.000 80 -48 
label
(breaker is closed) {/Helvetica-Oblique cf} 2 16 0 1.000 144 -88 label
0 1.000 64 256 64 -112 704 -112 704 256 4 polygon
(Power circuit \(13.8 kVAC\)) {/Helvetica-Oblique cf} 2 16 0 1.000 -448 560 
label
(Trip circuit \(125 VDC\)) {/Helvetica-Oblique cf} 2 16 0 1.000 976 560 label
1 1.000 704 512 1632 512 2 polygon
1 1.000 704 -576 1632 -576 2 polygon
(51-1) {/Helvetica cf} 2 16 0 1.000 -32 -448 label
(51-2) {/Helvetica cf} 2 16 0 1.000 176 -448 label
1.000 0 -176 -576 analog::gnd
1 1.000 -176 -576 -176 -544 2 polygon
1.000 0 -176 -544 generic::dot
pgsave restore showpage

%%Trailer
XCIRCsave restore
%%EOF
