%!PS-Adobe-3.0 EPSF-3.0
%%Title: pressure18.eps
%%Creator: Xcircuit v3.0
%%CreationDate: Wed Jul 26 08:14:57 2006
%%Pages: 1
%%BoundingBox: 68 68 422 193
%%DocumentNeededResources: font Helvetica font Times-Roman 
%%EndComments
%%BeginProlog
%
%  PostScript prolog for output from xcircuit
%  Version: 2.4
%
%  Electrical circuit (and otherwise general) drawing program
%
%  Written by Tim Edwards 8/5/93--5/16/01  (tim@bach.ece.jhu.edu)
%  The Johns Hopkins University
%
%%BeginResource: procset XCIRCproc 2.4 1
% supporting definitions --- these are the primary xcircuit types.

/XCIRCsave save def
/topmat matrix currentmatrix def

/fontslant { /slant exch def [1 0 slant 1 0 0] 
    exch findfont exch makefont dup length dict /ndict exch def
    { 1 index /FID ne { ndict 3 1 roll put } { pop pop } ifelse } forall
    ndict definefont pop} def
/ul { dup type /stringtype eq showflag 1 eq and { gsave 
   currentpoint topmat setmatrix 0 0 moveto 2 index stringwidth pop (_)
   false charpath flattenpath pathbbox grestore exch pop 1 index
   sub setlinewidth exch pop currentpoint 3 -1 roll add moveto 0
   rlineto stroke moveto } if } def
/ol { dup type /stringtype eq showflag 1 eq and { gsave gsave
   currentpoint topmat setmatrix 2 index stringwidth pop 3 index
   true charpath flattenpath pathbbox grestore exch pop
   exch pop topmat setmatrix (_) true charpath pathbbox grestore
   exch pop 1 index sub setlinewidth exch pop currentpoint
   exch 4 1 roll exch sub add moveto pop 0 rlineto stroke
   moveto } if } def
/stW { gsave currentpoint newpath moveto true charpath flattenpath
	pathbbox pop exch pop sub grestore } def
/Ts {mark Tabs aload pop counttomark 1 add array astore /Tabs exch def Tabs
	0 currentpoint pop put} def
/Tbn {mark Tabs aload pop counttomark dup 2 add 1 roll cleartomark 1 sub} def
/Tb { 0 1 Tbn {Tabs exch get dup currentpoint pop lt
	{currentpoint exch pop moveto exit} {pop} ifelse } for } def
/Tf { Tbn -1 0 {Tabs exch get dup currentpoint pop gt
	{currentpoint exch pop moveto exit} {pop} ifelse } for } def
/qS { (aa) stW (a a) stW sub 4 div 0 Kn } def
/hS { qS qS } def
/pspc 0 def
/cf0 { scalefont setfont } bind def
/Kn { dup kY add /kY exch def rmoveto } bind def
/ss { /fscale fscale 0.67 mul def currentfont 0.67 cf0 0 fscale0 fscale mul
	0.33 mul neg Kn} def
/Ss { /fscale fscale 0.67 mul def currentfont 0.67 cf0 0 fscale0 fscale mul
	0.67 mul Kn } def
/ns { 0 kY neg Kn /kY 0 def /fscale 1.0 def xfont0 1.0 cf0 } def
/CR { ns 0 /Bline Bline fscale0 neg add def Bline moveto } def
/cf { dup type /realtype ne {1.0} if exch findfont exch kY 0 eq
	{ 40 mul dup /fscale0 exch def cf0 /xfont0 currentfont def}
	{fscale0 mul fscale mul cf0} ifelse } def
/ctmk { counttomark dup 2 add -1 roll pop } bind def
/label { gsave translate 0 0 moveto dup scale neg /rotval exch def
	/just exch def just 16 and 0 gt {gsave rotval rotate 0 1 dtransform
	gsave pagemat setmatrix idtransform exch grestore 1 0 dtransform
	gsave pagemat setmatrix idtransform exch grestore dup abs 1e-9 lt
	{pop mul 0 gt} {3 1 roll pop pop 0 lt} ifelse grestore {-1 /rotval
	rotval neg def /just just dup 3 and 1 ne {3 xor} if def} {1} ifelse
	exch -1e-9 lt {-1 /rotval rotval neg def /just just dup 12 and
	4 ne {12 xor} if def} {1} ifelse scale } if /showflag 0 def
	/fspc pspc def /Bline 0 def /Tabs 0 array def /fscale 1.0 def
	/kY 0 def gsave dup 1 add copy 0 exch 1 0 dtransform exch atan rotate
	{exch dup type /stringtype eq {true charpath flattenpath} {exec}
	ifelse } repeat pop pathbbox grestore 3 -1 roll pop 3 1 roll just
	1 and 0 gt {just 2 and 0 gt {exch pop neg fspc sub} {exch sub 0.5
	mul neg} ifelse} {pop neg fspc add} ifelse exch Bline exch just 4
	and 0 gt {just 8 and 0 gt {exch pop neg fspc sub} {add 0.5 mul neg}
	ifelse} {pop neg fspc add} ifelse rotval rotate Kn currentpoint
	translate /showflag 1 def /Bline 0 def /Tabs 0 array def /fscale
	1.0 def /kY 0 def {dup type /stringtype eq {show}{exec} ifelse}
	repeat grestore } def
/pinlabel { 4 index 32 and 0 ne hlevel 0 eq or { /pspc 10 def label
	/pspc 0 def } { pop pop pop pop pop {pop} repeat } ifelse } def
/pinglobal { pinlabel } def
/infolabel { pinlabel } def

/scb { setrgbcolor } bind def  /sce { defColor aload pop scb } bind def
/cRedef {/defColor currentcolor 3 array astore def} def
/begingate { /hlevel hlevel 1 add def /defColor currentcolor sce 3 array
	astore def gsave sce translate 0 0 moveto neg rotate dup abs scale
	} bind def
/makeparm  {3 string cvs dup length 1 add string /tstr exch def tstr exch
	1 exch putinterval tstr 0 (v) putinterval tstr cvn} bind def
/beginparm { -1 1 {makeparm exch def} for
	dup type /arraytype eq { aload length -1 1 {makeparm exch def}
	for } if begingate } bind def
/endgate { /hlevel hlevel 1 sub def grestore defColor aload pop cRedef
	scb} bind def

/hlevel 0 def
/tmpa [1 0 0 1 0 0] def
/gar {8 8 true tmpa {<c0 c0 00 00 0c 0c 00 00>} imagemask} bind
{8 8 true tmpa {<30 70 60 02 03 07 06 20>} imagemask} bind
{8 8 true tmpa {<0c 1e 1e 0c c0 e1 e1 c0>} imagemask} bind
{8 8 true tmpa {<0f 0f 0f 0f f0 f0 f0 f0>} imagemask} bind
{8 8 true tmpa {<3f f3 e1 e1 f3 3f 1e 1e>} imagemask} bind
{8 8 true tmpa {<df cf 8f 9f fd fc f8 f9>} imagemask} bind
{8 8 true tmpa {<ff 3f 3f ff ff f3 f3 ff>} imagemask} bind 7 array astore def
/ppaint { gsave clip tmpa dup setmatrix pathbbox neg exch neg 4 2 roll
  neg 4 -1 roll 2 copy gt {exch} if 8 div ceiling 8 mul 4 2 roll neg 2 copy
  gt {exch} if 8 div ceiling 8 mul 3 -1 roll -8 5 -1 roll
  { 3 index exch 5 exch put dup -8 3 index { 3 index
  exch 4 exch put 3 index exec } for } for pop pop pop pop grestore } bind def
/setstyles {
  currentlinewidth mul setlinewidth /style exch def
  style 1 and 0 gt not {closepath} if
  style 2 and 0 gt {currentlinewidth 4 mul dup 2 array astore 0 setdash} if 
  style 4 and 0 gt {0.5 currentlinewidth 4 mul 2 array astore 0 setdash} if 
  style dup 256 ge exch 480 lt and { gsave 1 setgray eofill grestore } if
  style 16 and 0 gt { gsave style 224 and -5 bitshift dup 7 lt
	{gar exch get ppaint} { pop eofill } ifelse grestore } if
  style 8 and 0 gt style 512 eq or { newpath } { stroke } ifelse grestore } def

/polygon { gsave /num exch def moveto num 1 sub {lineto} repeat setstyles } def
/xcarc   { gsave newpath arc setstyles } def
/elb { matrix currentmatrix 7 -1 roll 7 -1 roll translate 5 1 roll 4 -1 roll
	3 index div 1 scale } def
/ele { 0 4 1 roll 0 4 1 roll } bind def
/ellipse { gsave elb newpath ele arc setmatrix setstyles } def
/pellip  { elb ele arc setmatrix } def
/nellip  { elb ele arcn setmatrix } def
/spline  { gsave moveto curveto setstyles } def
/polyc   { {lineto} repeat } bind def
/beginpath { gsave moveto } bind def
/endpath { setstyles } bind def
/bop	 { 1 setlinecap 0 setlinejoin 6 setmiterlimit 0 0 0 scb cRedef } def
/psinsertion {/PSobj save def /showpage {} def bop rotate translate dup scale} def
/end_insert {PSobj restore} def
/setpagemat {/pagemat matrix currentmatrix def} def
/inchscale  {setpagemat 0.375 mul dup scale} def
/cmscale    {setpagemat 0.35433071 mul dup scale} def

%%EndResource
%%EndProlog

% XCircuit output starts here.

/arrowhead {
% trivial
begingate
8 -28 beginpath
3 -18 3 -15 0 0 curveto
-3 -15 -3 -18 -8 -28 curveto
-2 -26 2 -26 8 -28 curveto
249 1.00 endpath
endgate
} def

%%Page: 5400x001.eps 1
%%PageOrientation: Portrait
/pgsave save def bop
% 832 384 offsets
0.7500 inchscale
2.6000 setlinewidth

1 1.00 320 496 320 464 2 polygon
1.00 0 320 512 arrowhead
1 1.00 320 272 320 304 2 polygon
-1.00 180 320 256 arrowhead
241 1.00 400 256 256 256 2 polygon
1 1.00 320 464 320 448 2 polygon
1 1.00 320 336 320 304 2 polygon
0.361 0.675 0.933 scb
240 1.00 384 512 384 304 448 304 448 512 4 polygon
240 1.00 576 512 576 304 704 304 704 512 4 polygon
240 1.00 1056 512 1056 256 1088 256 1088 512 4 polygon
240 1.00 992 352 992 272 1152 272 1152 352 4 polygon
240 1.00 1024 448 1024 256 1120 256 1120 448 4 polygon
240 1.00 464 288 464 256 1136 256 1136 288 4 polygon
sce
1 2.00 384 672 384 320 2 polygon
1 2.00 448 320 448 672 2 polygon
1 2.00 576 672 576 304 2 polygon
1 2.00 704 672 704 304 2 polygon
1 2.00 1056 448 1024 448 1024 352 3 polygon
1 2.00 1088 448 1120 448 1120 352 3 polygon
1 2.00 1024 352 992 352 992 288 736 288 4 polygon
1 2.00 1120 352 1152 352 1152 272 3 polygon
1 2.00 1056 672 1056 448 2 polygon
1 2.00 1088 672 1088 448 2 polygon
0.361 0.675 0.933 scb
241 1.00 448 304 448 296 456 288 464 288 464 258 448 258 424 262 406 268 394 
280 388 294 384 304 448 304 12 polygon
sce
1 2.00 448 288 448 288 480 288 448 320 spline
1 2.00 400 256 384 272 384 320 480 256 spline
1 2.00 480 288 544 288 2 polygon
1 2.00 480 256 736 256 2 polygon
1 2.00 1136 256 736 256 2 polygon
0.361 0.675 0.933 scb
241 1.00 576 304 704 304 704 298 708 294 712 288 564 288 574 294 576 304 
8 polygon
sce
1 2.00 704 288 720 288 736 288 704 304 spline
1 2.00 576 288 560 288 544 288 576 304 spline
0.361 0.675 0.933 scb
241 1.00 1136 272 1136 256 1146 260 1150 266 1152 272 1136 272 6 polygon
sce
1 2.00 1152 264 1144 256 1136 256 1152 272 spline
(3) {/Times-Roman cf} 2 16 0 1.00 304 400 label
(feet) {/Helvetica cf} 2 16 0 1.00 280 360 label
0.361 0.675 0.933 scb
241 1.00 1152 320 1392 512 1408 512 1136 288 1136 304 1152 320 6 polygon
sce
1 2.00 1152 320 1472 576 2 polygon
1 2.00 1488 576 1152 300 2 polygon
0.600 0.600 0.600 scb
3 1.00 272 512 1392 512 2 polygon
pgsave restore showpage

%%Trailer
XCIRCsave restore
%%EOF
