%!PS-Adobe-3.0 EPSF-3.0
%%Title: process_30.eps
%%Creator: XCircuit v3.6 rev164
%%CreationDate: Sun Mar 14 07:42:28 2010
%%Pages: 1
%%BoundingBox: 68 68 489 248
%%DocumentNeededResources: font Helvetica Helvetica-Bold Helvetica-Oblique 
%%+ font Times-Roman Times-Italic 
%%EndComments
%%BeginProlog
%
%  PostScript prolog for output from xcircuit
%  Version: 3.3
%
%  Electrical circuit (and otherwise general) drawing program
%
%  Written by Tim Edwards 8/5/93--7/13/05  (tim.edwards@multigig.com)
%  The Johns Hopkins University (1993-2004)
%  MultiGiG, Inc. (2004-present)
%
%%BeginResource: procset XCIRCproc 3.3 0
%
% supporting definitions --- these are the primary xcircuit types.

/XCIRCsave save def
/topmat matrix currentmatrix def

/fontslant { /slant exch def [1 0 slant 1 0 0] 
    exch findfont exch makefont dup length dict /ndict exch def
    { 1 index /FID ne { ndict 3 1 roll put } { pop pop } ifelse } forall
    ndict definefont pop} def
/ul { dup type /stringtype eq showflag 1 eq and { gsave 
   currentpoint topmat setmatrix 0 0 moveto 2 index stringwidth pop (_)
   false charpath flattenpath pathbbox grestore exch pop 1 index
   sub setlinewidth exch pop currentpoint 3 -1 roll add moveto 0
   rlineto stroke moveto } if } def
/ol { dup type /stringtype eq showflag 1 eq and { gsave gsave
   currentpoint topmat setmatrix 2 index stringwidth pop 3 index
   true charpath flattenpath pathbbox grestore exch pop
   exch pop topmat setmatrix (_) true charpath pathbbox grestore
   exch pop 1 index sub setlinewidth exch pop currentpoint
   exch 4 1 roll exch sub add moveto pop 0 rlineto stroke
   moveto } if } def
/stW { gsave currentpoint newpath moveto true charpath flattenpath
	pathbbox pop exch pop sub grestore } def
/Ts {mark Tabs aload pop counttomark 1 add array astore /Tabs exch def Tabs
	0 currentpoint pop put} def
/Tbn {mark Tabs aload pop counttomark dup 2 add 1 roll cleartomark 1 sub} def
/Tb { 0 1 Tbn {Tabs exch get dup currentpoint pop lt
	{currentpoint exch pop moveto exit} {pop} ifelse } for } def
/Tf { Tbn -1 0 {Tabs exch get dup currentpoint pop gt
	{currentpoint exch pop moveto exit} {pop} ifelse } for } def
/qS { (aa) stW (a a) stW sub 4 div 0 Kn } def
/hS { qS qS } def
/pspc 0 def
/cf0 { scalefont setfont } bind def
/Kn { dup kY add /kY exch def rmoveto } bind def
/ss { /fscale fscale 0.67 mul def currentfont 0.67 cf0 0 fscale0 fscale mul
	0.33 mul neg Kn} def
/Ss { /fscale fscale 0.67 mul def currentfont 0.67 cf0 0 fscale0 fscale mul
	0.67 mul Kn } def
/ns { 0 kY neg Kn /kY 0 def /fscale 1.0 def xfont0 1.0 cf0 } def
/CR { ns 0 /Bline Bline fscale0 neg add def Bline moveto } def
/cf { dup type /realtype ne {1.0} if exch findfont exch kY 0 eq
	{ 40 mul dup /fscale0 exch def cf0 /xfont0 currentfont def}
	{fscale0 mul fscale mul cf0} ifelse } def
/ctmk { counttomark dup 2 add -1 roll pop } bind def
/label { gsave translate 0 0 moveto dup scale neg /rotval exch def
	/just exch def just 384 and 0 gt {/mshow {pop} def} {/mshow {show}
	def} ifelse just 16 and 0 gt {gsave rotval rotate 0 1 dtransform
	gsave pagemat setmatrix idtransform exch grestore 1 0 dtransform
	gsave pagemat setmatrix idtransform exch grestore dup abs 1e-9 lt
	{pop mul 0 gt} {3 1 roll pop pop 0 lt} ifelse grestore {-1 /rotval
	rotval neg def /just just dup 3 and 1 ne {3 xor} if def} {1} ifelse
	exch -1e-9 lt {-1 /rotval rotval neg def /just just dup 12 and
	4 ne {12 xor} if def} {1} ifelse scale } if /showflag 0 def
	/fspc pspc def /Bline 0 def /Tabs 0 array def /fscale 1.0 def
	/kY 0 def gsave dup 1 add copy 0 exch 1 0 dtransform exch atan rotate
	{exch dup type /stringtype eq {true charpath flattenpath} {dup type
	/arraytype eq {exec} {12 string cvs true charpath flattenpath} ifelse}
	ifelse} repeat pop pathbbox grestore 3 -1 roll pop 3 1 roll just
	1 and 0 gt {just 2 and 0 gt {exch pop neg fspc sub} {exch sub 0.5
	mul neg} ifelse} {pop neg fspc add} ifelse exch Bline exch just 4
	and 0 gt {just 8 and 0 gt {exch pop neg fspc sub} {add 0.5 mul neg}
	ifelse} {pop neg fspc add} ifelse rotval rotate Kn currentpoint
	translate /showflag 1 def /Bline 0 def /Tabs 0 array def /fscale
	1.0 def /kY 0 def {dup type /stringtype eq {mshow} {dup type
	/arraytype eq {exec} {12 string cvs mshow} ifelse} ifelse} repeat
	grestore } def
/pinlabel { 4 index 32 and 0 ne hlevel 0 eq or { /pspc 10 def label
	/pspc 0 def } { pop pop pop pop pop {pop} repeat } ifelse } def
/pinglobal { pinlabel } def
/infolabel { pinlabel } def
/graphic { gsave 4 index cvx exec /DataSource get resetfile translate
	0 0 moveto neg rotate dup scale cvx exec image grestore } def

/scb { setrgbcolor } bind def  /sce { defColor aload pop scb } bind def
/cRedef {/defColor currentcolor 3 array astore def} def
/begingate {dup type /dicttype ne {1 dict} if begin	% default params
	dup type /dicttype ne {1 dict} if begin		% instanced params
	/hlevel hlevel 1 add def /defColor currentcolor sce 3 array
	astore def gsave sce translate 0 0 moveto neg rotate dup abs scale
	} bind def
/endgate { /hlevel hlevel 1 sub def grestore defColor aload pop cRedef
	scb end end} bind def

/hlevel 0 def
/tmpa [1 0 0 1 0 0] def
/gar {8 8 true tmpa {<c0 c0 00 00 0c 0c 00 00>} imagemask} bind
{8 8 true tmpa {<30 70 60 02 03 07 06 20>} imagemask} bind
{8 8 true tmpa {<0c 1e 1e 0c c0 e1 e1 c0>} imagemask} bind
{8 8 true tmpa {<0f 0f 0f 0f f0 f0 f0 f0>} imagemask} bind
{8 8 true tmpa {<3f f3 e1 e1 f3 3f 1e 1e>} imagemask} bind
{8 8 true tmpa {<df cf 8f 9f fd fc f8 f9>} imagemask} bind
{8 8 true tmpa {<ff 3f 3f ff ff f3 f3 ff>} imagemask} bind 7 array astore def
/ppaint { gsave clip tmpa dup setmatrix pathbbox neg exch neg 4 2 roll
  neg 4 -1 roll 2 copy gt {exch} if 8 div ceiling 8 mul 4 2 roll neg 2 copy
  gt {exch} if 8 div ceiling 8 mul 3 -1 roll -8 5 -1 roll
  { 3 index exch 5 exch put dup -8 3 index { 3 index
  exch 4 exch put 3 index exec } for } for pop pop pop pop grestore } bind def
/setstyles {
  currentlinewidth mul setlinewidth /style exch def
  style 1 and 0 gt not {closepath} if
  style 1024 and 0 gt {2 setlinecap} if
  style 2 and 0 gt {currentlinewidth 4 mul dup 2 array astore 0 setdash} if
  style 4 and 0 gt {0.5 currentlinewidth 4 mul 2 array astore 0 setdash} if
  gsave style 16 and 0 gt { style 224 and -5 bitshift style 256 and 0 gt {
  7 exch sub 8 div dup 1 exch sub currentrgbcolor 3 array astore
  {3 copy mul add 4 1 roll pop} forall pop pop setrgbcolor eofill}
  {dup 7 lt {gar exch get ppaint} {pop eofill} ifelse} ifelse}
  {style 256 and 0 gt {1 setgray eofill} if} ifelse grestore style 8 and 0 gt 
  style 512 eq or {newpath} {stroke} ifelse grestore} def     

/polygon { gsave /num exch def moveto num 1 sub {lineto} repeat setstyles } def
/xcarc   { gsave newpath arc setstyles } def
/elb { matrix currentmatrix 7 -1 roll 7 -1 roll translate 5 1 roll 4 -1 roll
	3 index div 1 scale } def
/ele { 0 4 1 roll 0 4 1 roll } bind def
/ellipse { gsave elb newpath ele arc setmatrix setstyles } def
/pellip  { elb ele arc setmatrix } def
/nellip  { elb ele arcn setmatrix } def
/spline  { gsave moveto curveto setstyles } def
/polyc   { {lineto} repeat } bind def
/beginpath { gsave moveto } bind def
/endpath { setstyles } bind def
/bop	 { 1 setlinecap 0 setlinejoin 6 setmiterlimit 0 0 0 scb cRedef } def
/psinsertion {/PSobj save def /showpage {} def /setpagedevice {pop} def bop
	rotate translate dup scale} def
/end_insert {PSobj restore} def
/setpagemat {/pagemat matrix currentmatrix def} def
/inchscale  {setpagemat 0.375 mul dup scale} def
/cmscale    {setpagemat 0.35433071 mul dup scale} def

%%EndResource
%%EndProlog

/Symbol-Oblique /Symbol .167 fontslant

% XCircuit output starts here.

%%BeginSetup

/generic::arrowhead {
% nonetwork
begingate
8 -28 beginpath
3 -18 3 -15 0 0 curveto
-3 -15 -3 -18 -8 -28 curveto
-2 -26 2 -26 8 -28 curveto
249 
1.000 endpath
endgate
} def

/generic::arrow {
% nonetwork
begingate
1 0.800 0 -40 0 20 2 polygon
1.000 0 0 40 generic::arrowhead
endgate
} def

/generic::dot {
% trivial
begingate
248 1.000 0 0 6 0.000 360.000 xcarc
1.000 0.000 0.000 scb
(x) {/Times-Roman cf} 2 29 0 1.000 0 0 pinlabel
endgate
} def


%%EndSetup

%%Page: process_08 1
%%PageOrientation: Portrait
/pgsave save def bop
0.7000 inchscale
2.6000 setlinewidth 210 712 translate

1.000 90 472 -224 generic::arrow
(\(t\)) {/Times-Italic cf} (Time ) {/Helvetica cf} 4 16 0 1.000 264 -240 label
1.000 0 160 -56 generic::dot
1.000 0.000 0.000 scb
(t) {/Symbol-Oblique cf} 2 16 0 1.000 104 -224 label
0.500 90 160 -232 generic::arrowhead
-0.500 270 80 -232 generic::arrowhead
0.500 360 560 144 generic::arrowhead
-0.500 180 560 -56 generic::arrowhead
(63.2%) {/Times-Italic cf} 2 16 0 1.000 512 32 label
0.604 0.604 0.604 scb
1 1.000 96 144 672 144 2 polygon
1 1.000 560 -176 672 -176 2 polygon
1.000 0.000 0.000 scb
0.500 360 656 144 generic::arrowhead
(100%) {/Times-Italic cf} 2 16 0 1.000 616 -24 label
(\) is the amount of time required) {/Helvetica-Oblique cf} (t) 
{/Symbol-Oblique cf} (One "time constant" \() {/Helvetica-Oblique cf} 6 16 0 
1.000 336 -336 label
(for the variable to change 63.2% of the way from its) {/Helvetica-Oblique cf} 
2 16 0 1.000 336 -384 label
(starting point to its ultimate \(terminal\) value) {/Helvetica-Oblique cf} 2 
16 0 1.000 336 -432 label
sce
(Falling variable) {/Helvetica-Bold cf} 2 16 0 1.000 208 192 label
1.000 90 1400 -224 generic::arrow
(\(t\)) {/Times-Italic cf} (Time ) {/Helvetica cf} 4 16 0 1.000 1192 -240 label
1.000 0.000 0.000 scb
0.500 360 1488 24 generic::arrowhead
-0.500 180 1488 -176 generic::arrowhead
(63.2%) {/Times-Italic cf} 2 16 0 1.000 1440 -80 label
0.604 0.604 0.604 scb
1 1.000 1488 144 1600 144 2 polygon
1.000 0.000 0.000 scb
0.500 360 1584 144 generic::arrowhead
(100%) {/Times-Italic cf} 2 16 0 1.000 1544 -24 label
sce
(Rising variable) {/Helvetica-Bold cf} 2 16 0 1.000 1168 192 label
1.000 0 80 144 generic::dot
0.000 0.000 1.000 scb
1 2.000 128 -32 160 -176 480 -176 80 144 spline
1 2.000 480 -176 544 -176 2 polygon
0.604 0.604 0.604 scb
1 1.000 176 -56 576 -56 2 polygon
1.000 0.000 0.000 scb
-0.500 180 656 -176 generic::arrowhead
0.604 0.604 0.604 scb
1 1.000 160 -80 160 -240 2 polygon
1.000 0.000 0.000 scb
1 1.000 88 -232 104 -232 2 polygon
1 1.000 136 -232 152 -232 2 polygon
0.604 0.604 0.604 scb
1 1.000 80 128 80 -240 2 polygon
sce
-1.000 180 1088 24 generic::dot
0.604 0.604 0.604 scb
1 1.000 1024 -176 1600 -176 2 polygon
sce
-1.000 180 1008 -176 generic::dot
0.000 0.000 1.000 scb
1 2.000 1056 0 1088 144 1408 144 1008 -176 spline
0.604 0.604 0.604 scb
1 1.000 1104 24 1504 24 2 polygon
1.000 0.000 0.000 scb
-0.500 180 1584 -176 generic::arrowhead
1 1.000 560 -48 560 16 2 polygon
1 1.000 560 72 560 136 2 polygon
0.000 0.000 1.000 scb
1 2.000 1408 144 1472 144 2 polygon
1.000 0.000 0.000 scb
0.500 90 1088 -232 generic::arrowhead
-0.500 270 1008 -232 generic::arrowhead
1 1.000 1016 -232 1032 -232 2 polygon
1 1.000 1064 -232 1080 -232 2 polygon
(t) {/Symbol-Oblique cf} 2 16 0 1.000 1032 -224 label
0.604 0.604 0.604 scb
1 1.000 1008 -192 1008 -240 2 polygon
1 1.000 1088 -240 1088 0 2 polygon
1.000 0.000 0.000 scb
1 1.000 1488 -40 1488 24 2 polygon
1 1.000 1488 -160 1488 -96 2 polygon
1 1.000 656 136 656 16 2 polygon
1 1.000 656 -40 656 -168 2 polygon
1 1.000 1584 136 1584 16 2 polygon
1 1.000 1584 -40 1584 -168 2 polygon
sce
1 1.000 64 160 64 -192 560 -192 3 polygon
1 1.000 992 160 992 -192 1488 -192 3 polygon
pgsave restore showpage

%%Trailer
XCIRCsave restore
%%EOF
