%!PS-Adobe-3.0 EPSF-3.0
%%Title: process_02.eps
%%Creator: XCircuit v3.4 rev27
%%CreationDate: Sat Dec 27 11:56:00 2008
%%Pages: 1
%%BoundingBox: 68 68 492 491
%%DocumentNeededResources: font Helvetica font Helvetica-Oblique 
%%+ font Times-Roman 
%%EndComments
%%BeginProlog
%
%  PostScript prolog for output from xcircuit
%  Version: 3.3
%
%  Electrical circuit (and otherwise general) drawing program
%
%  Written by Tim Edwards 8/5/93--7/13/05  (tim.edwards@multigig.com)
%  The Johns Hopkins University (1993-2004)
%  MultiGiG, Inc. (2004-present)
%
%%BeginResource: procset XCIRCproc 3.3 0
%
% supporting definitions --- these are the primary xcircuit types.

/XCIRCsave save def
/topmat matrix currentmatrix def

/fontslant { /slant exch def [1 0 slant 1 0 0] 
    exch findfont exch makefont dup length dict /ndict exch def
    { 1 index /FID ne { ndict 3 1 roll put } { pop pop } ifelse } forall
    ndict definefont pop} def
/ul { dup type /stringtype eq showflag 1 eq and { gsave 
   currentpoint topmat setmatrix 0 0 moveto 2 index stringwidth pop (_)
   false charpath flattenpath pathbbox grestore exch pop 1 index
   sub setlinewidth exch pop currentpoint 3 -1 roll add moveto 0
   rlineto stroke moveto } if } def
/ol { dup type /stringtype eq showflag 1 eq and { gsave gsave
   currentpoint topmat setmatrix 2 index stringwidth pop 3 index
   true charpath flattenpath pathbbox grestore exch pop
   exch pop topmat setmatrix (_) true charpath pathbbox grestore
   exch pop 1 index sub setlinewidth exch pop currentpoint
   exch 4 1 roll exch sub add moveto pop 0 rlineto stroke
   moveto } if } def
/stW { gsave currentpoint newpath moveto true charpath flattenpath
	pathbbox pop exch pop sub grestore } def
/Ts {mark Tabs aload pop counttomark 1 add array astore /Tabs exch def Tabs
	0 currentpoint pop put} def
/Tbn {mark Tabs aload pop counttomark dup 2 add 1 roll cleartomark 1 sub} def
/Tb { 0 1 Tbn {Tabs exch get dup currentpoint pop lt
	{currentpoint exch pop moveto exit} {pop} ifelse } for } def
/Tf { Tbn -1 0 {Tabs exch get dup currentpoint pop gt
	{currentpoint exch pop moveto exit} {pop} ifelse } for } def
/qS { (aa) stW (a a) stW sub 4 div 0 Kn } def
/hS { qS qS } def
/pspc 0 def
/cf0 { scalefont setfont } bind def
/Kn { dup kY add /kY exch def rmoveto } bind def
/ss { /fscale fscale 0.67 mul def currentfont 0.67 cf0 0 fscale0 fscale mul
	0.33 mul neg Kn} def
/Ss { /fscale fscale 0.67 mul def currentfont 0.67 cf0 0 fscale0 fscale mul
	0.67 mul Kn } def
/ns { 0 kY neg Kn /kY 0 def /fscale 1.0 def xfont0 1.0 cf0 } def
/CR { ns 0 /Bline Bline fscale0 neg add def Bline moveto } def
/cf { dup type /realtype ne {1.0} if exch findfont exch kY 0 eq
	{ 40 mul dup /fscale0 exch def cf0 /xfont0 currentfont def}
	{fscale0 mul fscale mul cf0} ifelse } def
/ctmk { counttomark dup 2 add -1 roll pop } bind def
/label { gsave translate 0 0 moveto dup scale neg /rotval exch def
	/just exch def just 384 and 0 gt {/mshow {pop} def} {/mshow {show}
	def} ifelse just 16 and 0 gt {gsave rotval rotate 0 1 dtransform
	gsave pagemat setmatrix idtransform exch grestore 1 0 dtransform
	gsave pagemat setmatrix idtransform exch grestore dup abs 1e-9 lt
	{pop mul 0 gt} {3 1 roll pop pop 0 lt} ifelse grestore {-1 /rotval
	rotval neg def /just just dup 3 and 1 ne {3 xor} if def} {1} ifelse
	exch -1e-9 lt {-1 /rotval rotval neg def /just just dup 12 and
	4 ne {12 xor} if def} {1} ifelse scale } if /showflag 0 def
	/fspc pspc def /Bline 0 def /Tabs 0 array def /fscale 1.0 def
	/kY 0 def gsave dup 1 add copy 0 exch 1 0 dtransform exch atan rotate
	{exch dup type /stringtype eq {true charpath flattenpath} {dup type
	/arraytype eq {exec} {12 string cvs true charpath flattenpath} ifelse}
	ifelse} repeat pop pathbbox grestore 3 -1 roll pop 3 1 roll just
	1 and 0 gt {just 2 and 0 gt {exch pop neg fspc sub} {exch sub 0.5
	mul neg} ifelse} {pop neg fspc add} ifelse exch Bline exch just 4
	and 0 gt {just 8 and 0 gt {exch pop neg fspc sub} {add 0.5 mul neg}
	ifelse} {pop neg fspc add} ifelse rotval rotate Kn currentpoint
	translate /showflag 1 def /Bline 0 def /Tabs 0 array def /fscale
	1.0 def /kY 0 def {dup type /stringtype eq {mshow} {dup type
	/arraytype eq {exec} {12 string cvs mshow} ifelse} ifelse} repeat
	grestore } def
/pinlabel { 4 index 32 and 0 ne hlevel 0 eq or { /pspc 10 def label
	/pspc 0 def } { pop pop pop pop pop {pop} repeat } ifelse } def
/pinglobal { pinlabel } def
/infolabel { pinlabel } def
/graphic { gsave 4 index cvx exec /DataSource get resetfile translate
	0 0 moveto neg rotate dup scale cvx exec image grestore } def

/scb { setrgbcolor } bind def  /sce { defColor aload pop scb } bind def
/cRedef {/defColor currentcolor 3 array astore def} def
/begingate {dup type /dicttype ne {1 dict} if begin	% default params
	dup type /dicttype ne {1 dict} if begin		% instanced params
	/hlevel hlevel 1 add def /defColor currentcolor sce 3 array
	astore def gsave sce translate 0 0 moveto neg rotate dup abs scale
	} bind def
/endgate { /hlevel hlevel 1 sub def grestore defColor aload pop cRedef
	scb end end} bind def

/hlevel 0 def
/tmpa [1 0 0 1 0 0] def
/gar {8 8 true tmpa {<c0 c0 00 00 0c 0c 00 00>} imagemask} bind
{8 8 true tmpa {<30 70 60 02 03 07 06 20>} imagemask} bind
{8 8 true tmpa {<0c 1e 1e 0c c0 e1 e1 c0>} imagemask} bind
{8 8 true tmpa {<0f 0f 0f 0f f0 f0 f0 f0>} imagemask} bind
{8 8 true tmpa {<3f f3 e1 e1 f3 3f 1e 1e>} imagemask} bind
{8 8 true tmpa {<df cf 8f 9f fd fc f8 f9>} imagemask} bind
{8 8 true tmpa {<ff 3f 3f ff ff f3 f3 ff>} imagemask} bind 7 array astore def
/ppaint { gsave clip tmpa dup setmatrix pathbbox neg exch neg 4 2 roll
  neg 4 -1 roll 2 copy gt {exch} if 8 div ceiling 8 mul 4 2 roll neg 2 copy
  gt {exch} if 8 div ceiling 8 mul 3 -1 roll -8 5 -1 roll
  { 3 index exch 5 exch put dup -8 3 index { 3 index
  exch 4 exch put 3 index exec } for } for pop pop pop pop grestore } bind def
/setstyles {
  currentlinewidth mul setlinewidth /style exch def
  style 1 and 0 gt not {closepath} if
  style 1024 and 0 gt {2 setlinecap} if
  style 2 and 0 gt {currentlinewidth 4 mul dup 2 array astore 0 setdash} if
  style 4 and 0 gt {0.5 currentlinewidth 4 mul 2 array astore 0 setdash} if
  gsave style 16 and 0 gt { style 224 and -5 bitshift style 256 and 0 gt {
  7 exch sub 8 div dup 1 exch sub currentrgbcolor 3 array astore
  {3 copy mul add 4 1 roll pop} forall pop pop setrgbcolor eofill}
  {dup 7 lt {gar exch get ppaint} {pop eofill} ifelse} ifelse}
  {style 256 and 0 gt {1 setgray eofill} if} ifelse grestore style 8 and 0 gt 
  style 512 eq or {newpath} {stroke} ifelse grestore} def     

/polygon { gsave /num exch def moveto num 1 sub {lineto} repeat setstyles } def
/xcarc   { gsave newpath arc setstyles } def
/elb { matrix currentmatrix 7 -1 roll 7 -1 roll translate 5 1 roll 4 -1 roll
	3 index div 1 scale } def
/ele { 0 4 1 roll 0 4 1 roll } bind def
/ellipse { gsave elb newpath ele arc setmatrix setstyles } def
/pellip  { elb ele arc setmatrix } def
/nellip  { elb ele arcn setmatrix } def
/spline  { gsave moveto curveto setstyles } def
/polyc   { {lineto} repeat } bind def
/beginpath { gsave moveto } bind def
/endpath { setstyles } bind def
/bop	 { 1 setlinecap 0 setlinejoin 6 setmiterlimit 0 0 0 scb cRedef } def
/psinsertion {/PSobj save def /showpage {} def /setpagedevice {pop} def bop
	rotate translate dup scale} def
/end_insert {PSobj restore} def
/setpagemat {/pagemat matrix currentmatrix def} def
/inchscale  {setpagemat 0.375 mul dup scale} def
/cmscale    {setpagemat 0.35433071 mul dup scale} def

%%EndResource
%%EndProlog

% XCircuit output starts here.

%%BeginSetup

/arrowhead {
% trivial
begingate
8 -28 beginpath
3 -18 3 -15 0 0 curveto
-3 -15 -3 -18 -8 -28 curveto
-2 -26 2 -26 8 -28 curveto
249 1.00 endpath
endgate
} def

/arrow {
% trivial
begingate
1 0.80 0 -40 0 20 2 polygon
1.00 0 0 40 arrowhead
endgate
} def

/valve_control1 {
begingate
0.604 0.604 0.604 scb
240 1.00 -112 -112 -112 -240 -80 -240 -80 -112 4 polygon
240 1.00 80 -112 80 -240 112 -240 112 -112 4 polygon
241 1.00 -32 -240 32 -240 80 -208 -80 -208 spline
240 1.00 -48 -112 -48 -128 48 -128 48 -112 4 polygon
240 1.00 -80 -144 -80 -208 80 -208 80 -144 4 polygon
240 1.00 -16 -96 -16 -48 16 -48 16 -96 4 polygon
241 1.00 -16 -80 -32 -80 -48 -48 -48 48 48 48 48 -48 32 -80 16 -80 16 -64 32 
-48 32 32 -32 32 -32 -48 -16 -64 -16 -80 15 polygon
sce
240 1.00 -4 32 -4 -48 4 -48 4 32 4 polygon
0.604 0.604 0.604 scb
240 1.00 -48 48 -48 160 48 160 48 48 4 polygon
241 1.00 -80 160 -120 168 -144 192 -48 160 spline
241 1.00 80 160 120 168 144 192 48 160 spline
240 1.00 -152 200 -152 192 152 192 152 200 4 polygon
240 1.00 -152 208 -152 200 152 200 152 208 4 polygon
241 1.00 -80 240 -120 232 -144 208 -48 240 spline
241 1.00 80 240 120 232 144 208 48 240 spline
sce
241 1.00 -48 240 48 240 2 polygon
1 1.00 -32 -240 32 -240 80 -208 -80 -208 spline
0.604 0.604 0.604 scb
241 1.00 64 -144 80 -128 80 -144 64 -144 4 polygon
241 1.00 -64 -144 -80 -128 -80 -144 -64 -144 4 polygon
241 1.00 -48 -144 -32 -128 -32 -144 -48 -144 4 polygon
241 1.00 48 -144 32 -128 32 -144 48 -144 4 polygon
240 1.00 -32 -128 -32 -144 32 -144 32 -128 4 polygon
sce
0 1.00 -48 -112 -48 -128 48 -128 48 -112 4 polygon
1 1.00 -80 -128 -64 -144 -48 -144 -32 -128 4 polygon
1 1.00 32 -128 48 -144 64 -144 80 -128 4 polygon
0 1.00 -112 -112 -112 -240 -80 -240 -80 -112 4 polygon
0 1.00 80 -112 80 -240 112 -240 112 -112 4 polygon
0.604 0.604 0.604 scb
240 1.00 -48 -96 -48 -112 48 -112 48 -96 4 polygon
sce
0 1.00 -48 -96 -48 -112 48 -112 48 -96 4 polygon
0 1.00 -16 -80 -16 -96 16 -96 16 -80 4 polygon
0 1.00 -16 -48 -16 -64 16 -64 16 -48 4 polygon
1 1.00 -32 -80 32 -80 48 -48 48 160 -48 160 -48 -48 -32 -80 7 polygon
1 1.00 16 -64 32 -48 32 32 -32 32 -32 -48 -16 -64 6 polygon
0.604 0.604 0.604 scb
241 1.00 -144 208 -56 240 56 240 144 208 -144 208 5 polygon
241 1.00 -144 192 -56 160 56 160 144 192 -144 192 5 polygon
sce
1 1.00 80 240 120 232 144 208 48 240 spline
1 1.00 -48 240 48 240 2 polygon
1 1.00 -80 240 -120 232 -144 208 -48 240 spline
1 1.00 80 160 120 168 144 192 48 160 spline
1 1.00 -48 160 48 160 2 polygon
1 1.00 -80 160 -120 168 -144 192 -48 160 spline
0 1.00 -152 200 -152 192 152 192 152 200 4 polygon
0 1.00 -152 208 -152 200 152 200 152 208 4 polygon
0.604 0.604 0.604 scb
240 1.00 -36 -96 -36 -80 -28 -80 -28 -96 4 polygon
sce
1 1.00 -36 -84 -28 -80 2 polygon
1 1.00 -36 -88 -28 -84 2 polygon
0 1.00 -36 -90 -36 -80 -28 -80 -28 -90 4 polygon
0.604 0.604 0.604 scb
240 1.00 -42 -90 -42 -96 -22 -96 -22 -90 4 polygon
sce
0 1.00 -42 -90 -42 -96 -22 -96 -22 -90 4 polygon
1 1.00 -36 -90 -36 -96 2 polygon
1 1.00 -28 -90 -28 -96 2 polygon
0.604 0.604 0.604 scb
240 1.00 -6 -96 -6 -80 2 -80 2 -96 4 polygon
sce
1 1.00 -6 -84 2 -80 2 polygon
1 1.00 -6 -88 2 -84 2 polygon
0 1.00 -6 -90 -6 -80 2 -80 2 -90 4 polygon
0.604 0.604 0.604 scb
240 1.00 -12 -90 -12 -96 8 -96 8 -90 4 polygon
sce
0 1.00 -12 -90 -12 -96 8 -96 8 -90 4 polygon
1 1.00 -6 -90 -6 -96 2 polygon
1 1.00 2 -90 2 -96 2 polygon
0.604 0.604 0.604 scb
240 1.00 26 -96 26 -80 34 -80 34 -96 4 polygon
sce
1 1.00 26 -84 34 -80 2 polygon
1 1.00 26 -88 34 -84 2 polygon
0 1.00 26 -90 26 -80 34 -80 34 -90 4 polygon
0.604 0.604 0.604 scb
240 1.00 20 -90 20 -96 40 -96 40 -90 4 polygon
sce
0 1.00 20 -90 20 -96 40 -96 40 -90 4 polygon
1 1.00 26 -90 26 -96 2 polygon
1 1.00 34 -90 34 -96 2 polygon
0.604 0.604 0.604 scb
240 1.00 -140 192 -140 184 -136 184 -136 192 4 polygon
sce
1 1.00 -140 187 -136 185 2 polygon
0 1.00 -140 192 -140 184 -136 184 -136 192 4 polygon
0.604 0.604 0.604 scb
240 1.00 -144 189 -144 192 -132 192 -132 189 4 polygon
sce
0 1.00 -144 189 -144 192 -132 192 -132 189 4 polygon
0.604 0.604 0.604 scb
240 1.00 -120 192 -120 184 -116 184 -116 192 4 polygon
sce
1 1.00 -120 187 -116 185 2 polygon
0 1.00 -120 192 -120 184 -116 184 -116 192 4 polygon
0.604 0.604 0.604 scb
240 1.00 -124 189 -124 192 -112 192 -112 189 4 polygon
sce
0 1.00 -124 189 -124 192 -112 192 -112 189 4 polygon
0.604 0.604 0.604 scb
240 1.00 -100 192 -100 184 -96 184 -96 192 4 polygon
sce
1 1.00 -100 187 -96 185 2 polygon
0 1.00 -100 192 -100 184 -96 184 -96 192 4 polygon
0.604 0.604 0.604 scb
240 1.00 -104 189 -104 192 -92 192 -92 189 4 polygon
sce
0 1.00 -104 189 -104 192 -92 192 -92 189 4 polygon
0.604 0.604 0.604 scb
240 1.00 -76 192 -76 184 -72 184 -72 192 4 polygon
sce
1 1.00 -76 187 -72 185 2 polygon
0 1.00 -76 192 -76 184 -72 184 -72 192 4 polygon
0.604 0.604 0.604 scb
240 1.00 -80 189 -80 192 -68 192 -68 189 4 polygon
sce
0 1.00 -80 189 -80 192 -68 192 -68 189 4 polygon
0.604 0.604 0.604 scb
240 1.00 -48 192 -48 184 -44 184 -44 192 4 polygon
sce
1 1.00 -48 187 -44 185 2 polygon
0 1.00 -48 192 -48 184 -44 184 -44 192 4 polygon
0.604 0.604 0.604 scb
240 1.00 -52 189 -52 192 -40 192 -40 189 4 polygon
sce
0 1.00 -52 189 -52 192 -40 192 -40 189 4 polygon
0.604 0.604 0.604 scb
240 1.00 -16 192 -16 184 -12 184 -12 192 4 polygon
sce
1 1.00 -16 187 -12 185 2 polygon
0 1.00 -16 192 -16 184 -12 184 -12 192 4 polygon
0.604 0.604 0.604 scb
240 1.00 -20 189 -20 192 -8 192 -8 189 4 polygon
sce
0 1.00 -20 189 -20 192 -8 192 -8 189 4 polygon
0.604 0.604 0.604 scb
240 1.00 124 192 124 184 120 184 120 192 4 polygon
sce
1 1.00 124 187 120 185 2 polygon
0 1.00 124 192 124 184 120 184 120 192 4 polygon
0.604 0.604 0.604 scb
240 1.00 128 189 128 192 116 192 116 189 4 polygon
sce
0 1.00 128 189 128 192 116 192 116 189 4 polygon
0.604 0.604 0.604 scb
240 1.00 104 192 104 184 100 184 100 192 4 polygon
sce
1 1.00 104 187 100 185 2 polygon
0 1.00 104 192 104 184 100 184 100 192 4 polygon
0.604 0.604 0.604 scb
240 1.00 108 189 108 192 96 192 96 189 4 polygon
sce
0 1.00 108 189 108 192 96 192 96 189 4 polygon
0.604 0.604 0.604 scb
240 1.00 80 192 80 184 76 184 76 192 4 polygon
sce
1 1.00 80 187 76 185 2 polygon
0 1.00 80 192 80 184 76 184 76 192 4 polygon
0.604 0.604 0.604 scb
240 1.00 84 189 84 192 72 192 72 189 4 polygon
sce
0 1.00 84 189 84 192 72 192 72 189 4 polygon
0.604 0.604 0.604 scb
240 1.00 52 192 52 184 48 184 48 192 4 polygon
sce
1 1.00 52 187 48 185 2 polygon
0 1.00 52 192 52 184 48 184 48 192 4 polygon
0.604 0.604 0.604 scb
240 1.00 56 189 56 192 44 192 44 189 4 polygon
sce
0 1.00 56 189 56 192 44 192 44 189 4 polygon
0.604 0.604 0.604 scb
240 1.00 20 192 20 184 16 184 16 192 4 polygon
sce
1 1.00 20 187 16 185 2 polygon
0 1.00 20 192 20 184 16 184 16 192 4 polygon
0.604 0.604 0.604 scb
240 1.00 24 189 24 192 12 192 12 189 4 polygon
sce
0 1.00 24 189 24 192 12 192 12 189 4 polygon
0.604 0.604 0.604 scb
240 1.00 140 192 140 184 136 184 136 192 4 polygon
sce
1 1.00 140 187 136 185 2 polygon
0 1.00 140 192 140 184 136 184 136 192 4 polygon
0.604 0.604 0.604 scb
240 1.00 144 189 144 192 132 192 132 189 4 polygon
sce
0 1.00 144 189 144 192 132 192 132 189 4 polygon
0.604 0.604 0.604 scb
240 1.00 -144 211 -144 208 -132 208 -132 211 4 polygon
sce
0 1.00 -144 211 -144 208 -132 208 -132 211 4 polygon
0.604 0.604 0.604 scb
240 1.00 -124 211 -124 208 -112 208 -112 211 4 polygon
sce
0 1.00 -124 211 -124 208 -112 208 -112 211 4 polygon
0.604 0.604 0.604 scb
240 1.00 -104 211 -104 208 -92 208 -92 211 4 polygon
sce
0 1.00 -104 211 -104 208 -92 208 -92 211 4 polygon
0.604 0.604 0.604 scb
240 1.00 -80 211 -80 208 -68 208 -68 211 4 polygon
sce
0 1.00 -80 211 -80 208 -68 208 -68 211 4 polygon
0.604 0.604 0.604 scb
240 1.00 -52 211 -52 208 -40 208 -40 211 4 polygon
sce
0 1.00 -52 211 -52 208 -40 208 -40 211 4 polygon
0.604 0.604 0.604 scb
240 1.00 -20 211 -20 208 -8 208 -8 211 4 polygon
sce
0 1.00 -20 211 -20 208 -8 208 -8 211 4 polygon
0.604 0.604 0.604 scb
240 1.00 12 211 12 208 24 208 24 211 4 polygon
sce
0 1.00 12 211 12 208 24 208 24 211 4 polygon
0.604 0.604 0.604 scb
240 1.00 44 211 44 208 56 208 56 211 4 polygon
sce
0 1.00 44 211 44 208 56 208 56 211 4 polygon
0.604 0.604 0.604 scb
240 1.00 72 211 72 208 84 208 84 211 4 polygon
sce
0 1.00 72 211 72 208 84 208 84 211 4 polygon
0.604 0.604 0.604 scb
240 1.00 96 211 96 208 108 208 108 211 4 polygon
sce
0 1.00 96 211 96 208 108 208 108 211 4 polygon
0.604 0.604 0.604 scb
240 1.00 116 211 116 208 128 208 128 211 4 polygon
sce
0 1.00 116 211 116 208 128 208 128 211 4 polygon
0.604 0.604 0.604 scb
240 1.00 132 211 132 208 144 208 144 211 4 polygon
sce
0 1.00 132 211 132 208 144 208 144 211 4 polygon
endgate
} def

/dp_cell {
begingate
0.604 0.604 0.604 scb
241 1.00 -48 -8 -16 -8 -16 -24 -48 -24 spline
241 1.00 -48 -120 -16 -120 -16 -104 -48 -104 spline
0.800 0.800 0.800 scb
240 1.00 0 -24 0 8 16 8 16 -24 4 polygon
0.000 0.000 1.000 scb
241 1.00 8 64 56 0.00 360.00 xcarc
0.604 0.604 0.604 scb
240 1.00 -48 -24 -48 -104 -16 -104 -16 -24 4 polygon
sce
241 1.00 -32 -64 8 0.00 360.00 xcarc
0.604 0.604 0.604 scb
241 1.00 32 -8 64 -8 64 -24 32 -24 spline
241 1.00 32 -120 64 -120 64 -104 32 -104 spline
240 1.00 32 -24 32 -104 64 -104 64 -24 4 polygon
sce
241 1.00 48 -64 8 0.00 360.00 xcarc
0.800 0.800 0.800 scb
240 1.00 -16 -24 -16 -104 32 -104 32 -24 4 polygon
sce
1 1.00 -48 -104 -48 -24 2 polygon
1 1.00 -16 -24 -16 -104 2 polygon
1 1.00 -48 -8 -16 -8 -16 -24 -48 -24 spline
1 1.00 -48 -120 -16 -120 -16 -104 -48 -104 spline
1 1.00 32 -120 64 -120 64 -104 32 -104 spline
1 1.00 32 -8 64 -8 64 -24 32 -24 spline
1 1.00 32 -24 32 -104 2 polygon
1 1.00 64 -24 64 -104 2 polygon
0 1.00 -16 -24 -16 -104 32 -104 32 -24 4 polygon
(H) {/Helvetica cf} 2 16 0 0.50 -40 -40 label
(L) {/Helvetica cf} 2 16 0 0.50 40 -40 label
0 1.00 0 8 0 -24 16 -24 16 8 4 polygon
1 1.00 8 64 56 0.00 360.00 xcarc
endgate
} def

/stud {
begingate
0.400 0.400 0.400 scb
496 1.00 0 4 0 -4 16 -4 16 4 4 polygon
496 1.00 8 8 8 -8 16 -8 16 8 4 polygon
sce
0 1.00 8 8 8 -8 16 -8 16 8 4 polygon
1 1.00 8 4 0 4 0 -4 8 -4 4 polygon
1 0.50 3 1 3 -1 2 polygon
1 0.50 5 1 5 -1 2 polygon
1 0.75 9 5 15 5 2 polygon
1 0.75 9 -5 15 -5 2 polygon
1 0.75 8 0 16 0 2 polygon
endgate
} def

/current_pressure {
begingate
0 1.00 -16 16 -16 -32 32 -32 32 16 4 polygon
(P) {ss} (/) {ns} (I) {Ss} {/Helvetica cf} 7 16 0 0.70 -4 -16 label
endgate
} def

/pipe_elbow {
begingate
0.604 0.604 0.604 scb
240 1.00 -112 112 -112 -16 -80 -16 -80 112 4 polygon
240 1.00 -16 -80 -16 -112 112 -112 112 -80 4 polygon
1 1.00 -48 0 0 -48 0 -80 -80 0 spline
241 1.00 16 96 96 16 96 -80 -80 96 spline
241 1.00 -80 96 -80 0 16 0 -80 96 4 polygon
241 1.00 96 -80 16 -80 16 0 96 -80 4 polygon
240 1.00 0 0 0 -80 16 -80 16 0 4 polygon
241 1.00 -48 0 0 -48 0 0 -48 0 4 polygon
241 1.00 -72 0 -32 -16 -48 0 -72 0 4 polygon
241 1.00 0 -72 -16 -32 0 -48 0 -72 4 polygon
241 1.00 -52 -8 -28 -24 -8 -52 -20 -20 -52 -8 5 polygon
1 1.00 -48 -8 -4 -48 2 polygon
sce
1 1.00 16 96 96 16 96 -80 -80 96 spline
1 1.00 -48 0 0 -48 0 -80 -80 0 spline
0 1.00 -112 112 -112 -16 -80 -16 -80 112 4 polygon
0 1.00 -16 -80 -16 -112 112 -112 112 -80 4 polygon
endgate
} def

/flange {
begingate
0.604 0.604 0.604 scb
496 1.00 -16 64 -16 -64 16 -64 16 64 4 polygon
sce
0 1.00 -16 64 -16 -64 16 -64 16 64 4 polygon
endgate
} def

/signal_air {
begingate
1 1.00 0 16 -16 -16 2 polygon
1 1.00 16 16 0 -16 2 polygon
1 1.00 -64 0 64 0 2 polygon
endgate
} def


%%EndSetup

%%Page: 8400x020.eps 1
%%PageOrientation: Portrait
/pgsave save def bop
0.7000 inchscale
2.6000 setlinewidth 978 1394 translate

0.800 0.800 0.800 scb
1 1.00 -480 -416 -480 -1056 2 polygon
1 1.00 -448 -416 -448 -1056 2 polygon
1 1.00 -416 -416 -416 -1056 2 polygon
1 1.00 -384 -416 -384 -1056 2 polygon
1 1.00 -352 -416 -352 -1056 2 polygon
1 1.00 -320 -416 -320 -1056 2 polygon
1 1.00 -288 -416 -288 -1056 2 polygon
1 1.00 -256 -416 -256 -1056 2 polygon
1 1.00 -224 -416 -224 -1056 2 polygon
1 1.00 -192 -416 -192 -1056 2 polygon
1 1.00 -160 -416 -160 -1056 2 polygon
1 1.00 -128 -416 -128 -1056 2 polygon
1 1.00 -96 -416 -96 -1056 2 polygon
1 1.00 -64 -416 -64 -1056 2 polygon
1 1.00 -32 -416 -32 -1056 2 polygon
1 1.00 0 -416 0 -1056 2 polygon
1 1.00 32 -416 32 -1056 2 polygon
1 1.00 64 -416 64 -1056 2 polygon
1 1.00 96 -416 96 -1056 2 polygon
1 1.00 128 -416 128 -1056 2 polygon
1 1.00 160 -416 160 -1056 2 polygon
1 1.00 192 -416 192 -1056 2 polygon
1 1.00 224 -416 224 -1056 2 polygon
1 1.00 256 -416 256 -1056 2 polygon
1 1.00 288 -416 288 -1056 2 polygon
1 1.00 320 -416 320 -1056 2 polygon
1 1.00 352 -416 352 -1056 2 polygon
1 1.00 384 -416 384 -1056 2 polygon
1 1.00 416 -416 416 -1056 2 polygon
1 1.00 448 -416 448 -1056 2 polygon
1 1.00 480 -416 480 -1056 2 polygon
1 1.00 512 -416 512 -1056 2 polygon
1 1.00 544 -416 544 -1056 2 polygon
1 1.00 576 -416 576 -1056 2 polygon
1 1.00 -512 -416 576 -416 2 polygon
1 1.00 -512 -448 576 -448 2 polygon
1 1.00 -512 -480 576 -480 2 polygon
1 1.00 -512 -512 576 -512 2 polygon
1 1.00 -512 -544 576 -544 2 polygon
1 1.00 -512 -576 576 -576 2 polygon
1 1.00 -512 -608 576 -608 2 polygon
1 1.00 -512 -640 576 -640 2 polygon
1 1.00 -512 -672 576 -672 2 polygon
1 1.00 -512 -704 576 -704 2 polygon
1 1.00 -512 -736 576 -736 2 polygon
1 1.00 -512 -768 576 -768 2 polygon
1 1.00 -512 -800 576 -800 2 polygon
1 1.00 -512 -832 576 -832 2 polygon
1 1.00 -512 -864 576 -864 2 polygon
1 1.00 -512 -896 576 -896 2 polygon
1 1.00 -512 -928 576 -928 2 polygon
1 1.00 -512 -960 576 -960 2 polygon
1 1.00 -512 -992 576 -992 2 polygon
1 1.00 -512 -1024 576 -1024 2 polygon
sce
1 1.00 -512 -416 -512 -1056 576 -1056 3 polygon
(Time) {/Helvetica cf} 2 16 0 1.00 -64 -1120 label
1.00 90 80 -1104 arrow
(0) {/Times-Roman cf} 2 16 0 0.50 -536 -1064 label
(5) {/Times-Roman cf} 2 16 0 0.50 -536 -1032 label
(10) {/Times-Roman cf} 2 16 0 0.50 -544 -1000 label
(15) {/Times-Roman cf} 2 16 0 0.50 -544 -968 label
(20) {/Times-Roman cf} 2 16 0 0.50 -544 -936 label
(25) {/Times-Roman cf} 2 16 0 0.50 -544 -904 label
(30) {/Times-Roman cf} 2 16 0 0.50 -544 -872 label
(35) {/Times-Roman cf} 2 16 0 0.50 -544 -840 label
(40) {/Times-Roman cf} 2 16 0 0.50 -544 -808 label
(45) {/Times-Roman cf} 2 16 0 0.50 -544 -776 label
(50) {/Times-Roman cf} 2 16 0 0.50 -544 -744 label
(55) {/Times-Roman cf} 2 16 0 0.50 -544 -712 label
(60) {/Times-Roman cf} 2 16 0 0.50 -544 -680 label
(65) {/Times-Roman cf} 2 16 0 0.50 -544 -648 label
(70) {/Times-Roman cf} 2 16 0 0.50 -544 -616 label
(75) {/Times-Roman cf} 2 16 0 0.50 -544 -584 label
(80) {/Times-Roman cf} 2 16 0 0.50 -544 -552 label
(85) {/Times-Roman cf} 2 16 0 0.50 -544 -520 label
(90) {/Times-Roman cf} 2 16 0 0.50 -544 -488 label
(95) {/Times-Roman cf} 2 16 0 0.50 -544 -456 label
(100) {/Times-Roman cf} 2 16 0 0.50 -552 -424 label
(%) {/Times-Roman cf} 2 16 0 1.00 -608 -736 label
0.627 0.125 0.941 scb
(Output) {/Helvetica cf} 2 16 0 1.00 -464 -832 label
0.000 0.000 1.000 scb
(PV) {/Helvetica cf} 2 16 0 1.00 -304 -656 label
0.627 0.125 0.941 scb
1 1.00 -512 -864 -320 -864 -320 -768 576 -768 4 polygon
sce
(Step-change) {/Helvetica-Oblique cf} 2 16 0 0.70 -272 -824 label
1.00 0 -288 -768 arrowhead
-1.00 180 -288 -864 arrowhead
1 1.00 -288 -784 -288 -808 2 polygon
1 1.00 -288 -848 -288 -824 2 polygon
-1.00 180 -128 224 valve_control1
0.800 0.800 0.800 scb
240 1.00 -672 -64 -672 -224 -544 -224 -544 -64 4 polygon
sce
0 1.00 -672 -64 -672 -224 -544 -224 -544 -64 4 polygon
0 1.00 -640 -80 -640 -176 -576 -176 -576 -80 4 polygon
1 1.00 -608 -80 -608 -176 2 polygon
1 1.00 -616 -88 -600 -88 2 polygon
1 1.00 -616 -96 -600 -96 2 polygon
1 1.00 -616 -104 -600 -104 2 polygon
1 1.00 -616 -112 -600 -112 2 polygon
1 1.00 -616 -120 -600 -120 2 polygon
1 1.00 -616 -128 -600 -128 2 polygon
1 1.00 -616 -136 -600 -136 2 polygon
1 1.00 -616 -144 -600 -144 2 polygon
1 1.00 -616 -152 -600 -152 2 polygon
1 1.00 -616 -160 -600 -160 2 polygon
1 1.00 -616 -168 -600 -168 2 polygon
1 1.00 -656 -204 -656 -212 2 polygon
1 1.00 -652 -204 -652 -212 2 polygon
1 1.00 -648 -204 -648 -212 2 polygon
1 1.00 -644 -204 -644 -212 2 polygon
1 1.00 -640 -204 -640 -212 2 polygon
1 1.00 -636 -204 -636 -212 2 polygon
1 1.00 -632 -204 -632 -212 2 polygon
1 1.00 -628 -204 -628 -212 2 polygon
1 1.00 -624 -204 -624 -212 2 polygon
1 1.00 -620 -204 -620 -212 2 polygon
1 1.00 -616 -204 -616 -212 2 polygon
1 1.00 -612 -204 -612 -212 2 polygon
1 1.00 -608 -204 -608 -212 2 polygon
1 1.00 -604 -204 -604 -212 2 polygon
1 1.00 -600 -204 -600 -212 2 polygon
1 1.00 -596 -204 -596 -212 2 polygon
1 1.00 -592 -204 -592 -212 2 polygon
1 1.00 -588 -204 -588 -212 2 polygon
1 1.00 -584 -204 -584 -212 2 polygon
1 1.00 -580 -204 -580 -212 2 polygon
1 1.00 -576 -204 -576 -212 2 polygon
1 1.00 -572 -204 -572 -212 2 polygon
1 1.00 -568 -204 -568 -212 2 polygon
1 1.00 -564 -204 -564 -212 2 polygon
1 1.00 -560 -204 -560 -212 2 polygon
1.000 0.000 0.000 scb
241 1.00 -588 -120 -588 -128 -596 -124 -588 -120 4 polygon
0.000 0.000 1.000 scb
241 1.00 -628 -112 -628 -120 -620 -116 -628 -112 4 polygon
1 1.00 -628 -116 -636 -116 2 polygon
1.000 0.000 0.000 scb
1 1.00 -592 -124 -580 -124 2 polygon
0.000 0.000 1.000 scb
(PV) {/Helvetica cf} 2 19 0 0.40 -646 -128 label
1.000 0.000 0.000 scb
(SP) {/Helvetica cf} 2 19 0 0.40 -550 -128 label
0.627 0.125 0.941 scb
241 1.00 -620 -196 -616 -204 -612 -196 -620 -196 4 polygon
sce
0 1.00 -660 -184 -660 -212 -556 -212 -556 -184 4 polygon
0.627 0.125 0.941 scb
1 1.00 -616 -196 -616 -188 2 polygon
sce
1 1.00 -432 180 64 0.00 360.00 xcarc
0.604 0.604 0.604 scb
240 1.00 -240 464 -240 336 -272 336 -272 464 4 polygon
sce
0 1.00 -240 464 -240 336 -272 336 -272 464 4 polygon
0.604 0.604 0.604 scb
240 1.00 -272 448 -272 352 -704 352 -704 448 4 polygon
sce
0 1.00 -272 448 -272 352 -704 352 -704 448 4 polygon
0.000 0.000 1.000 scb
241 1.00 -496 384 -496 416 -432 416 -432 432 -384 400 -432 368 -432 384 -496 
384 8 polygon
0.604 0.604 0.604 scb
240 1.00 16 464 16 336 -16 336 -16 464 4 polygon
sce
0 1.00 16 464 16 336 -16 336 -16 464 4 polygon
0.604 0.604 0.604 scb
240 1.00 16 448 16 352 240 352 240 448 4 polygon
sce
1 1.00 240 448 16 448 16 352 240 352 4 polygon
0.000 0.000 1.000 scb
(Flow) {/Helvetica cf} 2 16 0 1.00 -608 384 label
sce
-1.00 0 96 -192 dp_cell
1.00 0 -288 416 stud
1.00 0 -288 448 stud
1.00 0 -288 384 stud
1.00 0 -288 352 stud
1.00 0 -64 416 stud
1.00 0 -64 448 stud
1.00 0 -64 384 stud
1.00 0 -64 352 stud
-1.00 0 32 416 stud
-1.00 0 32 448 stud
-1.00 0 32 384 stud
-1.00 0 32 352 stud
-1.00 0 -192 416 stud
-1.00 0 -192 448 stud
-1.00 0 -192 384 stud
-1.00 0 -192 352 stud
1 1.00 -144 240 -112 240 2 polygon
1.00 0 -512 260 current_pressure
1.00 0 384 352 pipe_elbow
1.00 0 256 400 flange
-1.00 0 320 416 stud
-1.00 0 320 448 stud
-1.00 0 320 384 stud
-1.00 0 320 352 stud
1.00 0 224 416 stud
1.00 0 224 448 stud
1.00 0 224 384 stud
1.00 0 224 352 stud
1.00 180 496 -208 pipe_elbow
0.604 0.604 0.604 scb
240 1.00 640 -192 640 -320 608 -320 608 -192 4 polygon
sce
0 1.00 640 -192 640 -320 608 -320 608 -192 4 polygon
0.604 0.604 0.604 scb
240 1.00 640 -208 640 -304 864 -304 864 -208 4 polygon
sce
1 1.00 864 -208 640 -208 640 -304 864 -304 4 polygon
-1.00 0 656 -240 stud
-1.00 0 656 -208 stud
-1.00 0 656 -272 stud
-1.00 0 656 -304 stud
1.00 0 560 -240 stud
1.00 0 560 -208 stud
1.00 0 560 -272 stud
1.00 0 560 -304 stud
0.361 0.675 0.933 scb
496 1.00 192 160 192 -96 672 -96 672 160 4 polygon
sce
1 3.00 192 288 192 -96 672 -96 672 288 4 polygon
1 1.00 128 -256 240 -256 240 -96 3 polygon
(LT) {/Helvetica cf} 2 16 0 1.00 64 -48 label
1.00 90 -240 116 signal_air
1.00 0 -304 180 signal_air
(LV) {/Helvetica cf} 2 16 0 1.00 -48 80 label
(LIC) {/Helvetica cf} 2 16 0 1.00 -528 -160 label
3 1.00 -608 -224 -608 -288 -432 -288 -432 116 4 polygon
-1.00 90 400 -144 stud
-1.00 90 432 -144 stud
-1.00 90 464 -144 stud
-1.00 90 496 -144 stud
0.000 0.000 1.000 scb
241 1.00 688 -272 688 -240 752 -240 752 -224 800 -256 752 -288 752 -272 688 
-272 8 polygon
sce
(Constant draw) {/Helvetica-Oblique cf} 2 16 0 1.00 624 -176 label
(LY) {/Helvetica cf} 2 16 0 1.00 -456 168 label
0.361 0.675 0.933 scb
1 3.00 432 224 432 176 2 polygon
1 3.00 416 224 400 176 2 polygon
1 3.00 400 224 368 176 2 polygon
1 3.00 384 224 336 176 2 polygon
1 3.00 448 224 464 176 2 polygon
1 3.00 464 224 496 176 2 polygon
1 3.00 480 224 528 176 2 polygon
0.000 0.000 1.000 scb
1 1.00 -512 -704 -506 -704 -506 -706 -504 -706 -500 -706 -498 -706 -496 -704 
-494 -704 -492 -704 -490 -708 -488 -708 -484 -710 -480 -708 -478 -708 -474 -706 
-470 -704 -468 -704 -464 -706 -460 -706 -456 -708 -452 -708 -450 -706 -446 -704 
-440 -704 -438 -706 -434 -708 -432 -708 -432 -706 -424 -704 -420 -702 -418 -702 
-416 -702 -410 -704 -402 -704 -394 -702 -392 -700 -386 -702 -384 -702 -382 -704 
-376 -704 -372 -702 -370 -702 -362 -706 -358 -706 -356 -704 -352 -702 -348 -702 
-342 -702 -338 -704 -334 -706 -330 -706 -328 -704 -322 -704 -320 -704 
54 polygon
1 1.00 -322 -704 -314 -702 -312 -702 -312 -700 -310 -700 -304 -698 -300 -698 
-296 -696 -292 -696 -286 -696 -282 -696 -274 -690 -272 -688 -270 -688 -264 -688 
-262 -688 -256 -686 -254 -684 -248 -684 -244 -680 -242 -680 -236 -678 -230 -676 
-228 -674 -222 -672 -218 -672 -206 -672 -200 -668 -198 -668 -190 -664 -186 -662 
-184 -660 -182 -660 -176 -660 -166 -660 -160 -654 -152 -650 -150 -650 -144 -648 
-132 -648 -128 -648 -122 -646 -116 -644 -108 -638 -104 -638 -98 -634 -94 -634 
-88 -634 -82 -634 -72 -630 -64 -624 -58 -620 -52 -620 -46 -620 -38 -618 -30 
-614 -26 -614 -22 -610 -20 -610 -12 -610 2 -606 14 -602 18 -600 22 -596 24 -596 
28 -596 48 -596 76 -582 82 -580 86 -580 96 -580 104 -578 114 -572 126 -566 134 
-566 142 -564 154 -560 158 -560 160 -556 164 -554 174 -554 180 -552 186 -552 
192 -546 196 -544 210 -542 232 -538 238 -538 240 -534 244 -534 248 -530 252 
-530 260 -530 264 -528 272 -524 280 -522 280 -520 282 -518 286 -516 288 -516 
298 -514 306 -510 308 -510 310 -508 322 -502 326 -502 332 -502 340 -502 348 
-500 356 -498 360 -498 362 -498 368 -498 372 -494 382 -490 386 -488 390 -484 
398 -484 410 -482 414 -480 418 -478 424 -476 432 -476 434 -476 442 -474 450 
-472 450 -470 454 -468 458 -466 460 -464 468 -464 472 -464 476 -462 478 -458 
482 -458 488 -456 492 -456 500 -454 502 -454 508 -450 512 -448 516 -446 518 
-446 522 -444 526 -444 532 -442 536 -442 538 -442 542 -442 550 -440 554 -436 
558 -434 562 -432 568 -430 572 -430 576 -430 156 polygon
sce
(Process variable ramps at a constant rate) {/Helvetica-Oblique cf} 2 16 0 0.70 
-48 -656 label
3 1.00 32 -128 -96 -128 -96 -352 -704 -352 -704 -128 -672 -128 6 polygon
pgsave restore showpage

%%Trailer
XCIRCsave restore
%%EOF
