%!PS-Adobe-3.0 EPSF-3.0
%%Title: process_01.eps
%%Creator: XCircuit v3.4 rev27
%%CreationDate: Sat Dec 27 10:34:22 2008
%%Pages: 1
%%BoundingBox: 68 68 422 517
%%DocumentNeededResources: font Helvetica font Helvetica-Oblique 
%%+ font Times-Roman 
%%EndComments
%%BeginProlog
%
%  PostScript prolog for output from xcircuit
%  Version: 3.3
%
%  Electrical circuit (and otherwise general) drawing program
%
%  Written by Tim Edwards 8/5/93--7/13/05  (tim.edwards@multigig.com)
%  The Johns Hopkins University (1993-2004)
%  MultiGiG, Inc. (2004-present)
%
%%BeginResource: procset XCIRCproc 3.3 0
%
% supporting definitions --- these are the primary xcircuit types.

/XCIRCsave save def
/topmat matrix currentmatrix def

/fontslant { /slant exch def [1 0 slant 1 0 0] 
    exch findfont exch makefont dup length dict /ndict exch def
    { 1 index /FID ne { ndict 3 1 roll put } { pop pop } ifelse } forall
    ndict definefont pop} def
/ul { dup type /stringtype eq showflag 1 eq and { gsave 
   currentpoint topmat setmatrix 0 0 moveto 2 index stringwidth pop (_)
   false charpath flattenpath pathbbox grestore exch pop 1 index
   sub setlinewidth exch pop currentpoint 3 -1 roll add moveto 0
   rlineto stroke moveto } if } def
/ol { dup type /stringtype eq showflag 1 eq and { gsave gsave
   currentpoint topmat setmatrix 2 index stringwidth pop 3 index
   true charpath flattenpath pathbbox grestore exch pop
   exch pop topmat setmatrix (_) true charpath pathbbox grestore
   exch pop 1 index sub setlinewidth exch pop currentpoint
   exch 4 1 roll exch sub add moveto pop 0 rlineto stroke
   moveto } if } def
/stW { gsave currentpoint newpath moveto true charpath flattenpath
	pathbbox pop exch pop sub grestore } def
/Ts {mark Tabs aload pop counttomark 1 add array astore /Tabs exch def Tabs
	0 currentpoint pop put} def
/Tbn {mark Tabs aload pop counttomark dup 2 add 1 roll cleartomark 1 sub} def
/Tb { 0 1 Tbn {Tabs exch get dup currentpoint pop lt
	{currentpoint exch pop moveto exit} {pop} ifelse } for } def
/Tf { Tbn -1 0 {Tabs exch get dup currentpoint pop gt
	{currentpoint exch pop moveto exit} {pop} ifelse } for } def
/qS { (aa) stW (a a) stW sub 4 div 0 Kn } def
/hS { qS qS } def
/pspc 0 def
/cf0 { scalefont setfont } bind def
/Kn { dup kY add /kY exch def rmoveto } bind def
/ss { /fscale fscale 0.67 mul def currentfont 0.67 cf0 0 fscale0 fscale mul
	0.33 mul neg Kn} def
/Ss { /fscale fscale 0.67 mul def currentfont 0.67 cf0 0 fscale0 fscale mul
	0.67 mul Kn } def
/ns { 0 kY neg Kn /kY 0 def /fscale 1.0 def xfont0 1.0 cf0 } def
/CR { ns 0 /Bline Bline fscale0 neg add def Bline moveto } def
/cf { dup type /realtype ne {1.0} if exch findfont exch kY 0 eq
	{ 40 mul dup /fscale0 exch def cf0 /xfont0 currentfont def}
	{fscale0 mul fscale mul cf0} ifelse } def
/ctmk { counttomark dup 2 add -1 roll pop } bind def
/label { gsave translate 0 0 moveto dup scale neg /rotval exch def
	/just exch def just 384 and 0 gt {/mshow {pop} def} {/mshow {show}
	def} ifelse just 16 and 0 gt {gsave rotval rotate 0 1 dtransform
	gsave pagemat setmatrix idtransform exch grestore 1 0 dtransform
	gsave pagemat setmatrix idtransform exch grestore dup abs 1e-9 lt
	{pop mul 0 gt} {3 1 roll pop pop 0 lt} ifelse grestore {-1 /rotval
	rotval neg def /just just dup 3 and 1 ne {3 xor} if def} {1} ifelse
	exch -1e-9 lt {-1 /rotval rotval neg def /just just dup 12 and
	4 ne {12 xor} if def} {1} ifelse scale } if /showflag 0 def
	/fspc pspc def /Bline 0 def /Tabs 0 array def /fscale 1.0 def
	/kY 0 def gsave dup 1 add copy 0 exch 1 0 dtransform exch atan rotate
	{exch dup type /stringtype eq {true charpath flattenpath} {dup type
	/arraytype eq {exec} {12 string cvs true charpath flattenpath} ifelse}
	ifelse} repeat pop pathbbox grestore 3 -1 roll pop 3 1 roll just
	1 and 0 gt {just 2 and 0 gt {exch pop neg fspc sub} {exch sub 0.5
	mul neg} ifelse} {pop neg fspc add} ifelse exch Bline exch just 4
	and 0 gt {just 8 and 0 gt {exch pop neg fspc sub} {add 0.5 mul neg}
	ifelse} {pop neg fspc add} ifelse rotval rotate Kn currentpoint
	translate /showflag 1 def /Bline 0 def /Tabs 0 array def /fscale
	1.0 def /kY 0 def {dup type /stringtype eq {mshow} {dup type
	/arraytype eq {exec} {12 string cvs mshow} ifelse} ifelse} repeat
	grestore } def
/pinlabel { 4 index 32 and 0 ne hlevel 0 eq or { /pspc 10 def label
	/pspc 0 def } { pop pop pop pop pop {pop} repeat } ifelse } def
/pinglobal { pinlabel } def
/infolabel { pinlabel } def
/graphic { gsave 4 index cvx exec /DataSource get resetfile translate
	0 0 moveto neg rotate dup scale cvx exec image grestore } def

/scb { setrgbcolor } bind def  /sce { defColor aload pop scb } bind def
/cRedef {/defColor currentcolor 3 array astore def} def
/begingate {dup type /dicttype ne {1 dict} if begin	% default params
	dup type /dicttype ne {1 dict} if begin		% instanced params
	/hlevel hlevel 1 add def /defColor currentcolor sce 3 array
	astore def gsave sce translate 0 0 moveto neg rotate dup abs scale
	} bind def
/endgate { /hlevel hlevel 1 sub def grestore defColor aload pop cRedef
	scb end end} bind def

/hlevel 0 def
/tmpa [1 0 0 1 0 0] def
/gar {8 8 true tmpa {<c0 c0 00 00 0c 0c 00 00>} imagemask} bind
{8 8 true tmpa {<30 70 60 02 03 07 06 20>} imagemask} bind
{8 8 true tmpa {<0c 1e 1e 0c c0 e1 e1 c0>} imagemask} bind
{8 8 true tmpa {<0f 0f 0f 0f f0 f0 f0 f0>} imagemask} bind
{8 8 true tmpa {<3f f3 e1 e1 f3 3f 1e 1e>} imagemask} bind
{8 8 true tmpa {<df cf 8f 9f fd fc f8 f9>} imagemask} bind
{8 8 true tmpa {<ff 3f 3f ff ff f3 f3 ff>} imagemask} bind 7 array astore def
/ppaint { gsave clip tmpa dup setmatrix pathbbox neg exch neg 4 2 roll
  neg 4 -1 roll 2 copy gt {exch} if 8 div ceiling 8 mul 4 2 roll neg 2 copy
  gt {exch} if 8 div ceiling 8 mul 3 -1 roll -8 5 -1 roll
  { 3 index exch 5 exch put dup -8 3 index { 3 index
  exch 4 exch put 3 index exec } for } for pop pop pop pop grestore } bind def
/setstyles {
  currentlinewidth mul setlinewidth /style exch def
  style 1 and 0 gt not {closepath} if
  style 1024 and 0 gt {2 setlinecap} if
  style 2 and 0 gt {currentlinewidth 4 mul dup 2 array astore 0 setdash} if
  style 4 and 0 gt {0.5 currentlinewidth 4 mul 2 array astore 0 setdash} if
  gsave style 16 and 0 gt { style 224 and -5 bitshift style 256 and 0 gt {
  7 exch sub 8 div dup 1 exch sub currentrgbcolor 3 array astore
  {3 copy mul add 4 1 roll pop} forall pop pop setrgbcolor eofill}
  {dup 7 lt {gar exch get ppaint} {pop eofill} ifelse} ifelse}
  {style 256 and 0 gt {1 setgray eofill} if} ifelse grestore style 8 and 0 gt 
  style 512 eq or {newpath} {stroke} ifelse grestore} def     

/polygon { gsave /num exch def moveto num 1 sub {lineto} repeat setstyles } def
/xcarc   { gsave newpath arc setstyles } def
/elb { matrix currentmatrix 7 -1 roll 7 -1 roll translate 5 1 roll 4 -1 roll
	3 index div 1 scale } def
/ele { 0 4 1 roll 0 4 1 roll } bind def
/ellipse { gsave elb newpath ele arc setmatrix setstyles } def
/pellip  { elb ele arc setmatrix } def
/nellip  { elb ele arcn setmatrix } def
/spline  { gsave moveto curveto setstyles } def
/polyc   { {lineto} repeat } bind def
/beginpath { gsave moveto } bind def
/endpath { setstyles } bind def
/bop	 { 1 setlinecap 0 setlinejoin 6 setmiterlimit 0 0 0 scb cRedef } def
/psinsertion {/PSobj save def /showpage {} def /setpagedevice {pop} def bop
	rotate translate dup scale} def
/end_insert {PSobj restore} def
/setpagemat {/pagemat matrix currentmatrix def} def
/inchscale  {setpagemat 0.375 mul dup scale} def
/cmscale    {setpagemat 0.35433071 mul dup scale} def

%%EndResource
%%EndProlog

% XCircuit output starts here.

%%BeginSetup

/arrowhead {
% trivial
begingate
8 -28 beginpath
3 -18 3 -15 0 0 curveto
-3 -15 -3 -18 -8 -28 curveto
-2 -26 2 -26 8 -28 curveto
249 1.00 endpath
endgate
} def

/arrow {
% trivial
begingate
1 0.80 0 -40 0 20 2 polygon
1.00 0 0 40 arrowhead
endgate
} def

/valve_control1 {
begingate
0.604 0.604 0.604 scb
240 1.00 -112 -112 -112 -240 -80 -240 -80 -112 4 polygon
240 1.00 80 -112 80 -240 112 -240 112 -112 4 polygon
241 1.00 -32 -240 32 -240 80 -208 -80 -208 spline
240 1.00 -48 -112 -48 -128 48 -128 48 -112 4 polygon
240 1.00 -80 -144 -80 -208 80 -208 80 -144 4 polygon
240 1.00 -16 -96 -16 -48 16 -48 16 -96 4 polygon
241 1.00 -16 -80 -32 -80 -48 -48 -48 48 48 48 48 -48 32 -80 16 -80 16 -64 32 
-48 32 32 -32 32 -32 -48 -16 -64 -16 -80 15 polygon
sce
240 1.00 -4 32 -4 -48 4 -48 4 32 4 polygon
0.604 0.604 0.604 scb
240 1.00 -48 48 -48 160 48 160 48 48 4 polygon
241 1.00 -80 160 -120 168 -144 192 -48 160 spline
241 1.00 80 160 120 168 144 192 48 160 spline
240 1.00 -152 200 -152 192 152 192 152 200 4 polygon
240 1.00 -152 208 -152 200 152 200 152 208 4 polygon
241 1.00 -80 240 -120 232 -144 208 -48 240 spline
241 1.00 80 240 120 232 144 208 48 240 spline
sce
241 1.00 -48 240 48 240 2 polygon
1 1.00 -32 -240 32 -240 80 -208 -80 -208 spline
0.604 0.604 0.604 scb
241 1.00 64 -144 80 -128 80 -144 64 -144 4 polygon
241 1.00 -64 -144 -80 -128 -80 -144 -64 -144 4 polygon
241 1.00 -48 -144 -32 -128 -32 -144 -48 -144 4 polygon
241 1.00 48 -144 32 -128 32 -144 48 -144 4 polygon
240 1.00 -32 -128 -32 -144 32 -144 32 -128 4 polygon
sce
0 1.00 -48 -112 -48 -128 48 -128 48 -112 4 polygon
1 1.00 -80 -128 -64 -144 -48 -144 -32 -128 4 polygon
1 1.00 32 -128 48 -144 64 -144 80 -128 4 polygon
0 1.00 -112 -112 -112 -240 -80 -240 -80 -112 4 polygon
0 1.00 80 -112 80 -240 112 -240 112 -112 4 polygon
0.604 0.604 0.604 scb
240 1.00 -48 -96 -48 -112 48 -112 48 -96 4 polygon
sce
0 1.00 -48 -96 -48 -112 48 -112 48 -96 4 polygon
0 1.00 -16 -80 -16 -96 16 -96 16 -80 4 polygon
0 1.00 -16 -48 -16 -64 16 -64 16 -48 4 polygon
1 1.00 -32 -80 32 -80 48 -48 48 160 -48 160 -48 -48 -32 -80 7 polygon
1 1.00 16 -64 32 -48 32 32 -32 32 -32 -48 -16 -64 6 polygon
0.604 0.604 0.604 scb
241 1.00 -144 208 -56 240 56 240 144 208 -144 208 5 polygon
241 1.00 -144 192 -56 160 56 160 144 192 -144 192 5 polygon
sce
1 1.00 80 240 120 232 144 208 48 240 spline
1 1.00 -48 240 48 240 2 polygon
1 1.00 -80 240 -120 232 -144 208 -48 240 spline
1 1.00 80 160 120 168 144 192 48 160 spline
1 1.00 -48 160 48 160 2 polygon
1 1.00 -80 160 -120 168 -144 192 -48 160 spline
0 1.00 -152 200 -152 192 152 192 152 200 4 polygon
0 1.00 -152 208 -152 200 152 200 152 208 4 polygon
0.604 0.604 0.604 scb
240 1.00 -36 -96 -36 -80 -28 -80 -28 -96 4 polygon
sce
1 1.00 -36 -84 -28 -80 2 polygon
1 1.00 -36 -88 -28 -84 2 polygon
0 1.00 -36 -90 -36 -80 -28 -80 -28 -90 4 polygon
0.604 0.604 0.604 scb
240 1.00 -42 -90 -42 -96 -22 -96 -22 -90 4 polygon
sce
0 1.00 -42 -90 -42 -96 -22 -96 -22 -90 4 polygon
1 1.00 -36 -90 -36 -96 2 polygon
1 1.00 -28 -90 -28 -96 2 polygon
0.604 0.604 0.604 scb
240 1.00 -6 -96 -6 -80 2 -80 2 -96 4 polygon
sce
1 1.00 -6 -84 2 -80 2 polygon
1 1.00 -6 -88 2 -84 2 polygon
0 1.00 -6 -90 -6 -80 2 -80 2 -90 4 polygon
0.604 0.604 0.604 scb
240 1.00 -12 -90 -12 -96 8 -96 8 -90 4 polygon
sce
0 1.00 -12 -90 -12 -96 8 -96 8 -90 4 polygon
1 1.00 -6 -90 -6 -96 2 polygon
1 1.00 2 -90 2 -96 2 polygon
0.604 0.604 0.604 scb
240 1.00 26 -96 26 -80 34 -80 34 -96 4 polygon
sce
1 1.00 26 -84 34 -80 2 polygon
1 1.00 26 -88 34 -84 2 polygon
0 1.00 26 -90 26 -80 34 -80 34 -90 4 polygon
0.604 0.604 0.604 scb
240 1.00 20 -90 20 -96 40 -96 40 -90 4 polygon
sce
0 1.00 20 -90 20 -96 40 -96 40 -90 4 polygon
1 1.00 26 -90 26 -96 2 polygon
1 1.00 34 -90 34 -96 2 polygon
0.604 0.604 0.604 scb
240 1.00 -140 192 -140 184 -136 184 -136 192 4 polygon
sce
1 1.00 -140 187 -136 185 2 polygon
0 1.00 -140 192 -140 184 -136 184 -136 192 4 polygon
0.604 0.604 0.604 scb
240 1.00 -144 189 -144 192 -132 192 -132 189 4 polygon
sce
0 1.00 -144 189 -144 192 -132 192 -132 189 4 polygon
0.604 0.604 0.604 scb
240 1.00 -120 192 -120 184 -116 184 -116 192 4 polygon
sce
1 1.00 -120 187 -116 185 2 polygon
0 1.00 -120 192 -120 184 -116 184 -116 192 4 polygon
0.604 0.604 0.604 scb
240 1.00 -124 189 -124 192 -112 192 -112 189 4 polygon
sce
0 1.00 -124 189 -124 192 -112 192 -112 189 4 polygon
0.604 0.604 0.604 scb
240 1.00 -100 192 -100 184 -96 184 -96 192 4 polygon
sce
1 1.00 -100 187 -96 185 2 polygon
0 1.00 -100 192 -100 184 -96 184 -96 192 4 polygon
0.604 0.604 0.604 scb
240 1.00 -104 189 -104 192 -92 192 -92 189 4 polygon
sce
0 1.00 -104 189 -104 192 -92 192 -92 189 4 polygon
0.604 0.604 0.604 scb
240 1.00 -76 192 -76 184 -72 184 -72 192 4 polygon
sce
1 1.00 -76 187 -72 185 2 polygon
0 1.00 -76 192 -76 184 -72 184 -72 192 4 polygon
0.604 0.604 0.604 scb
240 1.00 -80 189 -80 192 -68 192 -68 189 4 polygon
sce
0 1.00 -80 189 -80 192 -68 192 -68 189 4 polygon
0.604 0.604 0.604 scb
240 1.00 -48 192 -48 184 -44 184 -44 192 4 polygon
sce
1 1.00 -48 187 -44 185 2 polygon
0 1.00 -48 192 -48 184 -44 184 -44 192 4 polygon
0.604 0.604 0.604 scb
240 1.00 -52 189 -52 192 -40 192 -40 189 4 polygon
sce
0 1.00 -52 189 -52 192 -40 192 -40 189 4 polygon
0.604 0.604 0.604 scb
240 1.00 -16 192 -16 184 -12 184 -12 192 4 polygon
sce
1 1.00 -16 187 -12 185 2 polygon
0 1.00 -16 192 -16 184 -12 184 -12 192 4 polygon
0.604 0.604 0.604 scb
240 1.00 -20 189 -20 192 -8 192 -8 189 4 polygon
sce
0 1.00 -20 189 -20 192 -8 192 -8 189 4 polygon
0.604 0.604 0.604 scb
240 1.00 124 192 124 184 120 184 120 192 4 polygon
sce
1 1.00 124 187 120 185 2 polygon
0 1.00 124 192 124 184 120 184 120 192 4 polygon
0.604 0.604 0.604 scb
240 1.00 128 189 128 192 116 192 116 189 4 polygon
sce
0 1.00 128 189 128 192 116 192 116 189 4 polygon
0.604 0.604 0.604 scb
240 1.00 104 192 104 184 100 184 100 192 4 polygon
sce
1 1.00 104 187 100 185 2 polygon
0 1.00 104 192 104 184 100 184 100 192 4 polygon
0.604 0.604 0.604 scb
240 1.00 108 189 108 192 96 192 96 189 4 polygon
sce
0 1.00 108 189 108 192 96 192 96 189 4 polygon
0.604 0.604 0.604 scb
240 1.00 80 192 80 184 76 184 76 192 4 polygon
sce
1 1.00 80 187 76 185 2 polygon
0 1.00 80 192 80 184 76 184 76 192 4 polygon
0.604 0.604 0.604 scb
240 1.00 84 189 84 192 72 192 72 189 4 polygon
sce
0 1.00 84 189 84 192 72 192 72 189 4 polygon
0.604 0.604 0.604 scb
240 1.00 52 192 52 184 48 184 48 192 4 polygon
sce
1 1.00 52 187 48 185 2 polygon
0 1.00 52 192 52 184 48 184 48 192 4 polygon
0.604 0.604 0.604 scb
240 1.00 56 189 56 192 44 192 44 189 4 polygon
sce
0 1.00 56 189 56 192 44 192 44 189 4 polygon
0.604 0.604 0.604 scb
240 1.00 20 192 20 184 16 184 16 192 4 polygon
sce
1 1.00 20 187 16 185 2 polygon
0 1.00 20 192 20 184 16 184 16 192 4 polygon
0.604 0.604 0.604 scb
240 1.00 24 189 24 192 12 192 12 189 4 polygon
sce
0 1.00 24 189 24 192 12 192 12 189 4 polygon
0.604 0.604 0.604 scb
240 1.00 140 192 140 184 136 184 136 192 4 polygon
sce
1 1.00 140 187 136 185 2 polygon
0 1.00 140 192 140 184 136 184 136 192 4 polygon
0.604 0.604 0.604 scb
240 1.00 144 189 144 192 132 192 132 189 4 polygon
sce
0 1.00 144 189 144 192 132 192 132 189 4 polygon
0.604 0.604 0.604 scb
240 1.00 -144 211 -144 208 -132 208 -132 211 4 polygon
sce
0 1.00 -144 211 -144 208 -132 208 -132 211 4 polygon
0.604 0.604 0.604 scb
240 1.00 -124 211 -124 208 -112 208 -112 211 4 polygon
sce
0 1.00 -124 211 -124 208 -112 208 -112 211 4 polygon
0.604 0.604 0.604 scb
240 1.00 -104 211 -104 208 -92 208 -92 211 4 polygon
sce
0 1.00 -104 211 -104 208 -92 208 -92 211 4 polygon
0.604 0.604 0.604 scb
240 1.00 -80 211 -80 208 -68 208 -68 211 4 polygon
sce
0 1.00 -80 211 -80 208 -68 208 -68 211 4 polygon
0.604 0.604 0.604 scb
240 1.00 -52 211 -52 208 -40 208 -40 211 4 polygon
sce
0 1.00 -52 211 -52 208 -40 208 -40 211 4 polygon
0.604 0.604 0.604 scb
240 1.00 -20 211 -20 208 -8 208 -8 211 4 polygon
sce
0 1.00 -20 211 -20 208 -8 208 -8 211 4 polygon
0.604 0.604 0.604 scb
240 1.00 12 211 12 208 24 208 24 211 4 polygon
sce
0 1.00 12 211 12 208 24 208 24 211 4 polygon
0.604 0.604 0.604 scb
240 1.00 44 211 44 208 56 208 56 211 4 polygon
sce
0 1.00 44 211 44 208 56 208 56 211 4 polygon
0.604 0.604 0.604 scb
240 1.00 72 211 72 208 84 208 84 211 4 polygon
sce
0 1.00 72 211 72 208 84 208 84 211 4 polygon
0.604 0.604 0.604 scb
240 1.00 96 211 96 208 108 208 108 211 4 polygon
sce
0 1.00 96 211 96 208 108 208 108 211 4 polygon
0.604 0.604 0.604 scb
240 1.00 116 211 116 208 128 208 128 211 4 polygon
sce
0 1.00 116 211 116 208 128 208 128 211 4 polygon
0.604 0.604 0.604 scb
240 1.00 132 211 132 208 144 208 144 211 4 polygon
sce
0 1.00 132 211 132 208 144 208 144 211 4 polygon
endgate
} def

/signal_air {
begingate
1 1.00 0 16 -16 -16 2 polygon
1 1.00 16 16 0 -16 2 polygon
1 1.00 -64 0 64 0 2 polygon
endgate
} def

/dp_cell {
begingate
0.604 0.604 0.604 scb
241 1.00 -48 -8 -16 -8 -16 -24 -48 -24 spline
241 1.00 -48 -120 -16 -120 -16 -104 -48 -104 spline
0.800 0.800 0.800 scb
240 1.00 0 -24 0 8 16 8 16 -24 4 polygon
0.000 0.000 1.000 scb
241 1.00 8 64 56 0.00 360.00 xcarc
0.604 0.604 0.604 scb
240 1.00 -48 -24 -48 -104 -16 -104 -16 -24 4 polygon
sce
241 1.00 -32 -64 8 0.00 360.00 xcarc
0.604 0.604 0.604 scb
241 1.00 32 -8 64 -8 64 -24 32 -24 spline
241 1.00 32 -120 64 -120 64 -104 32 -104 spline
240 1.00 32 -24 32 -104 64 -104 64 -24 4 polygon
sce
241 1.00 48 -64 8 0.00 360.00 xcarc
0.800 0.800 0.800 scb
240 1.00 -16 -24 -16 -104 32 -104 32 -24 4 polygon
sce
1 1.00 -48 -104 -48 -24 2 polygon
1 1.00 -16 -24 -16 -104 2 polygon
1 1.00 -48 -8 -16 -8 -16 -24 -48 -24 spline
1 1.00 -48 -120 -16 -120 -16 -104 -48 -104 spline
1 1.00 32 -120 64 -120 64 -104 32 -104 spline
1 1.00 32 -8 64 -8 64 -24 32 -24 spline
1 1.00 32 -24 32 -104 2 polygon
1 1.00 64 -24 64 -104 2 polygon
0 1.00 -16 -24 -16 -104 32 -104 32 -24 4 polygon
(H) {/Helvetica cf} 2 16 0 0.50 -40 -40 label
(L) {/Helvetica cf} 2 16 0 0.50 40 -40 label
0 1.00 0 8 0 -24 16 -24 16 8 4 polygon
1 1.00 8 64 56 0.00 360.00 xcarc
endgate
} def

/stud {
begingate
0.400 0.400 0.400 scb
496 1.00 0 4 0 -4 16 -4 16 4 4 polygon
496 1.00 8 8 8 -8 16 -8 16 8 4 polygon
sce
0 1.00 8 8 8 -8 16 -8 16 8 4 polygon
1 1.00 8 4 0 4 0 -4 8 -4 4 polygon
1 0.50 3 1 3 -1 2 polygon
1 0.50 5 1 5 -1 2 polygon
1 0.75 9 5 15 5 2 polygon
1 0.75 9 -5 15 -5 2 polygon
1 0.75 8 0 16 0 2 polygon
endgate
} def

/current_pressure {
begingate
0 1.00 -16 16 -16 -32 32 -32 32 16 4 polygon
(P) {ss} (/) {ns} (I) {Ss} {/Helvetica cf} 7 16 0 0.70 -4 -16 label
endgate
} def


%%EndSetup

%%Page: 8400x020.eps 1
%%PageOrientation: Portrait
/pgsave save def bop
0.7500 inchscale
2.6000 setlinewidth 864 1376 translate

0.800 0.800 0.800 scb
1 1.00 -480 -416 -480 -1056 2 polygon
1 1.00 -448 -416 -448 -1056 2 polygon
1 1.00 -416 -416 -416 -1056 2 polygon
1 1.00 -384 -416 -384 -1056 2 polygon
1 1.00 -352 -416 -352 -1056 2 polygon
1 1.00 -320 -416 -320 -1056 2 polygon
1 1.00 -288 -416 -288 -1056 2 polygon
1 1.00 -256 -416 -256 -1056 2 polygon
1 1.00 -224 -416 -224 -1056 2 polygon
1 1.00 -192 -416 -192 -1056 2 polygon
1 1.00 -160 -416 -160 -1056 2 polygon
1 1.00 -128 -416 -128 -1056 2 polygon
1 1.00 -96 -416 -96 -1056 2 polygon
1 1.00 -64 -416 -64 -1056 2 polygon
1 1.00 -32 -416 -32 -1056 2 polygon
1 1.00 0 -416 0 -1056 2 polygon
1 1.00 32 -416 32 -1056 2 polygon
1 1.00 64 -416 64 -1056 2 polygon
1 1.00 96 -416 96 -1056 2 polygon
1 1.00 128 -416 128 -1056 2 polygon
1 1.00 160 -416 160 -1056 2 polygon
1 1.00 192 -416 192 -1056 2 polygon
1 1.00 224 -416 224 -1056 2 polygon
1 1.00 256 -416 256 -1056 2 polygon
1 1.00 288 -416 288 -1056 2 polygon
1 1.00 320 -416 320 -1056 2 polygon
1 1.00 352 -416 352 -1056 2 polygon
1 1.00 384 -416 384 -1056 2 polygon
1 1.00 416 -416 416 -1056 2 polygon
1 1.00 448 -416 448 -1056 2 polygon
1 1.00 480 -416 480 -1056 2 polygon
1 1.00 512 -416 512 -1056 2 polygon
1 1.00 544 -416 544 -1056 2 polygon
1 1.00 576 -416 576 -1056 2 polygon
1 1.00 -512 -416 576 -416 2 polygon
1 1.00 -512 -448 576 -448 2 polygon
1 1.00 -512 -480 576 -480 2 polygon
1 1.00 -512 -512 576 -512 2 polygon
1 1.00 -512 -544 576 -544 2 polygon
1 1.00 -512 -576 576 -576 2 polygon
1 1.00 -512 -608 576 -608 2 polygon
1 1.00 -512 -640 576 -640 2 polygon
1 1.00 -512 -672 576 -672 2 polygon
1 1.00 -512 -704 576 -704 2 polygon
1 1.00 -512 -736 576 -736 2 polygon
1 1.00 -512 -768 576 -768 2 polygon
1 1.00 -512 -800 576 -800 2 polygon
1 1.00 -512 -832 576 -832 2 polygon
1 1.00 -512 -864 576 -864 2 polygon
1 1.00 -512 -896 576 -896 2 polygon
1 1.00 -512 -928 576 -928 2 polygon
1 1.00 -512 -960 576 -960 2 polygon
1 1.00 -512 -992 576 -992 2 polygon
1 1.00 -512 -1024 576 -1024 2 polygon
sce
1 1.00 -512 -416 -512 -1056 576 -1056 3 polygon
(Time) {/Helvetica cf} 2 16 0 1.00 -64 -1120 label
1.00 90 80 -1104 arrow
(0) {/Times-Roman cf} 2 16 0 0.50 -536 -1064 label
(5) {/Times-Roman cf} 2 16 0 0.50 -536 -1032 label
(10) {/Times-Roman cf} 2 16 0 0.50 -544 -1000 label
(15) {/Times-Roman cf} 2 16 0 0.50 -544 -968 label
(20) {/Times-Roman cf} 2 16 0 0.50 -544 -936 label
(25) {/Times-Roman cf} 2 16 0 0.50 -544 -904 label
(30) {/Times-Roman cf} 2 16 0 0.50 -544 -872 label
(35) {/Times-Roman cf} 2 16 0 0.50 -544 -840 label
(40) {/Times-Roman cf} 2 16 0 0.50 -544 -808 label
(45) {/Times-Roman cf} 2 16 0 0.50 -544 -776 label
(50) {/Times-Roman cf} 2 16 0 0.50 -544 -744 label
(55) {/Times-Roman cf} 2 16 0 0.50 -544 -712 label
(60) {/Times-Roman cf} 2 16 0 0.50 -544 -680 label
(65) {/Times-Roman cf} 2 16 0 0.50 -544 -648 label
(70) {/Times-Roman cf} 2 16 0 0.50 -544 -616 label
(75) {/Times-Roman cf} 2 16 0 0.50 -544 -584 label
(80) {/Times-Roman cf} 2 16 0 0.50 -544 -552 label
(85) {/Times-Roman cf} 2 16 0 0.50 -544 -520 label
(90) {/Times-Roman cf} 2 16 0 0.50 -544 -488 label
(95) {/Times-Roman cf} 2 16 0 0.50 -544 -456 label
(100) {/Times-Roman cf} 2 16 0 0.50 -552 -424 label
(%) {/Times-Roman cf} 2 16 0 1.00 -608 -736 label
0.627 0.125 0.941 scb
(Output) {/Helvetica cf} 2 16 0 1.00 -464 -832 label
0.000 0.000 1.000 scb
(PV) {/Helvetica cf} 2 16 0 1.00 -368 -640 label
0.627 0.125 0.941 scb
1 1.00 -512 -864 -320 -864 -320 -768 576 -768 4 polygon
0.000 0.000 1.000 scb
1 1.00 -512 -704 -508 -704 -504 -704 -504 -708 -496 -706 -492 -706 -490 -706 
-488 -708 -486 -708 -484 -708 -480 -706 -476 -704 -474 -704 -472 -706 -470 -708 
-464 -706 -454 -706 -450 -704 -448 -704 -444 -706 -442 -706 -438 -706 -434 -706 
-432 -704 -426 -704 -424 -704 -420 -706 -414 -706 -412 -706 -408 -706 -402 -706 
-396 -706 -392 -704 -388 -704 -380 -704 -378 -704 -374 -706 -372 -706 -368 -706 
-362 -704 -358 -704 -354 -704 -352 -704 -346 -706 -344 -706 -340 -706 -338 -704 
-332 -704 -330 -704 -328 -704 -326 -704 -322 -706 -320 -706 -318 -706 -318 -704 
-316 -704 -316 -702 -314 -702 -314 -700 -312 -696 -310 -696 -310 -694 -308 -692 
-304 -684 -304 -682 -302 -678 -300 -674 -298 -670 -296 -664 -296 -662 -294 -658 
-292 -654 -292 -652 -290 -644 -288 -640 -288 -634 -286 -626 -284 -624 -284 -620 
-282 -614 -282 -612 -280 -606 -280 -602 -278 -600 -278 -596 -276 -594 -274 -590 
-270 -584 -268 -584 -268 -582 -266 -580 -264 -580 -262 -578 -256 -578 -252 -576 
-250 -576 -246 -576 -244 -576 -240 -576 -238 -576 -234 -576 -230 -576 -222 -576 
-220 -578 -218 -578 -216 -578 -208 -578 -204 -578 -202 -576 -196 -576 -188 -578 
-186 -580 -180 -578 -176 -578 -174 -578 -166 -576 -160 -578 -156 -578 -150 -576 
-144 -576 -140 -576 -136 -576 -130 -578 -126 -576 -118 -576 -116 -576 -106 -574 
-102 -574 -98 -576 -96 -578 -92 -578 -86 -576 -84 -574 -76 -574 -74 -576 -72 
-578 -62 -578 -56 -576 -54 -576 -46 -576 -40 -578 -32 -576 142 polygon
1 1.00 -32 -576 -28 -576 -28 -578 -26 -578 -22 -576 -16 -576 -12 -574 -8 -574 
-6 -574 0 -574 6 -576 8 -578 14 -578 18 -578 24 -578 28 -578 36 -578 44 -578 50 
-578 54 -574 58 -574 66 -578 72 -578 76 -578 78 -578 82 -578 90 -578 94 -578 98 
-578 104 -574 106 -574 114 -578 120 -578 126 -580 132 -580 138 -580 148 -578 
152 -578 156 -574 160 -576 166 -578 170 -580 178 -578 180 -576 192 -576 
45 polygon
1 1.00 192 -576 196 -576 196 -578 198 -578 202 -576 208 -576 212 -574 216 -574 
218 -574 224 -574 230 -576 232 -578 238 -578 242 -578 248 -578 252 -578 260 
-578 268 -578 274 -578 278 -574 282 -574 290 -578 296 -578 300 -578 302 -578 
306 -578 314 -578 318 -578 322 -578 328 -574 330 -574 338 -578 344 -578 350 
-580 356 -580 362 -580 372 -578 376 -578 380 -574 384 -576 390 -578 394 -580 
402 -578 404 -576 416 -576 45 polygon
1 1.00 416 -576 418 -576 420 -576 422 -574 424 -574 428 -576 432 -576 436 -574 
438 -574 442 -574 448 -574 452 -574 456 -574 462 -576 470 -576 472 -574 476 
-572 480 -574 484 -574 490 -574 496 -574 502 -580 506 -580 512 -578 518 -576 
520 -576 526 -576 530 -572 536 -574 538 -576 544 -574 550 -574 554 -574 560 
-578 562 -578 564 -578 568 -574 576 -576 38 polygon
sce
(Step-change) {/Helvetica-Oblique cf} 2 16 0 0.70 -272 -824 label
1.00 0 -288 -768 arrowhead
-1.00 180 -288 -864 arrowhead
1 1.00 -288 -784 -288 -808 2 polygon
1 1.00 -288 -848 -288 -824 2 polygon
(Process variable self-stabilizes at a new value) {/Helvetica-Oblique cf} 2 16 
0 0.70 -248 -656 label
1.00 0 256 -64 valve_control1
1.00 90 144 44 signal_air
1 1.00 144 -20 144 -32 128 -32 3 polygon
1.00 0 64 -32 signal_air
0.800 0.800 0.800 scb
240 1.00 -64 448 -64 288 64 288 64 448 4 polygon
sce
0 1.00 -64 448 -64 288 64 288 64 448 4 polygon
0 1.00 -32 432 -32 336 32 336 32 432 4 polygon
1 1.00 0 432 0 336 2 polygon
1 1.00 -8 424 8 424 2 polygon
1 1.00 -8 416 8 416 2 polygon
1 1.00 -8 408 8 408 2 polygon
1 1.00 -8 400 8 400 2 polygon
1 1.00 -8 392 8 392 2 polygon
1 1.00 -8 384 8 384 2 polygon
1 1.00 -8 376 8 376 2 polygon
1 1.00 -8 368 8 368 2 polygon
1 1.00 -8 360 8 360 2 polygon
1 1.00 -8 352 8 352 2 polygon
1 1.00 -8 344 8 344 2 polygon
1 1.00 -48 308 -48 300 2 polygon
1 1.00 -44 308 -44 300 2 polygon
1 1.00 -40 308 -40 300 2 polygon
1 1.00 -36 308 -36 300 2 polygon
1 1.00 -32 308 -32 300 2 polygon
1 1.00 -28 308 -28 300 2 polygon
1 1.00 -24 308 -24 300 2 polygon
1 1.00 -20 308 -20 300 2 polygon
1 1.00 -16 308 -16 300 2 polygon
1 1.00 -12 308 -12 300 2 polygon
1 1.00 -8 308 -8 300 2 polygon
1 1.00 -4 308 -4 300 2 polygon
1 1.00 0 308 0 300 2 polygon
1 1.00 4 308 4 300 2 polygon
1 1.00 8 308 8 300 2 polygon
1 1.00 12 308 12 300 2 polygon
1 1.00 16 308 16 300 2 polygon
1 1.00 20 308 20 300 2 polygon
1 1.00 24 308 24 300 2 polygon
1 1.00 28 308 28 300 2 polygon
1 1.00 32 308 32 300 2 polygon
1 1.00 36 308 36 300 2 polygon
1 1.00 40 308 40 300 2 polygon
1 1.00 44 308 44 300 2 polygon
1 1.00 48 308 48 300 2 polygon
1.000 0.000 0.000 scb
241 1.00 20 392 20 384 12 388 20 392 4 polygon
0.000 0.000 1.000 scb
241 1.00 -20 400 -20 392 -12 396 -20 400 4 polygon
1 1.00 -20 396 -28 396 2 polygon
1.000 0.000 0.000 scb
1 1.00 16 388 28 388 2 polygon
0.000 0.000 1.000 scb
(PV) {/Helvetica cf} 2 19 0 0.40 -38 384 label
1.000 0.000 0.000 scb
(SP) {/Helvetica cf} 2 19 0 0.40 58 384 label
0.627 0.125 0.941 scb
241 1.00 -12 316 -8 308 -4 316 -12 316 4 polygon
sce
0 1.00 -52 328 -52 300 52 300 52 328 4 polygon
0.627 0.125 0.941 scb
1 1.00 -8 316 -8 324 2 polygon
sce
1.00 90 0 32 signal_air
1 1.00 0 160 64 0.00 360.00 xcarc
3 1.00 0 224 0 288 2 polygon
0.604 0.604 0.604 scb
240 1.00 144 -176 144 -304 112 -304 112 -176 4 polygon
sce
0 1.00 144 -176 144 -304 112 -304 112 -176 4 polygon
0.604 0.604 0.604 scb
240 1.00 112 -192 112 -288 -320 -288 -320 -192 4 polygon
sce
0 1.00 112 -192 112 -288 -320 -288 -320 -192 4 polygon
0.604 0.604 0.604 scb
240 1.00 -352 -176 -352 -304 -320 -304 -320 -176 4 polygon
sce
0 1.00 -352 -176 -352 -304 -320 -304 -320 -176 4 polygon
0.604 0.604 0.604 scb
240 1.00 -384 -176 -384 -304 -352 -304 -352 -176 4 polygon
sce
0 1.00 -384 -176 -384 -304 -352 -304 -352 -176 4 polygon
1 2.00 -352 -288 -352 -128 2 polygon
0.604 0.604 0.604 scb
240 1.00 -384 -192 -384 -288 -608 -288 -608 -192 4 polygon
sce
1 1.00 -608 -192 -384 -192 -384 -288 -608 -288 4 polygon
0.000 0.000 1.000 scb
241 1.00 -112 -256 -112 -224 -48 -224 -48 -208 0 -240 -48 -272 -48 -256 -112 
-256 8 polygon
0.604 0.604 0.604 scb
240 1.00 400 -176 400 -304 368 -304 368 -176 4 polygon
sce
0 1.00 400 -176 400 -304 368 -304 368 -176 4 polygon
0.604 0.604 0.604 scb
240 1.00 400 -192 400 -288 624 -288 624 -192 4 polygon
sce
1 1.00 624 -192 400 -192 400 -288 624 -288 4 polygon
0.000 0.000 1.000 scb
(Flow) {/Helvetica cf} 2 16 0 1.00 -224 -256 label
sce
1.00 0 -368 16 dp_cell
1 1.00 -400 -48 -448 -48 -448 -144 -368 -144 -368 -176 5 polygon
1 1.00 -320 -48 -272 -48 -272 -144 -336 -144 -336 -176 5 polygon
(FY) {/Helvetica cf} 2 16 0 1.00 -24 144 label
3 1.00 -304 80 -176 80 -176 384 -64 384 4 polygon
(FIC) {/Helvetica cf} 2 16 0 1.00 80 368 label
(FT) {/Helvetica cf} 2 16 0 1.00 -384 152 label
(FV) {/Helvetica cf} 2 16 0 1.00 320 16 label
1.00 0 -400 -224 stud
1.00 0 -400 -192 stud
1.00 0 -400 -256 stud
1.00 0 -400 -288 stud
1.00 0 96 -224 stud
1.00 0 96 -192 stud
1.00 0 96 -256 stud
1.00 0 96 -288 stud
1.00 0 320 -224 stud
1.00 0 320 -192 stud
1.00 0 320 -256 stud
1.00 0 320 -288 stud
-1.00 0 416 -224 stud
-1.00 0 416 -192 stud
-1.00 0 416 -256 stud
-1.00 0 416 -288 stud
-1.00 0 192 -224 stud
-1.00 0 192 -192 stud
-1.00 0 192 -256 stud
-1.00 0 192 -288 stud
-1.00 0 -304 -224 stud
-1.00 0 -304 -192 stud
-1.00 0 -304 -256 stud
-1.00 0 -304 -288 stud
1 1.00 240 -80 272 -80 2 polygon
1.00 0 -80 240 current_pressure
pgsave restore showpage

%%Trailer
XCIRCsave restore
%%EOF
